{
    "proposicao": {
        "Sigla": "PDC",
        "Numero": "256",
        "Ano": "1993",
        "Votacoes": {
            "Votacao": {
                "@Resumo": "",
                "@Data": "22/9/1993",
                "@Hora": "20:06",
                "@ObjVotacao": "",
                "@codSessao": "2629",
                "votos": {
                    "Deputado": [
                        {
                            "@Nome": "Alceste Almeida",
                            "@ideCadastro": "73979",
                            "@Partido": "PTB       ",
                            "@UF": "RR",
                            "@Voto": "Sim            "
                        },
                        {
                            "@Nome": "Francisco Rodrigues",
                            "@ideCadastro": "73981",
                            "@Partido": "PTB       ",
                            "@UF": "RR",
                            "@Voto": "Sim            "
                        },
                        {
                            "@Nome": "João Fagundes",
                            "@ideCadastro": "133881",
                            "@Partido": "PMDB      ",
                            "@UF": "RR",
                            "@Voto": "Sim            "
                        },
                        {
                            "@Nome": "Marcelo Luz",
                            "@ideCadastro": "133880",
                            "@Partido": "PP        ",
                            "@UF": "RR",
                            "@Voto": "Sim            "
                        },
                        {
                            "@Nome": "Ruben Bento",
                            "@ideCadastro": "73807",
                            "@Partido": "PFL       ",
                            "@UF": "RR",
                            "@Voto": "Sim            "
                        },
                        {
                            "@Nome": "Eraldo Trindade",
                            "@ideCadastro": "74064",
                            "@Partido": "PPR       ",
                            "@UF": "AP",
                            "@Voto": "Sim            "
                        },
                        {
                            "@Nome": "Fátima Pelaes",
                            "@ideCadastro": "74065",
                            "@Partido": "PFL       ",
                            "@UF": "AP",
                            "@Voto": "Sim            "
                        },
                        {
                            "@Nome": "Lourival Freitas",
                            "@ideCadastro": "73822",
                            "@Partido": "PT        ",
                            "@UF": "AP",
                            "@Voto": "Sim            "
                        },
                        {
                            "@Nome": "Murilo Pinheiro",
                            "@ideCadastro": "74067",
                            "@Partido": "PFL       ",
                            "@UF": "AP",
                            "@Voto": "Sim            "
                        },
                        {
                            "@Nome": "Sérgio Barcellos",
                            "@ideCadastro": "74069",
                            "@Partido": "PFL       ",
                            "@UF": "AP",
                            "@Voto": "Sim            "
                        },
                        {
                            "@Nome": "Valdenor Guedes",
                            "@ideCadastro": "74070",
                            "@Partido": "PP        ",
                            "@UF": "AP",
                            "@Voto": "Sim            "
                        },
                        {
                            "@Nome": "Alacid Nunes",
                            "@ideCadastro": "133939",
                            "@Partido": "PFL       ",
                            "@UF": "PA",
                            "@Voto": "Sim            "
                        },
                        {
                            "@Nome": "Carlos Kayath",
                            "@ideCadastro": "73637",
                            "@Partido": "PTB       ",
                            "@UF": "PA",
                            "@Voto": "Sim            "
                        },
                        {
                            "@Nome": "Hilário Coimbra",
                            "@ideCadastro": "74078",
                            "@Partido": "PTB       ",
                            "@UF": "PA",
                            "@Voto": "Sim            "
                        },
                        {
                            "@Nome": "Mario Martins",
                            "@ideCadastro": "74114",
                            "@Partido": "PMDB      ",
                            "@UF": "PA",
                            "@Voto": "Sim            "
                        },
                        {
                            "@Nome": "Mario Chermont",
                            "@ideCadastro": "133889",
                            "@Partido": "PP        ",
                            "@UF": "PA",
                            "@Voto": "Sim            "
                        },
                        {
                            "@Nome": "Paulo Rocha",
                            "@ideCadastro": "74082",
                            "@Partido": "PT        ",
                            "@UF": "PA",
                            "@Voto": "Sim            "
                        },
                        {
                            "@Nome": "Valdir Ganzer",
                            "@ideCadastro": "74348",
                            "@Partido": "PT        ",
                            "@UF": "PA",
                            "@Voto": "Sim            "
                        },
                        {
                            "@Nome": "José Dutra",
                            "@ideCadastro": "133867",
                            "@Partido": "PMDB      ",
                            "@UF": "AM",
                            "@Voto": "Sim            "
                        },
                        {
                            "@Nome": "Pauderney Avelino",
                            "@ideCadastro": "74095",
                            "@Partido": "PPR       ",
                            "@UF": "AM",
                            "@Voto": "Sim            "
                        },
                        {
                            "@Nome": "Ricardo Moraes",
                            "@ideCadastro": "73803",
                            "@Partido": "PSB       ",
                            "@UF": "AM",
                            "@Voto": "Sim            "
                        },
                        {
                            "@Nome": "Pascoal Novaes",
                            "@ideCadastro": "73845",
                            "@Partido": "PSD       ",
                            "@UF": "RO",
                            "@Voto": "Sim            "
                        },
                        {
                            "@Nome": "Raquel Cândido",
                            "@ideCadastro": "133864",
                            "@Partido": "PTB       ",
                            "@UF": "RO",
                            "@Voto": "Sim            "
                        },
                        {
                            "@Nome": "João Maia",
                            "@ideCadastro": "141459",
                            "@Partido": "PP        ",
                            "@UF": "AC",
                            "@Voto": "Sim            "
                        },
                        {
                            "@Nome": "Zilá Bezerra",
                            "@ideCadastro": "74185",
                            "@Partido": "PMDB      ",
                            "@UF": "AC",
                            "@Voto": "Sim            "
                        },
                        {
                            "@Nome": "Edmundo Galdino",
                            "@ideCadastro": "73827",
                            "@Partido": "PSDB      ",
                            "@UF": "TO",
                            "@Voto": "Sim            "
                        },
                        {
                            "@Nome": "Paulo Mourão",
                            "@ideCadastro": "74192",
                            "@Partido": "PPR       ",
                            "@UF": "TO",
                            "@Voto": "Sim            "
                        },
                        {
                            "@Nome": "Costa Ferreira",
                            "@ideCadastro": "74016",
                            "@Partido": "PP        ",
                            "@UF": "MA",
                            "@Voto": "Sim            "
                        },
                        {
                            "@Nome": "Cesar Bandeira",
                            "@ideCadastro": "74195",
                            "@Partido": "PFL       ",
                            "@UF": "MA",
                            "@Voto": "Sim            "
                        },
                        {
                            "@Nome": "Cid Carvalho",
                            "@ideCadastro": "133995",
                            "@Partido": "PMDB      ",
                            "@UF": "MA",
                            "@Voto": "Sim            "
                        },
                        {
                            "@Nome": "Haroldo Sabóia",
                            "@ideCadastro": "68676",
                            "@Partido": "PT        ",
                            "@UF": "MA",
                            "@Voto": "Sim            "
                        },
                        {
                            "@Nome": "João Rodolfo",
                            "@ideCadastro": "133935",
                            "@Partido": "PPR       ",
                            "@UF": "MA",
                            "@Voto": "Sim            "
                        },
                        {
                            "@Nome": "José Burnett",
                            "@ideCadastro": "133936",
                            "@Partido": "PPR       ",
                            "@UF": "MA",
                            "@Voto": "Sim            "
                        },
                        {
                            "@Nome": "Pedro Novais",
                            "@ideCadastro": "74207",
                            "@Partido": "PMDB      ",
                            "@UF": "MA",
                            "@Voto": "Abstenção      "
                        },
                        {
                            "@Nome": "Ricardo Murad",
                            "@ideCadastro": "73802",
                            "@Partido": "PSD       ",
                            "@UF": "MA",
                            "@Voto": "Sim            "
                        },
                        {
                            "@Nome": "Roseana Sarney",
                            "@ideCadastro": "73806",
                            "@Partido": "PFL       ",
                            "@UF": "MA",
                            "@Voto": "Sim            "
                        },
                        {
                            "@Nome": "Aécio de Borba",
                            "@ideCadastro": "74244",
                            "@Partido": "PPR       ",
                            "@UF": "CE",
                            "@Voto": "Sim            "
                        },
                        {
                            "@Nome": "Antônio dos Santos",
                            "@ideCadastro": "74214",
                            "@Partido": "PFL       ",
                            "@UF": "CE",
                            "@Voto": "Sim            "
                        },
                        {
                            "@Nome": "Carlos Benevides",
                            "@ideCadastro": "73702",
                            "@Partido": "PMDB      ",
                            "@UF": "CE",
                            "@Voto": "Sim            "
                        },
                        {
                            "@Nome": "Edson Silva",
                            "@ideCadastro": "74106",
                            "@Partido": "PDT       ",
                            "@UF": "CE",
                            "@Voto": "Não            "
                        },
                        {
                            "@Nome": "Pinheiro Landim",
                            "@ideCadastro": "74304",
                            "@Partido": "PMDB      ",
                            "@UF": "CE",
                            "@Voto": "Sim            "
                        },
                        {
                            "@Nome": "Jackson Pereira",
                            "@ideCadastro": "74296",
                            "@Partido": "PSDB      ",
                            "@UF": "CE",
                            "@Voto": "Sim            "
                        },
                        {
                            "@Nome": "Gonzaga Mota",
                            "@ideCadastro": "74294",
                            "@Partido": "PMDB      ",
                            "@UF": "CE",
                            "@Voto": "Sim            "
                        },
                        {
                            "@Nome": "Marco Penaforte",
                            "@ideCadastro": "73719",
                            "@Partido": "PSDB      ",
                            "@UF": "CE",
                            "@Voto": "Sim            "
                        },
                        {
                            "@Nome": "Moroni Torgan",
                            "@ideCadastro": "74457",
                            "@Partido": "PSDB      ",
                            "@UF": "CE",
                            "@Voto": "Sim            "
                        },
                        {
                            "@Nome": "Ubiratan Aguiar",
                            "@ideCadastro": "74307",
                            "@Partido": "PSDB      ",
                            "@UF": "CE",
                            "@Voto": "Sim            "
                        },
                        {
                            "@Nome": "B. Sá",
                            "@ideCadastro": "74312",
                            "@Partido": "PP        ",
                            "@UF": "PI",
                            "@Voto": "Sim            "
                        },
                        {
                            "@Nome": "João Henrique",
                            "@ideCadastro": "74316",
                            "@Partido": "PMDB      ",
                            "@UF": "PI",
                            "@Voto": "Sim            "
                        },
                        {
                            "@Nome": "José Luiz Maia",
                            "@ideCadastro": "133914",
                            "@Partido": "PPR       ",
                            "@UF": "PI",
                            "@Voto": "Sim            "
                        },
                        {
                            "@Nome": "Paulo Silva",
                            "@ideCadastro": "73816",
                            "@Partido": "PSDB      ",
                            "@UF": "PI",
                            "@Voto": "Sim            "
                        },
                        {
                            "@Nome": "Aluizio Alves",
                            "@ideCadastro": "133958",
                            "@Partido": "PMDB      ",
                            "@UF": "RN",
                            "@Voto": "Sim            "
                        },
                        {
                            "@Nome": "Fernando Freire",
                            "@ideCadastro": "73732",
                            "@Partido": "PPR       ",
                            "@UF": "RN",
                            "@Voto": "Sim            "
                        },
                        {
                            "@Nome": "Laire Rosado",
                            "@ideCadastro": "74326",
                            "@Partido": "PMDB      ",
                            "@UF": "RN",
                            "@Voto": "Sim            "
                        },
                        {
                            "@Nome": "Evaldo Gonçalves",
                            "@ideCadastro": "133858",
                            "@Partido": "PFL       ",
                            "@UF": "PB",
                            "@Voto": "Sim            "
                        },
                        {
                            "@Nome": "Ivandro Cunha Lima",
                            "@ideCadastro": "74410",
                            "@Partido": "PMDB      ",
                            "@UF": "PB",
                            "@Voto": "Sim            "
                        },
                        {
                            "@Nome": "José Luiz Clerot",
                            "@ideCadastro": "74412",
                            "@Partido": "PMDB      ",
                            "@UF": "PB",
                            "@Voto": "Sim            "
                        },
                        {
                            "@Nome": "Zuca Moreira",
                            "@ideCadastro": "73713",
                            "@Partido": "PMDB      ",
                            "@UF": "PB",
                            "@Voto": "Sim            "
                        },
                        {
                            "@Nome": "José Maranhão",
                            "@ideCadastro": "133975",
                            "@Partido": "PMDB      ",
                            "@UF": "PB",
                            "@Voto": "Sim            "
                        },
                        {
                            "@Nome": "Rivaldo Medeiros",
                            "@ideCadastro": "133926",
                            "@Partido": "PFL       ",
                            "@UF": "PB",
                            "@Voto": "Sim            "
                        },
                        {
                            "@Nome": "Alvaro Ribeiro",
                            "@ideCadastro": "74247",
                            "@Partido": "PSB       ",
                            "@UF": "PE",
                            "@Voto": "Sim            "
                        },
                        {
                            "@Nome": "Gustavo Krause",
                            "@ideCadastro": "73707",
                            "@Partido": "PFL       ",
                            "@UF": "PE",
                            "@Voto": "Sim            "
                        },
                        {
                            "@Nome": "Inocêncio Oliveira",
                            "@ideCadastro": "74421",
                            "@Partido": "PFL       ",
                            "@UF": "PE",
                            "@Voto": "Abstenção      "
                        },
                        {
                            "@Nome": "José Carlos Vasconcellos",
                            "@ideCadastro": "133976",
                            "@Partido": "PRN       ",
                            "@UF": "PE",
                            "@Voto": "Sim            "
                        },
                        {
                            "@Nome": "José Mendonça Bezerra",
                            "@ideCadastro": "74425",
                            "@Partido": "PFL       ",
                            "@UF": "PE",
                            "@Voto": "Sim            "
                        },
                        {
                            "@Nome": "Maurílio Ferreira Lima",
                            "@ideCadastro": "65904",
                            "@Partido": "PSDB      ",
                            "@UF": "PE",
                            "@Voto": "Sim            "
                        },
                        {
                            "@Nome": "Miguel Arraes",
                            "@ideCadastro": "65511",
                            "@Partido": "PSB       ",
                            "@UF": "PE",
                            "@Voto": "Abstenção      "
                        },
                        {
                            "@Nome": "Pedro Correa",
                            "@ideCadastro": "74431",
                            "@Partido": "PFL       ",
                            "@UF": "PE",
                            "@Voto": "Sim            "
                        },
                        {
                            "@Nome": "Renildo Calheiros",
                            "@ideCadastro": "73801",
                            "@Partido": "PCdoB     ",
                            "@UF": "PE",
                            "@Voto": "Sim            "
                        },
                        {
                            "@Nome": "Ricardo Fiúza",
                            "@ideCadastro": "74557",
                            "@Partido": "PFL       ",
                            "@UF": "PE",
                            "@Voto": "Sim            "
                        },
                        {
                            "@Nome": "Roberto França",
                            "@ideCadastro": "73804",
                            "@Partido": "PSB       ",
                            "@UF": "PE",
                            "@Voto": "Sim            "
                        },
                        {
                            "@Nome": "Roberto Freire",
                            "@ideCadastro": "73805",
                            "@Partido": "PPS       ",
                            "@UF": "PE",
                            "@Voto": "Sim            "
                        },
                        {
                            "@Nome": "Salatiel Carvalho",
                            "@ideCadastro": "74434",
                            "@Partido": "PP        ",
                            "@UF": "PE",
                            "@Voto": "Sim            "
                        },
                        {
                            "@Nome": "Sérgio Guerra",
                            "@ideCadastro": "74435",
                            "@Partido": "PSB       ",
                            "@UF": "PE",
                            "@Voto": "Sim            "
                        },
                        {
                            "@Nome": "Wilson Campos",
                            "@ideCadastro": "74438",
                            "@Partido": "PSDB      ",
                            "@UF": "PE",
                            "@Voto": "Sim            "
                        },
                        {
                            "@Nome": "Augusto Farias",
                            "@ideCadastro": "74441",
                            "@Partido": "PSC       ",
                            "@UF": "AL",
                            "@Voto": "Sim            "
                        },
                        {
                            "@Nome": "Cleto Falcão",
                            "@ideCadastro": "73813",
                            "@Partido": "PSD       ",
                            "@UF": "AL",
                            "@Voto": "Sim            "
                        },
                        {
                            "@Nome": "Cleonancio Fonseca",
                            "@ideCadastro": "74527",
                            "@Partido": "PPR       ",
                            "@UF": "SE",
                            "@Voto": "Sim            "
                        },
                        {
                            "@Nome": "José Teles",
                            "@ideCadastro": "74529",
                            "@Partido": "PPR       ",
                            "@UF": "SE",
                            "@Voto": "Sim            "
                        },
                        {
                            "@Nome": "Messias Gois",
                            "@ideCadastro": "74249",
                            "@Partido": "PFL       ",
                            "@UF": "SE",
                            "@Voto": "Sim            "
                        },
                        {
                            "@Nome": "Clóvis Assis",
                            "@ideCadastro": "73721",
                            "@Partido": "PSDB      ",
                            "@UF": "BA",
                            "@Voto": "Sim            "
                        },
                        {
                            "@Nome": "Eraldo Tinoco",
                            "@ideCadastro": "74540",
                            "@Partido": "PFL       ",
                            "@UF": "BA",
                            "@Voto": "Sim            "
                        },
                        {
                            "@Nome": "Félix Mendonça",
                            "@ideCadastro": "74542",
                            "@Partido": "PTB       ",
                            "@UF": "BA",
                            "@Voto": "Sim            "
                        },
                        {
                            "@Nome": "Waldir Pires",
                            "@ideCadastro": "74576",
                            "@Partido": "PSDB      ",
                            "@UF": "BA",
                            "@Voto": "Sim            "
                        },
                        {
                            "@Nome": "Geddel Vieira Lima",
                            "@ideCadastro": "74544",
                            "@Partido": "PMDB      ",
                            "@UF": "BA",
                            "@Voto": "Sim            "
                        },
                        {
                            "@Nome": "Haroldo Lima",
                            "@ideCadastro": "74545",
                            "@Partido": "PCdoB     ",
                            "@UF": "BA",
                            "@Voto": "Sim            "
                        },
                        {
                            "@Nome": "Jairo Azi",
                            "@ideCadastro": "74546",
                            "@Partido": "PSD       ",
                            "@UF": "BA",
                            "@Voto": "Sim            "
                        },
                        {
                            "@Nome": "João Almeida",
                            "@ideCadastro": "74549",
                            "@Partido": "PMDB      ",
                            "@UF": "BA",
                            "@Voto": "Sim            "
                        },
                        {
                            "@Nome": "João Carlos Bacelar",
                            "@ideCadastro": "74131",
                            "@Partido": "PSC       ",
                            "@UF": "BA",
                            "@Voto": "Sim            "
                        },
                        {
                            "@Nome": "Jorge Khoury",
                            "@ideCadastro": "74552",
                            "@Partido": "PFL       ",
                            "@UF": "BA",
                            "@Voto": "Sim            "
                        },
                        {
                            "@Nome": "José Carlos Aleluia",
                            "@ideCadastro": "74553",
                            "@Partido": "PFL       ",
                            "@UF": "BA",
                            "@Voto": "Sim            "
                        },
                        {
                            "@Nome": "José Lourenço",
                            "@ideCadastro": "74125",
                            "@Partido": "PPR       ",
                            "@UF": "BA",
                            "@Voto": "Sim            "
                        },
                        {
                            "@Nome": "Ribeiro Tavares",
                            "@ideCadastro": "73830",
                            "@Partido": "PL        ",
                            "@UF": "BA",
                            "@Voto": "Sim            "
                        },
                        {
                            "@Nome": "Luís Eduardo",
                            "@ideCadastro": "74630",
                            "@Partido": "PFL       ",
                            "@UF": "BA",
                            "@Voto": "Sim            "
                        },
                        {
                            "@Nome": "Marcos Medrado",
                            "@ideCadastro": "74634",
                            "@Partido": "PP        ",
                            "@UF": "BA",
                            "@Voto": "Sim            "
                        },
                        {
                            "@Nome": "Pedro Irujo",
                            "@ideCadastro": "74637",
                            "@Partido": "PMDB      ",
                            "@UF": "BA",
                            "@Voto": "Sim            "
                        },
                        {
                            "@Nome": "Sérgio Gaudenzi",
                            "@ideCadastro": "133949",
                            "@Partido": "PSDB      ",
                            "@UF": "BA",
                            "@Voto": "Sim            "
                        },
                        {
                            "@Nome": "Agostinho Valente",
                            "@ideCadastro": "73694",
                            "@Partido": "PT        ",
                            "@UF": "MG",
                            "@Voto": "Sim            "
                        },
                        {
                            "@Nome": "Aloisio Vasconcelos",
                            "@ideCadastro": "133988",
                            "@Partido": "PMDB      ",
                            "@UF": "MG",
                            "@Voto": "Sim            "
                        },
                        {
                            "@Nome": "Armando Costa",
                            "@ideCadastro": "74649",
                            "@Partido": "PMDB      ",
                            "@UF": "MG",
                            "@Voto": "Sim            "
                        },
                        {
                            "@Nome": "Avelino Costa",
                            "@ideCadastro": "73634",
                            "@Partido": "PPR       ",
                            "@UF": "MG",
                            "@Voto": "Sim            "
                        },
                        {
                            "@Nome": "Felipe Neri",
                            "@ideCadastro": "133918",
                            "@Partido": "PMDB      ",
                            "@UF": "MG",
                            "@Voto": "Sim            "
                        },
                        {
                            "@Nome": "Fernando Diniz",
                            "@ideCadastro": "74658",
                            "@Partido": "PMDB      ",
                            "@UF": "MG",
                            "@Voto": "Sim            "
                        },
                        {
                            "@Nome": "Genésio Bernardino",
                            "@ideCadastro": "74659",
                            "@Partido": "PMDB      ",
                            "@UF": "MG",
                            "@Voto": "Sim            "
                        },
                        {
                            "@Nome": "Ibrahim Abi-Ackel",
                            "@ideCadastro": "74663",
                            "@Partido": "PPR       ",
                            "@UF": "MG",
                            "@Voto": "Sim            "
                        },
                        {
                            "@Nome": "Israel Pinheiro",
                            "@ideCadastro": "74664",
                            "@Partido": "PTB       ",
                            "@UF": "MG",
                            "@Voto": "Sim            "
                        },
                        {
                            "@Nome": "João Paulo",
                            "@ideCadastro": "133969",
                            "@Partido": "PT        ",
                            "@UF": "MG",
                            "@Voto": "Sim            "
                        },
                        {
                            "@Nome": "José Belato",
                            "@ideCadastro": "73749",
                            "@Partido": "PMDB      ",
                            "@UF": "MG",
                            "@Voto": "Sim            "
                        },
                        {
                            "@Nome": "José Aldo",
                            "@ideCadastro": "133848",
                            "@Partido": "PTB       ",
                            "@UF": "MG",
                            "@Voto": "Sim            "
                        },
                        {
                            "@Nome": "Elias Murad",
                            "@ideCadastro": "74656",
                            "@Partido": "PSDB      ",
                            "@UF": "MG",
                            "@Voto": "Sim            "
                        },
                        {
                            "@Nome": "Neif Jabur",
                            "@ideCadastro": "74219",
                            "@Partido": "PMDB      ",
                            "@UF": "MG",
                            "@Voto": "Sim            "
                        },
                        {
                            "@Nome": "José Santana de Vasconcellos",
                            "@ideCadastro": "74741",
                            "@Partido": "PFL       ",
                            "@UF": "MG",
                            "@Voto": "Sim            "
                        },
                        {
                            "@Nome": "Maurício Campos",
                            "@ideCadastro": "74748",
                            "@Partido": "PL        ",
                            "@UF": "MG",
                            "@Voto": "Sim            "
                        },
                        {
                            "@Nome": "Osmânio Pereira",
                            "@ideCadastro": "74753",
                            "@Partido": "PSDB      ",
                            "@UF": "MG",
                            "@Voto": "Sim            "
                        },
                        {
                            "@Nome": "Paulo Heslander",
                            "@ideCadastro": "74755",
                            "@Partido": "PTB       ",
                            "@UF": "MG",
                            "@Voto": "Sim            "
                        },
                        {
                            "@Nome": "Tarcísio Delgado",
                            "@ideCadastro": "133919",
                            "@Partido": "PMDB      ",
                            "@UF": "MG",
                            "@Voto": "Sim            "
                        },
                        {
                            "@Nome": "Raul Belém",
                            "@ideCadastro": "74757",
                            "@Partido": "PP        ",
                            "@UF": "MG",
                            "@Voto": "Sim            "
                        },
                        {
                            "@Nome": "Samir Tannus",
                            "@ideCadastro": "133924",
                            "@Partido": "PPR       ",
                            "@UF": "MG",
                            "@Voto": "Sim            "
                        },
                        {
                            "@Nome": "Sandra Starling",
                            "@ideCadastro": "74761",
                            "@Partido": "PT        ",
                            "@UF": "MG",
                            "@Voto": "Sim            "
                        },
                        {
                            "@Nome": "Tilden Santiago",
                            "@ideCadastro": "74767",
                            "@Partido": "PT        ",
                            "@UF": "MG",
                            "@Voto": "Sim            "
                        },
                        {
                            "@Nome": "Vittorio Medioli",
                            "@ideCadastro": "74768",
                            "@Partido": "PSDB      ",
                            "@UF": "MG",
                            "@Voto": "Sim            "
                        },
                        {
                            "@Nome": "Wagner do Nascimento",
                            "@ideCadastro": "74132",
                            "@Partido": "PP        ",
                            "@UF": "MG",
                            "@Voto": "Sim            "
                        },
                        {
                            "@Nome": "Zaire Rezende",
                            "@ideCadastro": "74769",
                            "@Partido": "PMDB      ",
                            "@UF": "MG",
                            "@Voto": "Abstenção      "
                        },
                        {
                            "@Nome": "Jones Santos Neves",
                            "@ideCadastro": "133974",
                            "@Partido": "PL        ",
                            "@UF": "ES",
                            "@Voto": "Sim            "
                        },
                        {
                            "@Nome": "Rita Camata",
                            "@ideCadastro": "74777",
                            "@Partido": "PMDB      ",
                            "@UF": "ES",
                            "@Voto": "Sim            "
                        },
                        {
                            "@Nome": "Roberto Valadão",
                            "@ideCadastro": "74826",
                            "@Partido": "PMDB      ",
                            "@UF": "ES",
                            "@Voto": "Sim            "
                        },
                        {
                            "@Nome": "Alvaro Valle",
                            "@ideCadastro": "74831",
                            "@Partido": "PL        ",
                            "@UF": "RJ",
                            "@Voto": "Sim            "
                        },
                        {
                            "@Nome": "Sérgio Arouca",
                            "@ideCadastro": "73423",
                            "@Partido": "PPS       ",
                            "@UF": "RJ",
                            "@Voto": "Sim            "
                        },
                        {
                            "@Nome": "Arolde de Oliveira",
                            "@ideCadastro": "74833",
                            "@Partido": "PFL       ",
                            "@UF": "RJ",
                            "@Voto": "Sim            "
                        },
                        {
                            "@Nome": "Benedita da Silva",
                            "@ideCadastro": "73701",
                            "@Partido": "PT        ",
                            "@UF": "RJ",
                            "@Voto": "Sim            "
                        },
                        {
                            "@Nome": "Carlos Santana",
                            "@ideCadastro": "74835",
                            "@Partido": "PT        ",
                            "@UF": "RJ",
                            "@Voto": "Sim            "
                        },
                        {
                            "@Nome": "Jair Bolsonaro",
                            "@ideCadastro": "74847",
                            "@Partido": "PPR       ",
                            "@UF": "RJ",
                            "@Voto": "Sim            "
                        },
                        {
                            "@Nome": "Jamil Haddad",
                            "@ideCadastro": "74338",
                            "@Partido": "PSB       ",
                            "@UF": "RJ",
                            "@Voto": "Sim            "
                        },
                        {
                            "@Nome": "João Mendes",
                            "@ideCadastro": "74849",
                            "@Partido": "PTB       ",
                            "@UF": "RJ",
                            "@Voto": "Sim            "
                        },
                        {
                            "@Nome": "Laprovita Vieira",
                            "@ideCadastro": "74855",
                            "@Partido": "PP        ",
                            "@UF": "RJ",
                            "@Voto": "Sim            "
                        },
                        {
                            "@Nome": "Artur da Tavola",
                            "@ideCadastro": "73503",
                            "@Partido": "PSDB      ",
                            "@UF": "RJ",
                            "@Voto": "Sim            "
                        },
                        {
                            "@Nome": "Paulo de Almeida",
                            "@ideCadastro": "73576",
                            "@Partido": "PSD       ",
                            "@UF": "RJ",
                            "@Voto": "Sim            "
                        },
                        {
                            "@Nome": "Roberto Campos",
                            "@ideCadastro": "73419",
                            "@Partido": "PPR       ",
                            "@UF": "RJ",
                            "@Voto": "Sim            "
                        },
                        {
                            "@Nome": "Rubem Medina",
                            "@ideCadastro": "73422",
                            "@Partido": "PFL       ",
                            "@UF": "RJ",
                            "@Voto": "Sim            "
                        },
                        {
                            "@Nome": "Sandra Cavalcanti",
                            "@ideCadastro": "133986",
                            "@Partido": "PPR       ",
                            "@UF": "RJ",
                            "@Voto": "Sim            "
                        },
                        {
                            "@Nome": "Sidney de Miguel",
                            "@ideCadastro": "73856",
                            "@Partido": "PV        ",
                            "@UF": "RJ",
                            "@Voto": "Sim            "
                        },
                        {
                            "@Nome": "Simão Sessim",
                            "@ideCadastro": "73424",
                            "@Partido": "PPR       ",
                            "@UF": "RJ",
                            "@Voto": "Sim            "
                        },
                        {
                            "@Nome": "Delfim Netto",
                            "@ideCadastro": "73445",
                            "@Partido": "PPR       ",
                            "@UF": "SP",
                            "@Voto": "Sim            "
                        },
                        {
                            "@Nome": "Cunha Bueno",
                            "@ideCadastro": "73443",
                            "@Partido": "PPR       ",
                            "@UF": "SP",
                            "@Voto": "Sim            "
                        },
                        {
                            "@Nome": "Ary Kara",
                            "@ideCadastro": "73435",
                            "@Partido": "PMDB      ",
                            "@UF": "SP",
                            "@Voto": "Sim            "
                        },
                        {
                            "@Nome": "Diogo Nomura",
                            "@ideCadastro": "133885",
                            "@Partido": "PL        ",
                            "@UF": "SP",
                            "@Voto": "Sim            "
                        },
                        {
                            "@Nome": "Eduardo Jorge",
                            "@ideCadastro": "73448",
                            "@Partido": "PT        ",
                            "@UF": "SP",
                            "@Voto": "Sim            "
                        },
                        {
                            "@Nome": "Euclydes Mello",
                            "@ideCadastro": "73824",
                            "@Partido": "PRN       ",
                            "@UF": "SP",
                            "@Voto": "Sim            "
                        },
                        {
                            "@Nome": "Fábio Feldmann",
                            "@ideCadastro": "73449",
                            "@Partido": "PSDB      ",
                            "@UF": "SP",
                            "@Voto": "Sim            "
                        },
                        {
                            "@Nome": "Florestan Fernandes",
                            "@ideCadastro": "133873",
                            "@Partido": "PT        ",
                            "@UF": "SP",
                            "@Voto": "Sim            "
                        },
                        {
                            "@Nome": "Gastone Righi",
                            "@ideCadastro": "133964",
                            "@Partido": "PTB       ",
                            "@UF": "SP",
                            "@Voto": "Sim            "
                        },
                        {
                            "@Nome": "Geraldo Alckmin Filho",
                            "@ideCadastro": "65480",
                            "@Partido": "PSDB      ",
                            "@UF": "SP",
                            "@Voto": "Sim            "
                        },
                        {
                            "@Nome": "Heitor Franco",
                            "@ideCadastro": "73739",
                            "@Partido": "PPR       ",
                            "@UF": "SP",
                            "@Voto": "Sim            "
                        },
                        {
                            "@Nome": "Hélio Rosas",
                            "@ideCadastro": "73530",
                            "@Partido": "PMDB      ",
                            "@UF": "SP",
                            "@Voto": "Sim            "
                        },
                        {
                            "@Nome": "Hélio Bicudo",
                            "@ideCadastro": "73453",
                            "@Partido": "PT        ",
                            "@UF": "SP",
                            "@Voto": "Sim            "
                        },
                        {
                            "@Nome": "Jorge Tadeu Mudalen",
                            "@ideCadastro": "73535",
                            "@Partido": "PMDB      ",
                            "@UF": "SP",
                            "@Voto": "Sim            "
                        },
                        {
                            "@Nome": "José Cicote",
                            "@ideCadastro": "73751",
                            "@Partido": "PT        ",
                            "@UF": "SP",
                            "@Voto": "Abstenção      "
                        },
                        {
                            "@Nome": "José Dirceu",
                            "@ideCadastro": "74782",
                            "@Partido": "PT        ",
                            "@UF": "SP",
                            "@Voto": "Sim            "
                        },
                        {
                            "@Nome": "José Genoíno",
                            "@ideCadastro": "73540",
                            "@Partido": "PT        ",
                            "@UF": "SP",
                            "@Voto": "Sim            "
                        },
                        {
                            "@Nome": "Tuga Angerami",
                            "@ideCadastro": "73562",
                            "@Partido": "PSDB      ",
                            "@UF": "SP",
                            "@Voto": "Sim            "
                        },
                        {
                            "@Nome": "José Maria Eymael",
                            "@ideCadastro": "133839",
                            "@Partido": "PPR       ",
                            "@UF": "SP",
                            "@Voto": "Sim            "
                        },
                        {
                            "@Nome": "José Serra",
                            "@ideCadastro": "65495",
                            "@Partido": "PSDB      ",
                            "@UF": "SP",
                            "@Voto": "Sim            "
                        },
                        {
                            "@Nome": "Luiz Gushiken",
                            "@ideCadastro": "67836",
                            "@Partido": "PT        ",
                            "@UF": "SP",
                            "@Voto": "Sim            "
                        },
                        {
                            "@Nome": "Marcelino Romano Machado",
                            "@ideCadastro": "133887",
                            "@Partido": "PPR       ",
                            "@UF": "SP",
                            "@Voto": "Sim            "
                        },
                        {
                            "@Nome": "Oswaldo Stecca",
                            "@ideCadastro": "73843",
                            "@Partido": "PMDB      ",
                            "@UF": "SP",
                            "@Voto": "Sim            "
                        },
                        {
                            "@Nome": "Cardoso Alves",
                            "@ideCadastro": "133910",
                            "@Partido": "PTB       ",
                            "@UF": "SP",
                            "@Voto": "Sim            "
                        },
                        {
                            "@Nome": "Tadashi Kuriki",
                            "@ideCadastro": "133886",
                            "@Partido": "PPR       ",
                            "@UF": "SP",
                            "@Voto": "Sim            "
                        },
                        {
                            "@Nome": "Valdemar Costa Neto",
                            "@ideCadastro": "73565",
                            "@Partido": "PL        ",
                            "@UF": "SP",
                            "@Voto": "Sim            "
                        },
                        {
                            "@Nome": "Walter Nory",
                            "@ideCadastro": "73812",
                            "@Partido": "PMDB      ",
                            "@UF": "SP",
                            "@Voto": "Sim            "
                        },
                        {
                            "@Nome": "Jonas Pinheiro",
                            "@ideCadastro": "73710",
                            "@Partido": "PFL       ",
                            "@UF": "MT",
                            "@Voto": "Sim            "
                        },
                        {
                            "@Nome": "Augusto Carvalho",
                            "@ideCadastro": "73655",
                            "@Partido": "PPS       ",
                            "@UF": "DF",
                            "@Voto": "Sim            "
                        },
                        {
                            "@Nome": "Benedito Domingos",
                            "@ideCadastro": "73656",
                            "@Partido": "PP        ",
                            "@UF": "DF",
                            "@Voto": "Sim            "
                        },
                        {
                            "@Nome": "Chico Vigilante",
                            "@ideCadastro": "73657",
                            "@Partido": "PT        ",
                            "@UF": "DF",
                            "@Voto": "Sim            "
                        },
                        {
                            "@Nome": "Jofran Frejat",
                            "@ideCadastro": "73658",
                            "@Partido": "PP        ",
                            "@UF": "DF",
                            "@Voto": "Sim            "
                        },
                        {
                            "@Nome": "Sigmaringa Seixas",
                            "@ideCadastro": "73718",
                            "@Partido": "PSDB      ",
                            "@UF": "DF",
                            "@Voto": "Sim            "
                        },
                        {
                            "@Nome": "Maria Laura",
                            "@ideCadastro": "73659",
                            "@Partido": "PT        ",
                            "@UF": "DF",
                            "@Voto": "Sim            "
                        },
                        {
                            "@Nome": "Osório Adriano",
                            "@ideCadastro": "73660",
                            "@Partido": "PFL       ",
                            "@UF": "DF",
                            "@Voto": "Sim            "
                        },
                        {
                            "@Nome": "Antônio Faleiros",
                            "@ideCadastro": "66490",
                            "@Partido": "PSDB      ",
                            "@UF": "GO",
                            "@Voto": "Sim            "
                        },
                        {
                            "@Nome": "Haley Margon",
                            "@ideCadastro": "73738",
                            "@Partido": "PMDB      ",
                            "@UF": "GO",
                            "@Voto": "Sim            "
                        },
                        {
                            "@Nome": "João Natal",
                            "@ideCadastro": "73664",
                            "@Partido": "PMDB      ",
                            "@UF": "GO",
                            "@Voto": "Sim            "
                        },
                        {
                            "@Nome": "Lázaro Barbosa",
                            "@ideCadastro": "",
                            "@Partido": "PMDB      ",
                            "@UF": "GO",
                            "@Voto": "Sim            "
                        },
                        {
                            "@Nome": "Maria Valadão",
                            "@ideCadastro": "73669",
                            "@Partido": "PPR       ",
                            "@UF": "GO",
                            "@Voto": "Sim            "
                        },
                        {
                            "@Nome": "Mauro Borges",
                            "@ideCadastro": "1535",
                            "@Partido": "PP        ",
                            "@UF": "GO",
                            "@Voto": "Não            "
                        },
                        {
                            "@Nome": "Roberto Balestra",
                            "@ideCadastro": "73674",
                            "@Partido": "PPR       ",
                            "@UF": "GO",
                            "@Voto": "Sim            "
                        },
                        {
                            "@Nome": "Ronaldo Caiado",
                            "@ideCadastro": "74813",
                            "@Partido": "PFL       ",
                            "@UF": "GO",
                            "@Voto": "Sim            "
                        },
                        {
                            "@Nome": "Elisio Curvo",
                            "@ideCadastro": "74126",
                            "@Partido": "PTB       ",
                            "@UF": "MS",
                            "@Voto": "Sim            "
                        },
                        {
                            "@Nome": "Flávio Derzi",
                            "@ideCadastro": "73758",
                            "@Partido": "PP        ",
                            "@UF": "MS",
                            "@Voto": "Sim            "
                        },
                        {
                            "@Nome": "George Takimoto",
                            "@ideCadastro": "133929",
                            "@Partido": "PFL       ",
                            "@UF": "MS",
                            "@Voto": "Sim            "
                        },
                        {
                            "@Nome": "Nelson Trad",
                            "@ideCadastro": "73761",
                            "@Partido": "PTB       ",
                            "@UF": "MS",
                            "@Voto": "Sim            "
                        },
                        {
                            "@Nome": "Valter Pereira",
                            "@ideCadastro": "133860",
                            "@Partido": "PMDB      ",
                            "@UF": "MS",
                            "@Voto": "Sim            "
                        },
                        {
                            "@Nome": "Waldir Guerra",
                            "@ideCadastro": "133930",
                            "@Partido": "PFL       ",
                            "@UF": "MS",
                            "@Voto": "Sim            "
                        },
                        {
                            "@Nome": "Antônio Barbara",
                            "@ideCadastro": "73631",
                            "@Partido": "PMDB      ",
                            "@UF": "PR",
                            "@Voto": "Sim            "
                        },
                        {
                            "@Nome": "Basílio Villani",
                            "@ideCadastro": "73767",
                            "@Partido": "PPR       ",
                            "@UF": "PR",
                            "@Voto": "Sim            "
                        },
                        {
                            "@Nome": "Pinga Fogo de Oliveira",
                            "@ideCadastro": "73635",
                            "@Partido": "PDT       ",
                            "@UF": "PR",
                            "@Voto": "Sim            "
                        },
                        {
                            "@Nome": "Carlos Roberto Massa",
                            "@ideCadastro": "73639",
                            "@Partido": "PTB       ",
                            "@UF": "PR",
                            "@Voto": "Sim            "
                        },
                        {
                            "@Nome": "Carlos Scarpelini",
                            "@ideCadastro": "73640",
                            "@Partido": "PP        ",
                            "@UF": "PR",
                            "@Voto": "Sim            "
                        },
                        {
                            "@Nome": "Ivanio Guerra",
                            "@ideCadastro": "73570",
                            "@Partido": "PFL       ",
                            "@UF": "PR",
                            "@Voto": "Sim            "
                        },
                        {
                            "@Nome": "Joni Varisco",
                            "@ideCadastro": "73747",
                            "@Partido": "PMDB      ",
                            "@UF": "PR",
                            "@Voto": "Sim            "
                        },
                        {
                            "@Nome": "Luiz Carlos Hauly",
                            "@ideCadastro": "73778",
                            "@Partido": "PP        ",
                            "@UF": "PR",
                            "@Voto": "Sim            "
                        },
                        {
                            "@Nome": "Matheus Iensen",
                            "@ideCadastro": "",
                            "@Partido": "PSD       ",
                            "@UF": "PR",
                            "@Voto": "Sim            "
                        },
                        {
                            "@Nome": "Max Rosenmann",
                            "@ideCadastro": "73780",
                            "@Partido": "PDT       ",
                            "@UF": "PR",
                            "@Voto": "Sim            "
                        },
                        {
                            "@Nome": "Otto Cunha",
                            "@ideCadastro": "133943",
                            "@Partido": "PPR       ",
                            "@UF": "PR",
                            "@Voto": "Sim            "
                        },
                        {
                            "@Nome": "Paulo Bernardo",
                            "@ideCadastro": "73784",
                            "@Partido": "PT        ",
                            "@UF": "PR",
                            "@Voto": "Não            "
                        },
                        {
                            "@Nome": "Munhoz da Rocha",
                            "@ideCadastro": "73847",
                            "@Partido": "PSDB      ",
                            "@UF": "PR",
                            "@Voto": "Sim            "
                        },
                        {
                            "@Nome": "Pedro Tonelli",
                            "@ideCadastro": "73799",
                            "@Partido": "PT        ",
                            "@UF": "PR",
                            "@Voto": "Sim            "
                        },
                        {
                            "@Nome": "Reinhold Stephanes",
                            "@ideCadastro": "73786",
                            "@Partido": "PFL       ",
                            "@UF": "PR",
                            "@Voto": "Sim            "
                        },
                        {
                            "@Nome": "Renato Johnsson",
                            "@ideCadastro": "73787",
                            "@Partido": "PP        ",
                            "@UF": "PR",
                            "@Voto": "Sim            "
                        },
                        {
                            "@Nome": "Werner Wanderer",
                            "@ideCadastro": "73792",
                            "@Partido": "PFL       ",
                            "@UF": "PR",
                            "@Voto": "Sim            "
                        },
                        {
                            "@Nome": "Wilson Moreira",
                            "@ideCadastro": "73864",
                            "@Partido": "PSDB      ",
                            "@UF": "PR",
                            "@Voto": "Sim            "
                        },
                        {
                            "@Nome": "Ângela Amin",
                            "@ideCadastro": "73696",
                            "@Partido": "PPR       ",
                            "@UF": "SC",
                            "@Voto": "Sim            "
                        },
                        {
                            "@Nome": "Cesar Souza",
                            "@ideCadastro": "73720",
                            "@Partido": "PFL       ",
                            "@UF": "SC",
                            "@Voto": "Sim            "
                        },
                        {
                            "@Nome": "Luci Choinacki",
                            "@ideCadastro": "73474",
                            "@Partido": "PT        ",
                            "@UF": "SC",
                            "@Voto": "Sim            "
                        },
                        {
                            "@Nome": "Neuto de Conto",
                            "@ideCadastro": "73881",
                            "@Partido": "PMDB      ",
                            "@UF": "SC",
                            "@Voto": "Sim            "
                        },
                        {
                            "@Nome": "Vasco Furlan",
                            "@ideCadastro": "133960",
                            "@Partido": "PPR       ",
                            "@UF": "SC",
                            "@Voto": "Sim            "
                        },
                        {
                            "@Nome": "Adão Pretto",
                            "@ideCadastro": "73886",
                            "@Partido": "PT        ",
                            "@UF": "RS",
                            "@Voto": "Sim            "
                        },
                        {
                            "@Nome": "Fetter Júnior",
                            "@ideCadastro": "73896",
                            "@Partido": "PPR       ",
                            "@UF": "RS",
                            "@Voto": "Sim            "
                        },
                        {
                            "@Nome": "Adroaldo Streck",
                            "@ideCadastro": "73996",
                            "@Partido": "PSDB      ",
                            "@UF": "RS",
                            "@Voto": "Sim            "
                        },
                        {
                            "@Nome": "Adylson Motta",
                            "@ideCadastro": "73887",
                            "@Partido": "PPR       ",
                            "@UF": "RS",
                            "@Voto": "Sim            "
                        },
                        {
                            "@Nome": "Arno Magarinos",
                            "@ideCadastro": "133996",
                            "@Partido": "PPR       ",
                            "@UF": "RS",
                            "@Voto": "Sim            "
                        },
                        {
                            "@Nome": "Carlos Azambuja",
                            "@ideCadastro": "73641",
                            "@Partido": "PPR       ",
                            "@UF": "RS",
                            "@Voto": "Sim            "
                        },
                        {
                            "@Nome": "Fernando Carrion",
                            "@ideCadastro": "133950",
                            "@Partido": "PPR       ",
                            "@UF": "RS",
                            "@Voto": "Sim            "
                        },
                        {
                            "@Nome": "Ivo Mainardi",
                            "@ideCadastro": "74008",
                            "@Partido": "PMDB      ",
                            "@UF": "RS",
                            "@Voto": "Sim            "
                        },
                        {
                            "@Nome": "João de Deus Antunes",
                            "@ideCadastro": "133863",
                            "@Partido": "PPR       ",
                            "@UF": "RS",
                            "@Voto": "Sim            "
                        },
                        {
                            "@Nome": "Luis Roberto Ponte",
                            "@ideCadastro": "74002",
                            "@Partido": "PMDB      ",
                            "@UF": "RS",
                            "@Voto": "Sim            "
                        },
                        {
                            "@Nome": "Nelson Jobim",
                            "@ideCadastro": "73798",
                            "@Partido": "PMDB      ",
                            "@UF": "RS",
                            "@Voto": "Sim            "
                        },
                        {
                            "@Nome": "Odacir Klein",
                            "@ideCadastro": "73908",
                            "@Partido": "PMDB      ",
                            "@UF": "RS",
                            "@Voto": "Sim            "
                        },
                        {
                            "@Nome": "Telmo Kirst",
                            "@ideCadastro": "73989",
                            "@Partido": "PPR       ",
                            "@UF": "RS",
                            "@Voto": "Sim            "
                        },
                        {
                            "@Nome": "Victor Faccioni",
                            "@ideCadastro": "133855",
                            "@Partido": "PPR       ",
                            "@UF": "RS",
                            "@Voto": "Sim            "
                        },
                        {
                            "@Nome": "Hagahus Araújo",
                            "@ideCadastro": "73819",
                            "@Partido": "PMDB      ",
                            "@UF": "TO",
                            "@Voto": "Sim            "
                        },
                        {
                            "@Nome": "Eliel Rodrigues",
                            "@ideCadastro": "133844",
                            "@Partido": "PMDB      ",
                            "@UF": "PA",
                            "@Voto": "Sim            "
                        },
                        {
                            "@Nome": "Laerte Bastos",
                            "@ideCadastro": "73869",
                            "@Partido": "PSDB      ",
                            "@UF": "RJ",
                            "@Voto": "Sim            "
                        },
                        {
                            "@Nome": "Roberto Rollemberg",
                            "@ideCadastro": "133992",
                            "@Partido": "PMDB      ",
                            "@UF": "SP",
                            "@Voto": "Sim            "
                        },
                        {
                            "@Nome": "Jairo Carneiro",
                            "@ideCadastro": "74547",
                            "@Partido": "PFL       ",
                            "@UF": "BA",
                            "@Voto": "Sim            "
                        },
                        {
                            "@Nome": "Orlando Pacheco",
                            "@ideCadastro": "133874",
                            "@Partido": "PSD       ",
                            "@UF": "SC",
                            "@Voto": "Sim            "
                        },
                        {
                            "@Nome": "Pedro Tassis",
                            "@ideCadastro": "133849",
                            "@Partido": "PMDB      ",
                            "@UF": "MG",
                            "@Voto": "Sim            "
                        },
                        {
                            "@Nome": "Camilo Machado",
                            "@ideCadastro": "73866",
                            "@Partido": "PTB       ",
                            "@UF": "MG",
                            "@Voto": "Sim            "
                        },
                        {
                            "@Nome": "Annibal Teixeira",
                            "@ideCadastro": "133894",
                            "@Partido": "PP        ",
                            "@UF": "MG",
                            "@Voto": "Abstenção      "
                        },
                        {
                            "@Nome": "Paulo Ramos",
                            "@ideCadastro": "133968",
                            "@Partido": "PDT       ",
                            "@UF": "RJ",
                            "@Voto": "Não            "
                        },
                        {
                            "@Nome": "Paulo Romano",
                            "@ideCadastro": "73870",
                            "@Partido": "PSC       ",
                            "@UF": "MG",
                            "@Voto": "Sim            "
                        },
                        {
                            "@Nome": "Tourinho Dantas",
                            "@ideCadastro": "73872",
                            "@Partido": "PFL       ",
                            "@UF": "BA",
                            "@Voto": "Sim            "
                        },
                        {
                            "@Nome": "Paulo Lima",
                            "@ideCadastro": "73555",
                            "@Partido": "PSC       ",
                            "@UF": "SP",
                            "@Voto": "Sim            "
                        },
                        {
                            "@Nome": "Ubaldo Dantas",
                            "@ideCadastro": "133903",
                            "@Partido": "PSDB      ",
                            "@UF": "BA",
                            "@Voto": "Sim            "
                        },
                        {
                            "@Nome": "Carlos Nelson",
                            "@ideCadastro": "73439",
                            "@Partido": "PMDB      ",
                            "@UF": "SP",
                            "@Voto": "Sim            "
                        },
                        {
                            "@Nome": "Paulo Novaes",
                            "@ideCadastro": "133904",
                            "@Partido": "PMDB      ",
                            "@UF": "SP",
                            "@Voto": "Sim            "
                        },
                        {
                            "@Nome": "Airton Sandoval",
                            "@ideCadastro": "133990",
                            "@Partido": "PMDB      ",
                            "@UF": "SP",
                            "@Voto": "Sim            "
                        },
                        {
                            "@Nome": "Edison Andrino",
                            "@ideCadastro": "73794",
                            "@Partido": "PMDB      ",
                            "@UF": "SC",
                            "@Voto": "Sim            "
                        },
                        {
                            "@Nome": "Darci Coelho",
                            "@ideCadastro": "74187",
                            "@Partido": "PFL       ",
                            "@UF": "TO",
                            "@Voto": "Sim            "
                        },
                        {
                            "@Nome": "Valdir Colatto",
                            "@ideCadastro": "74010",
                            "@Partido": "PMDB      ",
                            "@UF": "SC",
                            "@Voto": "Sim            "
                        },
                        {
                            "@Nome": "Luciano Castro",
                            "@ideCadastro": "73982",
                            "@Partido": "PPR       ",
                            "@UF": "RR",
                            "@Voto": "Sim            "
                        },
                        {
                            "@Nome": "Vilmar Rocha",
                            "@ideCadastro": "73677",
                            "@Partido": "PFL       ",
                            "@UF": "GO",
                            "@Voto": "Não            "
                        },
                        {
                            "@Nome": "Deni Schwartz",
                            "@ideCadastro": "73952",
                            "@Partido": "PSDB      ",
                            "@UF": "PR",
                            "@Voto": "Sim            "
                        },
                        {
                            "@Nome": "Luiz Máximo",
                            "@ideCadastro": "74135",
                            "@Partido": "PSDB      ",
                            "@UF": "SP",
                            "@Voto": "Sim            "
                        },
                        {
                            "@Nome": "José Abrão",
                            "@ideCadastro": "73711",
                            "@Partido": "PSDB      ",
                            "@UF": "SP",
                            "@Voto": "Sim            "
                        },
                        {
                            "@Nome": "José Anibal",
                            "@ideCadastro": "73536",
                            "@Partido": "PSDB      ",
                            "@UF": "SP",
                            "@Voto": "Sim            "
                        },
                        {
                            "@Nome": "João Thomé",
                            "@ideCadastro": "74092",
                            "@Partido": "PMDB      ",
                            "@UF": "AM",
                            "@Voto": "Sim            "
                        },
                        {
                            "@Nome": "Sérgio Ferrara",
                            "@ideCadastro": "133905",
                            "@Partido": "PDT       ",
                            "@UF": "MG",
                            "@Voto": "Sim            "
                        },
                        {
                            "@Nome": "Lezio Sathler",
                            "@ideCadastro": "73826",
                            "@Partido": "PSDB      ",
                            "@UF": "ES",
                            "@Voto": "Sim            "
                        },
                        {
                            "@Nome": "Waldomiro Fioravante",
                            "@ideCadastro": "73990",
                            "@Partido": "PT        ",
                            "@UF": "RS",
                            "@Voto": "Sim            "
                        },
                        {
                            "@Nome": "Armando Pinheiro",
                            "@ideCadastro": "133902",
                            "@Partido": "PPR       ",
                            "@UF": "SP",
                            "@Voto": "Sim            "
                        },
                        {
                            "@Nome": "Maurício Najar",
                            "@ideCadastro": "73551",
                            "@Partido": "PFL       ",
                            "@UF": "SP",
                            "@Voto": "Sim            "
                        },
                        {
                            "@Nome": "Armando Viola",
                            "@ideCadastro": "73698",
                            "@Partido": "PMDB      ",
                            "@UF": "ES",
                            "@Voto": "Sim            "
                        },
                        {
                            "@Nome": "Itsuo Takayama",
                            "@ideCadastro": "73954",
                            "@Partido": "PSD       ",
                            "@UF": "MT",
                            "@Voto": "Sim            "
                        },
                        {
                            "@Nome": "Sérgio Miranda",
                            "@ideCadastro": "74763",
                            "@Partido": "PCdoB     ",
                            "@UF": "MG",
                            "@Voto": "Sim            "
                        },
                        {
                            "@Nome": "Ricardo Correa",
                            "@ideCadastro": "73956",
                            "@Partido": "PL        ",
                            "@UF": "MT",
                            "@Voto": "Sim            "
                        },
                        {
                            "@Nome": "Adilson Maluf",
                            "@ideCadastro": "73957",
                            "@Partido": "PMDB      ",
                            "@UF": "SP",
                            "@Voto": "Sim            "
                        },
                        {
                            "@Nome": "Cesar Cals Neto",
                            "@ideCadastro": "133907",
                            "@Partido": "PSD       ",
                            "@UF": "CE",
                            "@Voto": "Abstenção      "
                        }
                    ]
                }
            }
        }
    }
}