{
    "proposicao": {
        "Sigla": "PL",
        "Numero": "4005",
        "Ano": "1993",
        "Votacoes": {
            "Votacao": {
                "@Resumo": "",
                "@Data": "12/1/1994",
                "@Hora": "13:30",
                "@ObjVotacao": "REQUERIMENTO DE URGENCIA",
                "@codSessao": "2652",
                "votos": {
                    "Deputado": [
                        {
                            "@Nome": "Marcelo Luz",
                            "@ideCadastro": "133880",
                            "@Partido": "PP        ",
                            "@UF": "RR",
                            "@Voto": "Sim            "
                        },
                        {
                            "@Nome": "Eraldo Trindade",
                            "@ideCadastro": "74064",
                            "@Partido": "PPR       ",
                            "@UF": "AP",
                            "@Voto": "Sim            "
                        },
                        {
                            "@Nome": "Fátima Pelaes",
                            "@ideCadastro": "74065",
                            "@Partido": "PFL       ",
                            "@UF": "AP",
                            "@Voto": "Sim            "
                        },
                        {
                            "@Nome": "Lourival Freitas",
                            "@ideCadastro": "73822",
                            "@Partido": "PT        ",
                            "@UF": "AP",
                            "@Voto": "Não            "
                        },
                        {
                            "@Nome": "Murilo Pinheiro",
                            "@ideCadastro": "74067",
                            "@Partido": "PFL       ",
                            "@UF": "AP",
                            "@Voto": "Sim            "
                        },
                        {
                            "@Nome": "Valdenor Guedes",
                            "@ideCadastro": "74070",
                            "@Partido": "PP        ",
                            "@UF": "AP",
                            "@Voto": "Sim            "
                        },
                        {
                            "@Nome": "Alacid Nunes",
                            "@ideCadastro": "133939",
                            "@Partido": "PFL       ",
                            "@UF": "PA",
                            "@Voto": "Não            "
                        },
                        {
                            "@Nome": "Domingos Juvenil",
                            "@ideCadastro": "133993",
                            "@Partido": "PMDB      ",
                            "@UF": "PA",
                            "@Voto": "Sim            "
                        },
                        {
                            "@Nome": "Gérson Peres",
                            "@ideCadastro": "74076",
                            "@Partido": "PPR       ",
                            "@UF": "PA",
                            "@Voto": "Sim            "
                        },
                        {
                            "@Nome": "Giovanni Queiroz",
                            "@ideCadastro": "74077",
                            "@Partido": "PDT       ",
                            "@UF": "PA",
                            "@Voto": "Sim            "
                        },
                        {
                            "@Nome": "Hermínio Calvinho",
                            "@ideCadastro": "73740",
                            "@Partido": "PMDB      ",
                            "@UF": "PA",
                            "@Voto": "Sim            "
                        },
                        {
                            "@Nome": "Hilário Coimbra",
                            "@ideCadastro": "74078",
                            "@Partido": "PTB       ",
                            "@UF": "PA",
                            "@Voto": "Sim            "
                        },
                        {
                            "@Nome": "José Diogo",
                            "@ideCadastro": "133940",
                            "@Partido": "PP        ",
                            "@UF": "PA",
                            "@Voto": "Sim            "
                        },
                        {
                            "@Nome": "Socorro Gomes",
                            "@ideCadastro": "74085",
                            "@Partido": "PCdoB     ",
                            "@UF": "PA",
                            "@Voto": "Não            "
                        },
                        {
                            "@Nome": "Mario Chermont",
                            "@ideCadastro": "133889",
                            "@Partido": "PP        ",
                            "@UF": "PA",
                            "@Voto": "Sim            "
                        },
                        {
                            "@Nome": "Paulo Rocha",
                            "@ideCadastro": "74082",
                            "@Partido": "PT        ",
                            "@UF": "PA",
                            "@Voto": "Não            "
                        },
                        {
                            "@Nome": "Paulo Titan",
                            "@ideCadastro": "74083",
                            "@Partido": "PMDB      ",
                            "@UF": "PA",
                            "@Voto": "Sim            "
                        },
                        {
                            "@Nome": "Euler Ribeiro",
                            "@ideCadastro": "74091",
                            "@Partido": "PMDB      ",
                            "@UF": "AM",
                            "@Voto": "Sim            "
                        },
                        {
                            "@Nome": "José Dutra",
                            "@ideCadastro": "133867",
                            "@Partido": "PMDB      ",
                            "@UF": "AM",
                            "@Voto": "Sim            "
                        },
                        {
                            "@Nome": "Ricardo Moraes",
                            "@ideCadastro": "73803",
                            "@Partido": "PSB       ",
                            "@UF": "AM",
                            "@Voto": "Não            "
                        },
                        {
                            "@Nome": "Edison Fidelis",
                            "@ideCadastro": "73726",
                            "@Partido": "PP        ",
                            "@UF": "RO",
                            "@Voto": "Sim            "
                        },
                        {
                            "@Nome": "Reditário Cassol",
                            "@ideCadastro": "73851",
                            "@Partido": "PP        ",
                            "@UF": "RO",
                            "@Voto": "Sim            "
                        },
                        {
                            "@Nome": "Adelaide Neri",
                            "@ideCadastro": "73823",
                            "@Partido": "PMDB      ",
                            "@UF": "AC",
                            "@Voto": "Sim            "
                        },
                        {
                            "@Nome": "Célia Mendes",
                            "@ideCadastro": "74180",
                            "@Partido": "PPR       ",
                            "@UF": "AC",
                            "@Voto": "Sim            "
                        },
                        {
                            "@Nome": "João Maia",
                            "@ideCadastro": "141459",
                            "@Partido": "PP        ",
                            "@UF": "AC",
                            "@Voto": "Sim            "
                        },
                        {
                            "@Nome": "Ronivon Santiago",
                            "@ideCadastro": "74184",
                            "@Partido": "PPR       ",
                            "@UF": "AC",
                            "@Voto": "Abstenção      "
                        },
                        {
                            "@Nome": "Mauri Sergio",
                            "@ideCadastro": "74183",
                            "@Partido": "PMDB      ",
                            "@UF": "AC",
                            "@Voto": "Sim            "
                        },
                        {
                            "@Nome": "Edmundo Galdino",
                            "@ideCadastro": "73827",
                            "@Partido": "PSDB      ",
                            "@UF": "TO",
                            "@Voto": "Sim            "
                        },
                        {
                            "@Nome": "Leomar Quintanilha",
                            "@ideCadastro": "73716",
                            "@Partido": "PPR       ",
                            "@UF": "TO",
                            "@Voto": "Sim            "
                        },
                        {
                            "@Nome": "Merval Pimenta",
                            "@ideCadastro": "73840",
                            "@Partido": "PMDB      ",
                            "@UF": "TO",
                            "@Voto": "Sim            "
                        },
                        {
                            "@Nome": "Costa Ferreira",
                            "@ideCadastro": "74016",
                            "@Partido": "PP        ",
                            "@UF": "MA",
                            "@Voto": "Sim            "
                        },
                        {
                            "@Nome": "Cesar Bandeira",
                            "@ideCadastro": "74195",
                            "@Partido": "PFL       ",
                            "@UF": "MA",
                            "@Voto": "Sim            "
                        },
                        {
                            "@Nome": "Daniel Silva",
                            "@ideCadastro": "73703",
                            "@Partido": "PPR       ",
                            "@UF": "MA",
                            "@Voto": "Sim            "
                        },
                        {
                            "@Nome": "Nan Souza",
                            "@ideCadastro": "74013",
                            "@Partido": "PP        ",
                            "@UF": "MA",
                            "@Voto": "Abstenção      "
                        },
                        {
                            "@Nome": "Jayme Santana",
                            "@ideCadastro": "74201",
                            "@Partido": "PSDB      ",
                            "@UF": "MA",
                            "@Voto": "Não            "
                        },
                        {
                            "@Nome": "João Rodolfo",
                            "@ideCadastro": "133935",
                            "@Partido": "PPR       ",
                            "@UF": "MA",
                            "@Voto": "Sim            "
                        },
                        {
                            "@Nome": "José Burnett",
                            "@ideCadastro": "133936",
                            "@Partido": "PPR       ",
                            "@UF": "MA",
                            "@Voto": "Sim            "
                        },
                        {
                            "@Nome": "José Reinaldo",
                            "@ideCadastro": "73714",
                            "@Partido": "PFL       ",
                            "@UF": "MA",
                            "@Voto": "Sim            "
                        },
                        {
                            "@Nome": "Sarney Filho",
                            "@ideCadastro": "74210",
                            "@Partido": "PFL       ",
                            "@UF": "MA",
                            "@Voto": "Sim            "
                        },
                        {
                            "@Nome": "Edson Silva",
                            "@ideCadastro": "74106",
                            "@Partido": "PDT       ",
                            "@UF": "CE",
                            "@Voto": "Sim            "
                        },
                        {
                            "@Nome": "Jackson Pereira",
                            "@ideCadastro": "74296",
                            "@Partido": "PSDB      ",
                            "@UF": "CE",
                            "@Voto": "Não            "
                        },
                        {
                            "@Nome": "José Linhares",
                            "@ideCadastro": "74297",
                            "@Partido": "PP        ",
                            "@UF": "CE",
                            "@Voto": "Sim            "
                        },
                        {
                            "@Nome": "Mauro Sampaio",
                            "@ideCadastro": "133908",
                            "@Partido": "PMDB      ",
                            "@UF": "CE",
                            "@Voto": "Sim            "
                        },
                        {
                            "@Nome": "Gonzaga Mota",
                            "@ideCadastro": "74294",
                            "@Partido": "PMDB      ",
                            "@UF": "CE",
                            "@Voto": "Sim            "
                        },
                        {
                            "@Nome": "Luiz Girão",
                            "@ideCadastro": "133937",
                            "@Partido": "PDT       ",
                            "@UF": "CE",
                            "@Voto": "Sim            "
                        },
                        {
                            "@Nome": "Marco Penaforte",
                            "@ideCadastro": "73719",
                            "@Partido": "PSDB      ",
                            "@UF": "CE",
                            "@Voto": "Não            "
                        },
                        {
                            "@Nome": "Maria Luiza Fontenele",
                            "@ideCadastro": "73796",
                            "@Partido": "PSTU      ",
                            "@UF": "CE",
                            "@Voto": "Não            "
                        },
                        {
                            "@Nome": "Orlando Bezerra",
                            "@ideCadastro": "133909",
                            "@Partido": "PFL       ",
                            "@UF": "CE",
                            "@Voto": "Não            "
                        },
                        {
                            "@Nome": "B. Sá",
                            "@ideCadastro": "74312",
                            "@Partido": "PP        ",
                            "@UF": "PI",
                            "@Voto": "Sim            "
                        },
                        {
                            "@Nome": "João Henrique",
                            "@ideCadastro": "74316",
                            "@Partido": "PMDB      ",
                            "@UF": "PI",
                            "@Voto": "Sim            "
                        },
                        {
                            "@Nome": "Murilo Rezende",
                            "@ideCadastro": "133883",
                            "@Partido": "PMDB      ",
                            "@UF": "PI",
                            "@Voto": "Sim            "
                        },
                        {
                            "@Nome": "Aluizio Alves",
                            "@ideCadastro": "133958",
                            "@Partido": "PMDB      ",
                            "@UF": "RN",
                            "@Voto": "Sim            "
                        },
                        {
                            "@Nome": "Henrique Eduardo Alves",
                            "@ideCadastro": "74324",
                            "@Partido": "PMDB      ",
                            "@UF": "RN",
                            "@Voto": "Sim            "
                        },
                        {
                            "@Nome": "João Faustino",
                            "@ideCadastro": "74128",
                            "@Partido": "PSDB      ",
                            "@UF": "RN",
                            "@Voto": "Não            "
                        },
                        {
                            "@Nome": "Laire Rosado",
                            "@ideCadastro": "74326",
                            "@Partido": "PMDB      ",
                            "@UF": "RN",
                            "@Voto": "Sim            "
                        },
                        {
                            "@Nome": "Vital do Rego",
                            "@ideCadastro": "133890",
                            "@Partido": "PDT       ",
                            "@UF": "PB",
                            "@Voto": "Sim            "
                        },
                        {
                            "@Nome": "Francisco Evangelista",
                            "@ideCadastro": "133925",
                            "@Partido": "PPR       ",
                            "@UF": "PB",
                            "@Voto": "Sim            "
                        },
                        {
                            "@Nome": "Ivan Burity",
                            "@ideCadastro": "73709",
                            "@Partido": "PFL       ",
                            "@UF": "PB",
                            "@Voto": "Sim            "
                        },
                        {
                            "@Nome": "Ivandro Cunha Lima",
                            "@ideCadastro": "74410",
                            "@Partido": "PMDB      ",
                            "@UF": "PB",
                            "@Voto": "Sim            "
                        },
                        {
                            "@Nome": "José Luiz Clerot",
                            "@ideCadastro": "74412",
                            "@Partido": "PMDB      ",
                            "@UF": "PB",
                            "@Voto": "Sim            "
                        },
                        {
                            "@Nome": "Zuca Moreira",
                            "@ideCadastro": "73713",
                            "@Partido": "PMDB      ",
                            "@UF": "PB",
                            "@Voto": "Sim            "
                        },
                        {
                            "@Nome": "Rivaldo Medeiros",
                            "@ideCadastro": "133926",
                            "@Partido": "PFL       ",
                            "@UF": "PB",
                            "@Voto": "Abstenção      "
                        },
                        {
                            "@Nome": "Alvaro Ribeiro",
                            "@ideCadastro": "74247",
                            "@Partido": "PSB       ",
                            "@UF": "PE",
                            "@Voto": "Não            "
                        },
                        {
                            "@Nome": "Antônio Geraldo",
                            "@ideCadastro": "74415",
                            "@Partido": "PFL       ",
                            "@UF": "PE",
                            "@Voto": "Abstenção      "
                        },
                        {
                            "@Nome": "Inocêncio Oliveira",
                            "@ideCadastro": "74421",
                            "@Partido": "PFL       ",
                            "@UF": "PE",
                            "@Voto": "Abstenção      "
                        },
                        {
                            "@Nome": "Luiz Piauhylino",
                            "@ideCadastro": "74427",
                            "@Partido": "PSB       ",
                            "@UF": "PE",
                            "@Voto": "Não            "
                        },
                        {
                            "@Nome": "Maurílio Ferreira Lima",
                            "@ideCadastro": "65904",
                            "@Partido": "PSDB      ",
                            "@UF": "PE",
                            "@Voto": "Sim            "
                        },
                        {
                            "@Nome": "Nilson Gibson",
                            "@ideCadastro": "74429",
                            "@Partido": "PMDB      ",
                            "@UF": "PE",
                            "@Voto": "Sim            "
                        },
                        {
                            "@Nome": "Renildo Calheiros",
                            "@ideCadastro": "73801",
                            "@Partido": "PCdoB     ",
                            "@UF": "PE",
                            "@Voto": "Abstenção      "
                        },
                        {
                            "@Nome": "Roberto França",
                            "@ideCadastro": "73804",
                            "@Partido": "PSB       ",
                            "@UF": "PE",
                            "@Voto": "Não            "
                        },
                        {
                            "@Nome": "Roberto Freire",
                            "@ideCadastro": "73805",
                            "@Partido": "PPS       ",
                            "@UF": "PE",
                            "@Voto": "Sim            "
                        },
                        {
                            "@Nome": "Salatiel Carvalho",
                            "@ideCadastro": "74434",
                            "@Partido": "PP        ",
                            "@UF": "PE",
                            "@Voto": "Sim            "
                        },
                        {
                            "@Nome": "Wilson Campos",
                            "@ideCadastro": "74438",
                            "@Partido": "PSDB      ",
                            "@UF": "PE",
                            "@Voto": "Não            "
                        },
                        {
                            "@Nome": "José Thomaz Nonô",
                            "@ideCadastro": "74520",
                            "@Partido": "PMDB      ",
                            "@UF": "AL",
                            "@Voto": "Sim            "
                        },
                        {
                            "@Nome": "Roberto Torres",
                            "@ideCadastro": "133913",
                            "@Partido": "PTB       ",
                            "@UF": "AL",
                            "@Voto": "Sim            "
                        },
                        {
                            "@Nome": "Vitório Malta",
                            "@ideCadastro": "73810",
                            "@Partido": "PPR       ",
                            "@UF": "AL",
                            "@Voto": "Sim            "
                        },
                        {
                            "@Nome": "Benedito de Figueiredo",
                            "@ideCadastro": "133942",
                            "@Partido": "PDT       ",
                            "@UF": "SE",
                            "@Voto": "Sim            "
                        },
                        {
                            "@Nome": "Djenal Gonçalves",
                            "@ideCadastro": "133856",
                            "@Partido": "PSDB      ",
                            "@UF": "SE",
                            "@Voto": "Não            "
                        },
                        {
                            "@Nome": "Jerônimo Reis",
                            "@ideCadastro": "74528",
                            "@Partido": "PMN       ",
                            "@UF": "SE",
                            "@Voto": "Sim            "
                        },
                        {
                            "@Nome": "Evaraldo de Oliveira",
                            "@ideCadastro": "73712",
                            "@Partido": "PFL       ",
                            "@UF": "SE",
                            "@Voto": "Não            "
                        },
                        {
                            "@Nome": "Messias Gois",
                            "@ideCadastro": "74249",
                            "@Partido": "PFL       ",
                            "@UF": "SE",
                            "@Voto": "Não            "
                        },
                        {
                            "@Nome": "Pedro Valadares",
                            "@ideCadastro": "74102",
                            "@Partido": "PP        ",
                            "@UF": "SE",
                            "@Voto": "Sim            "
                        },
                        {
                            "@Nome": "Benito Gama",
                            "@ideCadastro": "74535",
                            "@Partido": "PFL       ",
                            "@UF": "BA",
                            "@Voto": "Não            "
                        },
                        {
                            "@Nome": "Beraldo Boaventura",
                            "@ideCadastro": "73814",
                            "@Partido": "PSDB      ",
                            "@UF": "BA",
                            "@Voto": "Não            "
                        },
                        {
                            "@Nome": "Geddel Vieira Lima",
                            "@ideCadastro": "74544",
                            "@Partido": "PMDB      ",
                            "@UF": "BA",
                            "@Voto": "Sim            "
                        },
                        {
                            "@Nome": "Jabes Ribeiro",
                            "@ideCadastro": "73742",
                            "@Partido": "PSDB      ",
                            "@UF": "BA",
                            "@Voto": "Sim            "
                        },
                        {
                            "@Nome": "Jaques Wagner",
                            "@ideCadastro": "74548",
                            "@Partido": "PT        ",
                            "@UF": "BA",
                            "@Voto": "Não            "
                        },
                        {
                            "@Nome": "José Carlos Aleluia",
                            "@ideCadastro": "74553",
                            "@Partido": "PFL       ",
                            "@UF": "BA",
                            "@Voto": "Não            "
                        },
                        {
                            "@Nome": "José Falcão",
                            "@ideCadastro": "133941",
                            "@Partido": "PFL       ",
                            "@UF": "BA",
                            "@Voto": "Não            "
                        },
                        {
                            "@Nome": "Jutahy Júnior",
                            "@ideCadastro": "74570",
                            "@Partido": "PSDB      ",
                            "@UF": "BA",
                            "@Voto": "Não            "
                        },
                        {
                            "@Nome": "Luís Eduardo",
                            "@ideCadastro": "74630",
                            "@Partido": "PFL       ",
                            "@UF": "BA",
                            "@Voto": "Não            "
                        },
                        {
                            "@Nome": "Alcides Modesto",
                            "@ideCadastro": "74532",
                            "@Partido": "PT        ",
                            "@UF": "BA",
                            "@Voto": "Não            "
                        },
                        {
                            "@Nome": "Nestor Duarte",
                            "@ideCadastro": "74636",
                            "@Partido": "PMDB      ",
                            "@UF": "BA",
                            "@Voto": "Sim            "
                        },
                        {
                            "@Nome": "Pedro Irujo",
                            "@ideCadastro": "74637",
                            "@Partido": "PMDB      ",
                            "@UF": "BA",
                            "@Voto": "Não            "
                        },
                        {
                            "@Nome": "Sérgio Gaudenzi",
                            "@ideCadastro": "133949",
                            "@Partido": "PSDB      ",
                            "@UF": "BA",
                            "@Voto": "Não            "
                        },
                        {
                            "@Nome": "Aracely de Paula",
                            "@ideCadastro": "74648",
                            "@Partido": "PFL       ",
                            "@UF": "MG",
                            "@Voto": "Sim            "
                        },
                        {
                            "@Nome": "Armando Costa",
                            "@ideCadastro": "74649",
                            "@Partido": "PMDB      ",
                            "@UF": "MG",
                            "@Voto": "Sim            "
                        },
                        {
                            "@Nome": "Felipe Neri",
                            "@ideCadastro": "133918",
                            "@Partido": "PMDB      ",
                            "@UF": "MG",
                            "@Voto": "Sim            "
                        },
                        {
                            "@Nome": "Fernando Diniz",
                            "@ideCadastro": "74658",
                            "@Partido": "PMDB      ",
                            "@UF": "MG",
                            "@Voto": "Sim            "
                        },
                        {
                            "@Nome": "Genésio Bernardino",
                            "@ideCadastro": "74659",
                            "@Partido": "PMDB      ",
                            "@UF": "MG",
                            "@Voto": "Sim            "
                        },
                        {
                            "@Nome": "Ibrahim Abi-Ackel",
                            "@ideCadastro": "74663",
                            "@Partido": "PPR       ",
                            "@UF": "MG",
                            "@Voto": "Sim            "
                        },
                        {
                            "@Nome": "José Belato",
                            "@ideCadastro": "73749",
                            "@Partido": "PMDB      ",
                            "@UF": "MG",
                            "@Voto": "Sim            "
                        },
                        {
                            "@Nome": "José Aldo",
                            "@ideCadastro": "133848",
                            "@Partido": "PTB       ",
                            "@UF": "MG",
                            "@Voto": "Sim            "
                        },
                        {
                            "@Nome": "Elias Murad",
                            "@ideCadastro": "74656",
                            "@Partido": "PSDB      ",
                            "@UF": "MG",
                            "@Voto": "Sim            "
                        },
                        {
                            "@Nome": "José Santana de Vasconcellos",
                            "@ideCadastro": "74741",
                            "@Partido": "PFL       ",
                            "@UF": "MG",
                            "@Voto": "Sim            "
                        },
                        {
                            "@Nome": "Lael Varella",
                            "@ideCadastro": "74742",
                            "@Partido": "PFL       ",
                            "@UF": "MG",
                            "@Voto": "Sim            "
                        },
                        {
                            "@Nome": "Marcos Lima",
                            "@ideCadastro": "74745",
                            "@Partido": "PMDB      ",
                            "@UF": "MG",
                            "@Voto": "Sim            "
                        },
                        {
                            "@Nome": "Maurício Campos",
                            "@ideCadastro": "74748",
                            "@Partido": "PL        ",
                            "@UF": "MG",
                            "@Voto": "Sim            "
                        },
                        {
                            "@Nome": "Nilmário Miranda",
                            "@ideCadastro": "74751",
                            "@Partido": "PT        ",
                            "@UF": "MG",
                            "@Voto": "Não            "
                        },
                        {
                            "@Nome": "Odelmo Leão",
                            "@ideCadastro": "74752",
                            "@Partido": "PP        ",
                            "@UF": "MG",
                            "@Voto": "Sim            "
                        },
                        {
                            "@Nome": "Paulino Cícero de Vasconcelos",
                            "@ideCadastro": "133923",
                            "@Partido": "PSDB      ",
                            "@UF": "MG",
                            "@Voto": "Não            "
                        },
                        {
                            "@Nome": "Paulo Heslander",
                            "@ideCadastro": "74755",
                            "@Partido": "PTB       ",
                            "@UF": "MG",
                            "@Voto": "Não            "
                        },
                        {
                            "@Nome": "Tarcísio Delgado",
                            "@ideCadastro": "133919",
                            "@Partido": "PMDB      ",
                            "@UF": "MG",
                            "@Voto": "Sim            "
                        },
                        {
                            "@Nome": "Samir Tannus",
                            "@ideCadastro": "133924",
                            "@Partido": "PPR       ",
                            "@UF": "MG",
                            "@Voto": "Sim            "
                        },
                        {
                            "@Nome": "Sandra Starling",
                            "@ideCadastro": "74761",
                            "@Partido": "PT        ",
                            "@UF": "MG",
                            "@Voto": "Não            "
                        },
                        {
                            "@Nome": "Saulo Coelho",
                            "@ideCadastro": "73596",
                            "@Partido": "PSDB      ",
                            "@UF": "MG",
                            "@Voto": "Não            "
                        },
                        {
                            "@Nome": "Vittorio Medioli",
                            "@ideCadastro": "74768",
                            "@Partido": "PSDB      ",
                            "@UF": "MG",
                            "@Voto": "Sim            "
                        },
                        {
                            "@Nome": "Wilson Cunha",
                            "@ideCadastro": "73598",
                            "@Partido": "PTB       ",
                            "@UF": "MG",
                            "@Voto": "Sim            "
                        },
                        {
                            "@Nome": "Etevalda Grassi de Menezes",
                            "@ideCadastro": "74138",
                            "@Partido": "PTB       ",
                            "@UF": "ES",
                            "@Voto": "Sim            "
                        },
                        {
                            "@Nome": "Rita Camata",
                            "@ideCadastro": "74777",
                            "@Partido": "PMDB      ",
                            "@UF": "ES",
                            "@Voto": "Sim            "
                        },
                        {
                            "@Nome": "Rose de Freitas",
                            "@ideCadastro": "73507",
                            "@Partido": "PSDB      ",
                            "@UF": "ES",
                            "@Voto": "Sim            "
                        },
                        {
                            "@Nome": "Aldir Cabral",
                            "@ideCadastro": "74828",
                            "@Partido": "PFL       ",
                            "@UF": "RJ",
                            "@Voto": "Sim            "
                        },
                        {
                            "@Nome": "Alvaro Valle",
                            "@ideCadastro": "74831",
                            "@Partido": "PL        ",
                            "@UF": "RJ",
                            "@Voto": "Sim            "
                        },
                        {
                            "@Nome": "Sérgio Arouca",
                            "@ideCadastro": "73423",
                            "@Partido": "PPS       ",
                            "@UF": "RJ",
                            "@Voto": "Sim            "
                        },
                        {
                            "@Nome": "Benedita da Silva",
                            "@ideCadastro": "73701",
                            "@Partido": "PT        ",
                            "@UF": "RJ",
                            "@Voto": "Não            "
                        },
                        {
                            "@Nome": "Carlos Alberto Campista",
                            "@ideCadastro": "74224",
                            "@Partido": "PDT       ",
                            "@UF": "RJ",
                            "@Voto": "Sim            "
                        },
                        {
                            "@Nome": "Carlos Santana",
                            "@ideCadastro": "74835",
                            "@Partido": "PT        ",
                            "@UF": "RJ",
                            "@Voto": "Não            "
                        },
                        {
                            "@Nome": "Carlos Lupi",
                            "@ideCadastro": "73638",
                            "@Partido": "PDT       ",
                            "@UF": "RJ",
                            "@Voto": "Sim            "
                        },
                        {
                            "@Nome": "Francisco Dornelles",
                            "@ideCadastro": "74844",
                            "@Partido": "PPR       ",
                            "@UF": "RJ",
                            "@Voto": "Sim            "
                        },
                        {
                            "@Nome": "Jair Bolsonaro",
                            "@ideCadastro": "74847",
                            "@Partido": "PPR       ",
                            "@UF": "RJ",
                            "@Voto": "Sim            "
                        },
                        {
                            "@Nome": "Jamil Haddad",
                            "@ideCadastro": "74338",
                            "@Partido": "PSB       ",
                            "@UF": "RJ",
                            "@Voto": "Sim            "
                        },
                        {
                            "@Nome": "Jandira Feghali",
                            "@ideCadastro": "74848",
                            "@Partido": "PCdoB     ",
                            "@UF": "RJ",
                            "@Voto": "Não            "
                        },
                        {
                            "@Nome": "Junot Abi-ramia",
                            "@ideCadastro": "73757",
                            "@Partido": "PDT       ",
                            "@UF": "RJ",
                            "@Voto": "Sim            "
                        },
                        {
                            "@Nome": "Luiz Salomão",
                            "@ideCadastro": "74339",
                            "@Partido": "PDT       ",
                            "@UF": "RJ",
                            "@Voto": "Sim            "
                        },
                        {
                            "@Nome": "Nelson Bornier",
                            "@ideCadastro": "73416",
                            "@Partido": "PL        ",
                            "@UF": "RJ",
                            "@Voto": "Não            "
                        },
                        {
                            "@Nome": "Laprovita Vieira",
                            "@ideCadastro": "74855",
                            "@Partido": "PP        ",
                            "@UF": "RJ",
                            "@Voto": "Sim            "
                        },
                        {
                            "@Nome": "Artur da Tavola",
                            "@ideCadastro": "73503",
                            "@Partido": "PSDB      ",
                            "@UF": "RJ",
                            "@Voto": "Não            "
                        },
                        {
                            "@Nome": "Sandra Cavalcanti",
                            "@ideCadastro": "133986",
                            "@Partido": "PPR       ",
                            "@UF": "RJ",
                            "@Voto": "Não            "
                        },
                        {
                            "@Nome": "Vladimir Palmeira",
                            "@ideCadastro": "133985",
                            "@Partido": "PT        ",
                            "@UF": "RJ",
                            "@Voto": "Não            "
                        },
                        {
                            "@Nome": "Miro Teixeira",
                            "@ideCadastro": "74862",
                            "@Partido": "PDT       ",
                            "@UF": "RJ",
                            "@Voto": "Sim            "
                        },
                        {
                            "@Nome": "Alberto Goldman",
                            "@ideCadastro": "73427",
                            "@Partido": "PMDB      ",
                            "@UF": "SP",
                            "@Voto": "Sim            "
                        },
                        {
                            "@Nome": "Aloizio Mercadante",
                            "@ideCadastro": "74697",
                            "@Partido": "PT        ",
                            "@UF": "SP",
                            "@Voto": "Não            "
                        },
                        {
                            "@Nome": "Eduardo Jorge",
                            "@ideCadastro": "73448",
                            "@Partido": "PT        ",
                            "@UF": "SP",
                            "@Voto": "Não            "
                        },
                        {
                            "@Nome": "Ernesto Gradella",
                            "@ideCadastro": "73729",
                            "@Partido": "PSTU      ",
                            "@UF": "SP",
                            "@Voto": "Não            "
                        },
                        {
                            "@Nome": "Vadão Gomes",
                            "@ideCadastro": "73564",
                            "@Partido": "PP        ",
                            "@UF": "SP",
                            "@Voto": "Sim            "
                        },
                        {
                            "@Nome": "Euclydes Mello",
                            "@ideCadastro": "73824",
                            "@Partido": "PRN       ",
                            "@UF": "SP",
                            "@Voto": "Sim            "
                        },
                        {
                            "@Nome": "Geraldo Alckmin Filho",
                            "@ideCadastro": "65480",
                            "@Partido": "PSDB      ",
                            "@UF": "SP",
                            "@Voto": "Não            "
                        },
                        {
                            "@Nome": "Heitor Franco",
                            "@ideCadastro": "73739",
                            "@Partido": "PPR       ",
                            "@UF": "SP",
                            "@Voto": "Sim            "
                        },
                        {
                            "@Nome": "Hélio Bicudo",
                            "@ideCadastro": "73453",
                            "@Partido": "PT        ",
                            "@UF": "SP",
                            "@Voto": "Não            "
                        },
                        {
                            "@Nome": "Irma Passoni",
                            "@ideCadastro": "133915",
                            "@Partido": "PT        ",
                            "@UF": "SP",
                            "@Voto": "Não            "
                        },
                        {
                            "@Nome": "Jorge Tadeu Mudalen",
                            "@ideCadastro": "73535",
                            "@Partido": "PMDB      ",
                            "@UF": "SP",
                            "@Voto": "Sim            "
                        },
                        {
                            "@Nome": "Aldo Rebelo",
                            "@ideCadastro": "73428",
                            "@Partido": "PCdoB     ",
                            "@UF": "SP",
                            "@Voto": "Não            "
                        },
                        {
                            "@Nome": "José Dirceu",
                            "@ideCadastro": "74782",
                            "@Partido": "PT        ",
                            "@UF": "SP",
                            "@Voto": "Não            "
                        },
                        {
                            "@Nome": "José Genoíno",
                            "@ideCadastro": "73540",
                            "@Partido": "PT        ",
                            "@UF": "SP",
                            "@Voto": "Não            "
                        },
                        {
                            "@Nome": "Tuga Angerami",
                            "@ideCadastro": "73562",
                            "@Partido": "PSDB      ",
                            "@UF": "SP",
                            "@Voto": "Não            "
                        },
                        {
                            "@Nome": "Luiz Carlos Santos",
                            "@ideCadastro": "73546",
                            "@Partido": "PMDB      ",
                            "@UF": "SP",
                            "@Voto": "Abstenção      "
                        },
                        {
                            "@Nome": "Marcelino Romano Machado",
                            "@ideCadastro": "133887",
                            "@Partido": "PPR       ",
                            "@UF": "SP",
                            "@Voto": "Sim            "
                        },
                        {
                            "@Nome": "Marcelo Barbieri",
                            "@ideCadastro": "73548",
                            "@Partido": "PMDB      ",
                            "@UF": "SP",
                            "@Voto": "Sim            "
                        },
                        {
                            "@Nome": "Beto Mansur",
                            "@ideCadastro": "73437",
                            "@Partido": "PPR       ",
                            "@UF": "SP",
                            "@Voto": "Sim            "
                        },
                        {
                            "@Nome": "Cardoso Alves",
                            "@ideCadastro": "133910",
                            "@Partido": "PTB       ",
                            "@UF": "SP",
                            "@Voto": "Sim            "
                        },
                        {
                            "@Nome": "Tadashi Kuriki",
                            "@ideCadastro": "133886",
                            "@Partido": "PPR       ",
                            "@UF": "SP",
                            "@Voto": "Sim            "
                        },
                        {
                            "@Nome": "Walter Nory",
                            "@ideCadastro": "73812",
                            "@Partido": "PMDB      ",
                            "@UF": "SP",
                            "@Voto": "Sim            "
                        },
                        {
                            "@Nome": "João Teixeira",
                            "@ideCadastro": "73744",
                            "@Partido": "PL        ",
                            "@UF": "MT",
                            "@Voto": "Não            "
                        },
                        {
                            "@Nome": "Rodrigues Palma",
                            "@ideCadastro": "73650",
                            "@Partido": "PTB       ",
                            "@UF": "MT",
                            "@Voto": "Sim            "
                        },
                        {
                            "@Nome": "Augusto Carvalho",
                            "@ideCadastro": "73655",
                            "@Partido": "PPS       ",
                            "@UF": "DF",
                            "@Voto": "Sim            "
                        },
                        {
                            "@Nome": "Maria Laura",
                            "@ideCadastro": "73659",
                            "@Partido": "PT        ",
                            "@UF": "DF",
                            "@Voto": "Não            "
                        },
                        {
                            "@Nome": "Haley Margon",
                            "@ideCadastro": "73738",
                            "@Partido": "PMDB      ",
                            "@UF": "GO",
                            "@Voto": "Sim            "
                        },
                        {
                            "@Nome": "João Natal",
                            "@ideCadastro": "73664",
                            "@Partido": "PMDB      ",
                            "@UF": "GO",
                            "@Voto": "Sim            "
                        },
                        {
                            "@Nome": "Lázaro Barbosa",
                            "@ideCadastro": "",
                            "@Partido": "PMDB      ",
                            "@UF": "GO",
                            "@Voto": "Sim            "
                        },
                        {
                            "@Nome": "Maria Valadão",
                            "@ideCadastro": "73669",
                            "@Partido": "PPR       ",
                            "@UF": "GO",
                            "@Voto": "Sim            "
                        },
                        {
                            "@Nome": "Paulo Mandarino",
                            "@ideCadastro": "73849",
                            "@Partido": "PPR       ",
                            "@UF": "GO",
                            "@Voto": "Sim            "
                        },
                        {
                            "@Nome": "Roberto Balestra",
                            "@ideCadastro": "73674",
                            "@Partido": "PPR       ",
                            "@UF": "GO",
                            "@Voto": "Abstenção      "
                        },
                        {
                            "@Nome": "Ronaldo Caiado",
                            "@ideCadastro": "74813",
                            "@Partido": "PFL       ",
                            "@UF": "GO",
                            "@Voto": "Sim            "
                        },
                        {
                            "@Nome": "Virmondes Cruvinel",
                            "@ideCadastro": "74019",
                            "@Partido": "PMDB      ",
                            "@UF": "GO",
                            "@Voto": "Sim            "
                        },
                        {
                            "@Nome": "Flávio Derzi",
                            "@ideCadastro": "73758",
                            "@Partido": "PP        ",
                            "@UF": "MS",
                            "@Voto": "Sim            "
                        },
                        {
                            "@Nome": "Waldir Guerra",
                            "@ideCadastro": "133930",
                            "@Partido": "PFL       ",
                            "@UF": "MS",
                            "@Voto": "Não            "
                        },
                        {
                            "@Nome": "Antônio Barbara",
                            "@ideCadastro": "73631",
                            "@Partido": "PMDB      ",
                            "@UF": "PR",
                            "@Voto": "Não            "
                        },
                        {
                            "@Nome": "Basílio Villani",
                            "@ideCadastro": "73767",
                            "@Partido": "PPR       ",
                            "@UF": "PR",
                            "@Voto": "Sim            "
                        },
                        {
                            "@Nome": "Pinga Fogo de Oliveira",
                            "@ideCadastro": "73635",
                            "@Partido": "PDT       ",
                            "@UF": "PR",
                            "@Voto": "Sim            "
                        },
                        {
                            "@Nome": "Carlos Roberto Massa",
                            "@ideCadastro": "73639",
                            "@Partido": "PTB       ",
                            "@UF": "PR",
                            "@Voto": "Sim            "
                        },
                        {
                            "@Nome": "Carlos Scarpelini",
                            "@ideCadastro": "73640",
                            "@Partido": "PP        ",
                            "@UF": "PR",
                            "@Voto": "Sim            "
                        },
                        {
                            "@Nome": "Edésio Passos",
                            "@ideCadastro": "73724",
                            "@Partido": "PT        ",
                            "@UF": "PR",
                            "@Voto": "Não            "
                        },
                        {
                            "@Nome": "Elio Dalla-Vecchia",
                            "@ideCadastro": "73706",
                            "@Partido": "PDT       ",
                            "@UF": "PR",
                            "@Voto": "Sim            "
                        },
                        {
                            "@Nome": "Flávio Arns",
                            "@ideCadastro": "73771",
                            "@Partido": "PSDB      ",
                            "@UF": "PR",
                            "@Voto": "Não            "
                        },
                        {
                            "@Nome": "Joni Varisco",
                            "@ideCadastro": "73747",
                            "@Partido": "PMDB      ",
                            "@UF": "PR",
                            "@Voto": "Sim            "
                        },
                        {
                            "@Nome": "Max Rosenmann",
                            "@ideCadastro": "73780",
                            "@Partido": "PDT       ",
                            "@UF": "PR",
                            "@Voto": "Sim            "
                        },
                        {
                            "@Nome": "Otto Cunha",
                            "@ideCadastro": "133943",
                            "@Partido": "PPR       ",
                            "@UF": "PR",
                            "@Voto": "Sim            "
                        },
                        {
                            "@Nome": "Paulo Bernardo",
                            "@ideCadastro": "73784",
                            "@Partido": "PT        ",
                            "@UF": "PR",
                            "@Voto": "Não            "
                        },
                        {
                            "@Nome": "Munhoz da Rocha",
                            "@ideCadastro": "73847",
                            "@Partido": "PSDB      ",
                            "@UF": "PR",
                            "@Voto": "Não            "
                        },
                        {
                            "@Nome": "Pedro Tonelli",
                            "@ideCadastro": "73799",
                            "@Partido": "PT        ",
                            "@UF": "PR",
                            "@Voto": "Não            "
                        },
                        {
                            "@Nome": "Renato Johnsson",
                            "@ideCadastro": "73787",
                            "@Partido": "PP        ",
                            "@UF": "PR",
                            "@Voto": "Sim            "
                        },
                        {
                            "@Nome": "Ângela Amin",
                            "@ideCadastro": "73696",
                            "@Partido": "PPR       ",
                            "@UF": "SC",
                            "@Voto": "Sim            "
                        },
                        {
                            "@Nome": "Hugo Biehl",
                            "@ideCadastro": "73795",
                            "@Partido": "PPR       ",
                            "@UF": "SC",
                            "@Voto": "Sim            "
                        },
                        {
                            "@Nome": "Luci Choinacki",
                            "@ideCadastro": "73474",
                            "@Partido": "PT        ",
                            "@UF": "SC",
                            "@Voto": "Não            "
                        },
                        {
                            "@Nome": "Nelson Morro",
                            "@ideCadastro": "133882",
                            "@Partido": "PFL       ",
                            "@UF": "SC",
                            "@Voto": "Não            "
                        },
                        {
                            "@Nome": "Paulo Duarte",
                            "@ideCadastro": "73846",
                            "@Partido": "PPR       ",
                            "@UF": "SC",
                            "@Voto": "Sim            "
                        },
                        {
                            "@Nome": "Vasco Furlan",
                            "@ideCadastro": "133960",
                            "@Partido": "PPR       ",
                            "@UF": "SC",
                            "@Voto": "Sim            "
                        },
                        {
                            "@Nome": "Adão Pretto",
                            "@ideCadastro": "73886",
                            "@Partido": "PT        ",
                            "@UF": "RS",
                            "@Voto": "Não            "
                        },
                        {
                            "@Nome": "Adroaldo Streck",
                            "@ideCadastro": "73996",
                            "@Partido": "PSDB      ",
                            "@UF": "RS",
                            "@Voto": "Não            "
                        },
                        {
                            "@Nome": "Aldo Pinto",
                            "@ideCadastro": "133876",
                            "@Partido": "PDT       ",
                            "@UF": "RS",
                            "@Voto": "Sim            "
                        },
                        {
                            "@Nome": "Amaury Muller",
                            "@ideCadastro": "133852",
                            "@Partido": "PDT       ",
                            "@UF": "RS",
                            "@Voto": "Sim            "
                        },
                        {
                            "@Nome": "Celso Bernardi",
                            "@ideCadastro": "133997",
                            "@Partido": "PPR       ",
                            "@UF": "RS",
                            "@Voto": "Sim            "
                        },
                        {
                            "@Nome": "Eden Pedroso",
                            "@ideCadastro": "133952",
                            "@Partido": "PT        ",
                            "@UF": "RS",
                            "@Voto": "Não            "
                        },
                        {
                            "@Nome": "Fernando Carrion",
                            "@ideCadastro": "133950",
                            "@Partido": "PPR       ",
                            "@UF": "RS",
                            "@Voto": "Sim            "
                        },
                        {
                            "@Nome": "Germano Rigotto",
                            "@ideCadastro": "73897",
                            "@Partido": "PMDB      ",
                            "@UF": "RS",
                            "@Voto": "Sim            "
                        },
                        {
                            "@Nome": "Ivo Mainardi",
                            "@ideCadastro": "74008",
                            "@Partido": "PMDB      ",
                            "@UF": "RS",
                            "@Voto": "Sim            "
                        },
                        {
                            "@Nome": "João de Deus Antunes",
                            "@ideCadastro": "133863",
                            "@Partido": "PPR       ",
                            "@UF": "RS",
                            "@Voto": "Sim            "
                        },
                        {
                            "@Nome": "Odacir Klein",
                            "@ideCadastro": "73908",
                            "@Partido": "PMDB      ",
                            "@UF": "RS",
                            "@Voto": "Sim            "
                        },
                        {
                            "@Nome": "Paulo Paim",
                            "@ideCadastro": "73910",
                            "@Partido": "PT        ",
                            "@UF": "RS",
                            "@Voto": "Sim            "
                        },
                        {
                            "@Nome": "Telmo Kirst",
                            "@ideCadastro": "73989",
                            "@Partido": "PPR       ",
                            "@UF": "RS",
                            "@Voto": "Sim            "
                        },
                        {
                            "@Nome": "Victor Faccioni",
                            "@ideCadastro": "133855",
                            "@Partido": "PPR       ",
                            "@UF": "RS",
                            "@Voto": "Sim            "
                        },
                        {
                            "@Nome": "Luiz Soyer",
                            "@ideCadastro": "133870",
                            "@Partido": "PMDB      ",
                            "@UF": "GO",
                            "@Voto": "Sim            "
                        },
                        {
                            "@Nome": "Laerte Bastos",
                            "@ideCadastro": "73869",
                            "@Partido": "PSDB      ",
                            "@UF": "RJ",
                            "@Voto": "Não            "
                        },
                        {
                            "@Nome": "Jairo Carneiro",
                            "@ideCadastro": "74547",
                            "@Partido": "PFL       ",
                            "@UF": "BA",
                            "@Voto": "Abstenção      "
                        },
                        {
                            "@Nome": "Orlando Pacheco",
                            "@ideCadastro": "133874",
                            "@Partido": "PSD       ",
                            "@UF": "SC",
                            "@Voto": "Sim            "
                        },
                        {
                            "@Nome": "Ronaldo Perim",
                            "@ideCadastro": "74760",
                            "@Partido": "PMDB      ",
                            "@UF": "MG",
                            "@Voto": "Sim            "
                        },
                        {
                            "@Nome": "Paulo Ramos",
                            "@ideCadastro": "133968",
                            "@Partido": "PDT       ",
                            "@UF": "RJ",
                            "@Voto": "Sim            "
                        },
                        {
                            "@Nome": "Edésio Frias",
                            "@ideCadastro": "133983",
                            "@Partido": "PDT       ",
                            "@UF": "RJ",
                            "@Voto": "Sim            "
                        },
                        {
                            "@Nome": "Eduardo Mascarenhas",
                            "@ideCadastro": "74839",
                            "@Partido": "PSDB      ",
                            "@UF": "RJ",
                            "@Voto": "Não            "
                        },
                        {
                            "@Nome": "Paulo Romano",
                            "@ideCadastro": "73870",
                            "@Partido": "PSC       ",
                            "@UF": "MG",
                            "@Voto": "Sim            "
                        },
                        {
                            "@Nome": "Tourinho Dantas",
                            "@ideCadastro": "73872",
                            "@Partido": "PFL       ",
                            "@UF": "BA",
                            "@Voto": "Não            "
                        },
                        {
                            "@Nome": "Edison Andrino",
                            "@ideCadastro": "73794",
                            "@Partido": "PMDB      ",
                            "@UF": "SC",
                            "@Voto": "Sim            "
                        },
                        {
                            "@Nome": "Darci Coelho",
                            "@ideCadastro": "74187",
                            "@Partido": "PFL       ",
                            "@UF": "TO",
                            "@Voto": "Sim            "
                        },
                        {
                            "@Nome": "Luiz Máximo",
                            "@ideCadastro": "74135",
                            "@Partido": "PSDB      ",
                            "@UF": "SP",
                            "@Voto": "Não            "
                        },
                        {
                            "@Nome": "José Abrão",
                            "@ideCadastro": "73711",
                            "@Partido": "PSDB      ",
                            "@UF": "SP",
                            "@Voto": "Não            "
                        },
                        {
                            "@Nome": "João Thomé",
                            "@ideCadastro": "74092",
                            "@Partido": "PMDB      ",
                            "@UF": "AM",
                            "@Voto": "Sim            "
                        },
                        {
                            "@Nome": "Helvécio Castello",
                            "@ideCadastro": "73953",
                            "@Partido": "PT        ",
                            "@UF": "ES",
                            "@Voto": "Não            "
                        },
                        {
                            "@Nome": "Sérgio Ferrara",
                            "@ideCadastro": "133905",
                            "@Partido": "PDT       ",
                            "@UF": "MG",
                            "@Voto": "Sim            "
                        },
                        {
                            "@Nome": "Waldomiro Fioravante",
                            "@ideCadastro": "73990",
                            "@Partido": "PT        ",
                            "@UF": "RS",
                            "@Voto": "Não            "
                        },
                        {
                            "@Nome": "Armando Pinheiro",
                            "@ideCadastro": "133902",
                            "@Partido": "PPR       ",
                            "@UF": "SP",
                            "@Voto": "Sim            "
                        },
                        {
                            "@Nome": "Armando Viola",
                            "@ideCadastro": "73698",
                            "@Partido": "PMDB      ",
                            "@UF": "ES",
                            "@Voto": "Sim            "
                        },
                        {
                            "@Nome": "Sérgio Miranda",
                            "@ideCadastro": "74763",
                            "@Partido": "PCdoB     ",
                            "@UF": "MG",
                            "@Voto": "Não            "
                        },
                        {
                            "@Nome": "Neiva Moreira",
                            "@ideCadastro": "74225",
                            "@Partido": "PDT       ",
                            "@UF": "MA",
                            "@Voto": "Sim            "
                        },
                        {
                            "@Nome": "Aparício Carvalho",
                            "@ideCadastro": "73958",
                            "@Partido": "PSDB      ",
                            "@UF": "RO",
                            "@Voto": "Sim            "
                        }
                    ]
                }
            }
        }
    }
}