{
    "proposicao": {
        "Sigla": "PDC",
        "Numero": "414",
        "Ano": "1997",
        "Votacoes": {
            "Votacao": {
                "@Resumo": "",
                "@Data": "22/5/1997",
                "@Hora": "13:04",
                "@ObjVotacao": "PROJETO",
                "@codSessao": "2314",
                "votos": {
                    "Deputado": [
                        {
                            "@Nome": "Ivandro Cunha Lima",
                            "@ideCadastro": "74410",
                            "@Partido": "PMDB      ",
                            "@UF": "PB",
                            "@Voto": "Sim            "
                        },
                        {
                            "@Nome": "José Aldemir",
                            "@ideCadastro": "74411",
                            "@Partido": "PMDB      ",
                            "@UF": "PB",
                            "@Voto": "Sim            "
                        },
                        {
                            "@Nome": "Roberto Paulino",
                            "@ideCadastro": "74413",
                            "@Partido": "PMDB      ",
                            "@UF": "PB",
                            "@Voto": "Sim            "
                        },
                        {
                            "@Nome": "Wilson Braga",
                            "@ideCadastro": "74414",
                            "@Partido": "PSDB      ",
                            "@UF": "PB",
                            "@Voto": "Sim            "
                        },
                        {
                            "@Nome": "Fernando Ferro",
                            "@ideCadastro": "74417",
                            "@Partido": "PT        ",
                            "@UF": "PE",
                            "@Voto": "Abstenção      "
                        },
                        {
                            "@Nome": "Fernando Lyra",
                            "@ideCadastro": "74418",
                            "@Partido": "PSB       ",
                            "@UF": "PE",
                            "@Voto": "Não            "
                        },
                        {
                            "@Nome": "Inocêncio Oliveira ",
                            "@ideCadastro": "74421",
                            "@Partido": "PFL       ",
                            "@UF": "PE",
                            "@Voto": "Sim            "
                        },
                        {
                            "@Nome": "José Chaves",
                            "@ideCadastro": "74423",
                            "@Partido": "PMDB      ",
                            "@UF": "PE",
                            "@Voto": "Sim            "
                        },
                        {
                            "@Nome": "Roberto Fontes",
                            "@ideCadastro": "74432",
                            "@Partido": "PFL       ",
                            "@UF": "PE",
                            "@Voto": "Sim            "
                        },
                        {
                            "@Nome": "Salatiel Carvalho",
                            "@ideCadastro": "74434",
                            "@Partido": "PPB       ",
                            "@UF": "PE",
                            "@Voto": "Sim            "
                        },
                        {
                            "@Nome": "José Thomaz Nonô",
                            "@ideCadastro": "74520",
                            "@Partido": "PSDB      ",
                            "@UF": "AL",
                            "@Voto": "Sim            "
                        },
                        {
                            "@Nome": "José Jorge",
                            "@ideCadastro": "74424",
                            "@Partido": "PFL       ",
                            "@UF": "PE",
                            "@Voto": "Sim            "
                        },
                        {
                            "@Nome": "Armando Abílio ",
                            "@ideCadastro": "74405",
                            "@Partido": "PMDB      ",
                            "@UF": "PB",
                            "@Voto": "Sim            "
                        },
                        {
                            "@Nome": "Efraim Morais",
                            "@ideCadastro": "74407",
                            "@Partido": "PFL       ",
                            "@UF": "PB",
                            "@Voto": "Abstenção      "
                        },
                        {
                            "@Nome": "Enivaldo Ribeiro",
                            "@ideCadastro": "74408",
                            "@Partido": "PPB       ",
                            "@UF": "PB",
                            "@Voto": "Sim            "
                        },
                        {
                            "@Nome": "Coriolano Sales",
                            "@ideCadastro": "74538",
                            "@Partido": "PDT       ",
                            "@UF": "BA",
                            "@Voto": "Sim            "
                        },
                        {
                            "@Nome": "Domingos Leonelli",
                            "@ideCadastro": "74539",
                            "@Partido": "PSDB      ",
                            "@UF": "BA",
                            "@Voto": "Abstenção      "
                        },
                        {
                            "@Nome": "Félix Mendonça",
                            "@ideCadastro": "74542",
                            "@Partido": "PTB       ",
                            "@UF": "BA",
                            "@Voto": "Sim            "
                        },
                        {
                            "@Nome": "Mendonça Filho",
                            "@ideCadastro": "74428",
                            "@Partido": "PFL       ",
                            "@UF": "PE",
                            "@Voto": "Sim            "
                        },
                        {
                            "@Nome": "Nilson Gibson ",
                            "@ideCadastro": "74429",
                            "@Partido": "PSB       ",
                            "@UF": "PE",
                            "@Voto": "Não            "
                        },
                        {
                            "@Nome": "Adelson Ribeiro",
                            "@ideCadastro": "74524",
                            "@Partido": "PSDB      ",
                            "@UF": "SE",
                            "@Voto": "Sim            "
                        },
                        {
                            "@Nome": "Cleonâncio Fonseca ",
                            "@ideCadastro": "74527",
                            "@Partido": "PPB       ",
                            "@UF": "SE",
                            "@Voto": "Abstenção      "
                        },
                        {
                            "@Nome": "Talvane Albuquerque",
                            "@ideCadastro": "74523",
                            "@Partido": "PFL       ",
                            "@UF": "AL",
                            "@Voto": "Sim            "
                        },
                        {
                            "@Nome": "Jairo Carneiro",
                            "@ideCadastro": "74547",
                            "@Partido": "PFL       ",
                            "@UF": "BA",
                            "@Voto": "Sim            "
                        },
                        {
                            "@Nome": "Jonival Lucas",
                            "@ideCadastro": "74551",
                            "@Partido": "PFL       ",
                            "@UF": "BA",
                            "@Voto": "Sim            "
                        },
                        {
                            "@Nome": "José Carlos Aleluia ",
                            "@ideCadastro": "74553",
                            "@Partido": "PFL       ",
                            "@UF": "BA",
                            "@Voto": "Sim            "
                        },
                        {
                            "@Nome": "Leur Lomanto",
                            "@ideCadastro": "74555",
                            "@Partido": "PFL       ",
                            "@UF": "BA",
                            "@Voto": "Sim            "
                        },
                        {
                            "@Nome": "Luiz Braga",
                            "@ideCadastro": "74631",
                            "@Partido": "PFL       ",
                            "@UF": "BA",
                            "@Voto": "Sim            "
                        },
                        {
                            "@Nome": "Manoel Castro",
                            "@ideCadastro": "74633",
                            "@Partido": "PFL       ",
                            "@UF": "BA",
                            "@Voto": "Sim            "
                        },
                        {
                            "@Nome": "Prisco Viana",
                            "@ideCadastro": "74638",
                            "@Partido": "PPB       ",
                            "@UF": "BA",
                            "@Voto": "Sim            "
                        },
                        {
                            "@Nome": "Simara Ellery",
                            "@ideCadastro": "74642",
                            "@Partido": "PMDB      ",
                            "@UF": "BA",
                            "@Voto": "Sim            "
                        },
                        {
                            "@Nome": "Ursicino Queiroz",
                            "@ideCadastro": "74644",
                            "@Partido": "PFL       ",
                            "@UF": "BA",
                            "@Voto": "Sim            "
                        },
                        {
                            "@Nome": "Jairo Azi",
                            "@ideCadastro": "74546",
                            "@Partido": "PFL       ",
                            "@UF": "BA",
                            "@Voto": "Sim            "
                        },
                        {
                            "@Nome": "Saraiva Felipe",
                            "@ideCadastro": "74762",
                            "@Partido": "PMDB      ",
                            "@UF": "MG",
                            "@Voto": "Sim            "
                        },
                        {
                            "@Nome": "Aécio Neves",
                            "@ideCadastro": "74646",
                            "@Partido": "PSDB      ",
                            "@UF": "MG",
                            "@Voto": "Sim            "
                        },
                        {
                            "@Nome": "Aracely de Paula ",
                            "@ideCadastro": "74648",
                            "@Partido": "PFL       ",
                            "@UF": "MG",
                            "@Voto": "Sim            "
                        },
                        {
                            "@Nome": "Fernando Diniz",
                            "@ideCadastro": "74658",
                            "@Partido": "PMDB      ",
                            "@UF": "MG",
                            "@Voto": "Abstenção      "
                        },
                        {
                            "@Nome": "Hugo Rodrigues da Cunha",
                            "@ideCadastro": "74661",
                            "@Partido": "PFL       ",
                            "@UF": "MG",
                            "@Voto": "Sim            "
                        },
                        {
                            "@Nome": "Ibrahim Abi-Ackel",
                            "@ideCadastro": "74663",
                            "@Partido": "PPB       ",
                            "@UF": "MG",
                            "@Voto": "Sim            "
                        },
                        {
                            "@Nome": "Jaime Martins",
                            "@ideCadastro": "74665",
                            "@Partido": "PFL       ",
                            "@UF": "MG",
                            "@Voto": "Sim            "
                        },
                        {
                            "@Nome": "Alvaro Valle",
                            "@ideCadastro": "74831",
                            "@Partido": "PL        ",
                            "@UF": "RJ",
                            "@Voto": "Sim            "
                        },
                        {
                            "@Nome": "Arolde de Oliveira ",
                            "@ideCadastro": "74833",
                            "@Partido": "PFL       ",
                            "@UF": "RJ",
                            "@Voto": "Sim            "
                        },
                        {
                            "@Nome": "Márcio Reinaldo Moreira",
                            "@ideCadastro": "74744",
                            "@Partido": "PPB       ",
                            "@UF": "MG",
                            "@Voto": "Sim            "
                        },
                        {
                            "@Nome": "Maria Elvira ",
                            "@ideCadastro": "74746",
                            "@Partido": "PMDB      ",
                            "@UF": "MG",
                            "@Voto": "Sim            "
                        },
                        {
                            "@Nome": "Odelmo Leão",
                            "@ideCadastro": "74752",
                            "@Partido": "PPB       ",
                            "@UF": "MG",
                            "@Voto": "Sim            "
                        },
                        {
                            "@Nome": "Zaire Rezende",
                            "@ideCadastro": "74769",
                            "@Partido": "PMDB      ",
                            "@UF": "MG",
                            "@Voto": "Sim            "
                        },
                        {
                            "@Nome": "Adelson Salvador",
                            "@ideCadastro": "74770",
                            "@Partido": "PMDB      ",
                            "@UF": "ES",
                            "@Voto": "Sim            "
                        },
                        {
                            "@Nome": "Feu Rosa",
                            "@ideCadastro": "74771",
                            "@Partido": "PSDB      ",
                            "@UF": "ES",
                            "@Voto": "Sim            "
                        },
                        {
                            "@Nome": "Nilton Baiano",
                            "@ideCadastro": "74776",
                            "@Partido": "PPB       ",
                            "@UF": "ES",
                            "@Voto": "Sim            "
                        },
                        {
                            "@Nome": "Rita Camata",
                            "@ideCadastro": "74777",
                            "@Partido": "PMDB      ",
                            "@UF": "ES",
                            "@Voto": "Sim            "
                        },
                        {
                            "@Nome": "Roberto Valadão",
                            "@ideCadastro": "74826",
                            "@Partido": "PMDB      ",
                            "@UF": "ES",
                            "@Voto": "Sim            "
                        },
                        {
                            "@Nome": "Aldir Cabral",
                            "@ideCadastro": "74828",
                            "@Partido": "PFL       ",
                            "@UF": "RJ",
                            "@Voto": "Sim            "
                        },
                        {
                            "@Nome": "José Carlos Coutinho",
                            "@ideCadastro": "74851",
                            "@Partido": "PFL       ",
                            "@UF": "RJ",
                            "@Voto": "Sim            "
                        },
                        {
                            "@Nome": "Marcia Cibilis Viana",
                            "@ideCadastro": "74859",
                            "@Partido": "PDT       ",
                            "@UF": "RJ",
                            "@Voto": "Não            "
                        },
                        {
                            "@Nome": "Jorge Wilson",
                            "@ideCadastro": "74850",
                            "@Partido": "PPB       ",
                            "@UF": "RJ",
                            "@Voto": "Sim            "
                        },
                        {
                            "@Nome": "Simão Sessim",
                            "@ideCadastro": "73424",
                            "@Partido": "PSDB      ",
                            "@UF": "RJ",
                            "@Voto": "Sim            "
                        },
                        {
                            "@Nome": "Adhemar de Barros Filho ",
                            "@ideCadastro": "73426",
                            "@Partido": "PPB       ",
                            "@UF": "SP",
                            "@Voto": "Sim            "
                        },
                        {
                            "@Nome": "Alberto Goldman ",
                            "@ideCadastro": "73427",
                            "@Partido": "PMDB      ",
                            "@UF": "SP",
                            "@Voto": "Sim            "
                        },
                        {
                            "@Nome": "Aloysio Nunes Ferreira",
                            "@ideCadastro": "73430",
                            "@Partido": "PMDB      ",
                            "@UF": "SP",
                            "@Voto": "Sim            "
                        },
                        {
                            "@Nome": "Antonio Carlos Pannunzio ",
                            "@ideCadastro": "73431",
                            "@Partido": "PSDB      ",
                            "@UF": "SP",
                            "@Voto": "Sim            "
                        },
                        {
                            "@Nome": "Arnaldo Faria de Sá",
                            "@ideCadastro": "73434",
                            "@Partido": "PPB       ",
                            "@UF": "SP",
                            "@Voto": "Não            "
                        },
                        {
                            "@Nome": "Francisco Silva",
                            "@ideCadastro": "74845",
                            "@Partido": "PPB       ",
                            "@UF": "RJ",
                            "@Voto": "Sim            "
                        },
                        {
                            "@Nome": "Jair Bolsonaro",
                            "@ideCadastro": "74847",
                            "@Partido": "PPB       ",
                            "@UF": "RJ",
                            "@Voto": "Sim            "
                        },
                        {
                            "@Nome": "Rubem Medina",
                            "@ideCadastro": "73422",
                            "@Partido": "PFL       ",
                            "@UF": "RJ",
                            "@Voto": "Sim            "
                        },
                        {
                            "@Nome": "Cunha Lima",
                            "@ideCadastro": "73444",
                            "@Partido": "PPB       ",
                            "@UF": "SP",
                            "@Voto": "Sim            "
                        },
                        {
                            "@Nome": "Duilio Pisaneschi",
                            "@ideCadastro": "73446",
                            "@Partido": "PTB       ",
                            "@UF": "SP",
                            "@Voto": "Sim            "
                        },
                        {
                            "@Nome": "Edinho Araújo ",
                            "@ideCadastro": "73447",
                            "@Partido": "PMDB      ",
                            "@UF": "SP",
                            "@Voto": "Sim            "
                        },
                        {
                            "@Nome": "Jorge Tadeu Mudalen ",
                            "@ideCadastro": "73535",
                            "@Partido": "PPB       ",
                            "@UF": "SP",
                            "@Voto": "Sim            "
                        },
                        {
                            "@Nome": "José Aníbal ",
                            "@ideCadastro": "73536",
                            "@Partido": "PSDB      ",
                            "@UF": "SP",
                            "@Voto": "Sim            "
                        },
                        {
                            "@Nome": "Carlos Apolinário",
                            "@ideCadastro": "73438",
                            "@Partido": "PMDB      ",
                            "@UF": "SP",
                            "@Voto": "Sim            "
                        },
                        {
                            "@Nome": "Moreira Franco",
                            "@ideCadastro": "74863",
                            "@Partido": "PMDB      ",
                            "@UF": "RJ",
                            "@Voto": "Sim            "
                        },
                        {
                            "@Nome": "Jurandyr Paixão",
                            "@ideCadastro": "73543",
                            "@Partido": "PMDB      ",
                            "@UF": "SP",
                            "@Voto": "Sim            "
                        },
                        {
                            "@Nome": "Koyu Iha",
                            "@ideCadastro": "73544",
                            "@Partido": "PSDB      ",
                            "@UF": "SP",
                            "@Voto": "Sim            "
                        },
                        {
                            "@Nome": "Ricardo Izar",
                            "@ideCadastro": "73557",
                            "@Partido": "PPB       ",
                            "@UF": "SP",
                            "@Voto": "Sim            "
                        },
                        {
                            "@Nome": "Salvador Zimbaldi",
                            "@ideCadastro": "73559",
                            "@Partido": "PSDB      ",
                            "@UF": "SP",
                            "@Voto": "Sim            "
                        },
                        {
                            "@Nome": "Silvio Torres",
                            "@ideCadastro": "73560",
                            "@Partido": "PSDB      ",
                            "@UF": "SP",
                            "@Voto": "Sim            "
                        },
                        {
                            "@Nome": "Tuga Angerami",
                            "@ideCadastro": "73562",
                            "@Partido": "PSDB      ",
                            "@UF": "SP",
                            "@Voto": "Sim            "
                        },
                        {
                            "@Nome": "José de Abreu",
                            "@ideCadastro": "73539",
                            "@Partido": "PSDB      ",
                            "@UF": "SP",
                            "@Voto": "Sim            "
                        },
                        {
                            "@Nome": "Carlos Nelson",
                            "@ideCadastro": "73439",
                            "@Partido": "PMDB      ",
                            "@UF": "SP",
                            "@Voto": "Abstenção      "
                        },
                        {
                            "@Nome": "Celso Russomanno",
                            "@ideCadastro": "73441",
                            "@Partido": "PSDB      ",
                            "@UF": "SP",
                            "@Voto": "Sim            "
                        },
                        {
                            "@Nome": "Corauci Sobrinho",
                            "@ideCadastro": "73442",
                            "@Partido": "PFL       ",
                            "@UF": "SP",
                            "@Voto": "Sim            "
                        },
                        {
                            "@Nome": "Rodrigues Palma",
                            "@ideCadastro": "73650",
                            "@Partido": "PTB       ",
                            "@UF": "MT",
                            "@Voto": "Sim            "
                        },
                        {
                            "@Nome": "Augusto Carvalho ",
                            "@ideCadastro": "73655",
                            "@Partido": "PPS       ",
                            "@UF": "DF",
                            "@Voto": "Sim            "
                        },
                        {
                            "@Nome": "Benedito Domingos",
                            "@ideCadastro": "73656",
                            "@Partido": "PPB       ",
                            "@UF": "DF",
                            "@Voto": "Sim            "
                        },
                        {
                            "@Nome": "Jofran Frejat",
                            "@ideCadastro": "73658",
                            "@Partido": "PPB       ",
                            "@UF": "DF",
                            "@Voto": "Sim            "
                        },
                        {
                            "@Nome": "Osório Adriano",
                            "@ideCadastro": "73660",
                            "@Partido": "PFL       ",
                            "@UF": "DF",
                            "@Voto": "Sim            "
                        },
                        {
                            "@Nome": "Saulo Queiroz",
                            "@ideCadastro": "73763",
                            "@Partido": "PFL       ",
                            "@UF": "MS",
                            "@Voto": "Sim            "
                        },
                        {
                            "@Nome": "Valdemar Costa Neto",
                            "@ideCadastro": "73565",
                            "@Partido": "PL        ",
                            "@UF": "SP",
                            "@Voto": "Sim            "
                        },
                        {
                            "@Nome": "Wagner Rossi",
                            "@ideCadastro": "73567",
                            "@Partido": "PMDB      ",
                            "@UF": "SP",
                            "@Voto": "Não            "
                        },
                        {
                            "@Nome": "Wagner Salustiano",
                            "@ideCadastro": "73643",
                            "@Partido": "PPB       ",
                            "@UF": "SP",
                            "@Voto": "Sim            "
                        },
                        {
                            "@Nome": "Welson Gasparini",
                            "@ideCadastro": "73644",
                            "@Partido": "PSDB      ",
                            "@UF": "SP",
                            "@Voto": "Sim            "
                        },
                        {
                            "@Nome": "Zulaiê Cobra",
                            "@ideCadastro": "73645",
                            "@Partido": "PSDB      ",
                            "@UF": "SP",
                            "@Voto": "Sim            "
                        },
                        {
                            "@Nome": "Paulo Cordeiro",
                            "@ideCadastro": "73785",
                            "@Partido": "PTB       ",
                            "@UF": "PR",
                            "@Voto": "Sim            "
                        },
                        {
                            "@Nome": "Abelardo Lupion",
                            "@ideCadastro": "73764",
                            "@Partido": "PFL       ",
                            "@UF": "PR",
                            "@Voto": "Sim            "
                        },
                        {
                            "@Nome": "Jovair Arantes",
                            "@ideCadastro": "73666",
                            "@Partido": "PSDB      ",
                            "@UF": "GO",
                            "@Voto": "Sim            "
                        },
                        {
                            "@Nome": "Vilmar Rocha",
                            "@ideCadastro": "73677",
                            "@Partido": "PFL       ",
                            "@UF": "GO",
                            "@Voto": "Sim            "
                        },
                        {
                            "@Nome": "Zé Gomes da Rocha",
                            "@ideCadastro": "73678",
                            "@Partido": "PSD       ",
                            "@UF": "GO",
                            "@Voto": "Sim            "
                        },
                        {
                            "@Nome": "Nelson Trad",
                            "@ideCadastro": "73761",
                            "@Partido": "PTB       ",
                            "@UF": "MS",
                            "@Voto": "Sim            "
                        },
                        {
                            "@Nome": "Adylson Motta",
                            "@ideCadastro": "73887",
                            "@Partido": "PPB       ",
                            "@UF": "RS",
                            "@Voto": "Sim            "
                        },
                        {
                            "@Nome": "Augusto Nardes",
                            "@ideCadastro": "73889",
                            "@Partido": "PPB       ",
                            "@UF": "RS",
                            "@Voto": "Sim            "
                        },
                        {
                            "@Nome": "Affonso Camargo",
                            "@ideCadastro": "73765",
                            "@Partido": "PFL       ",
                            "@UF": "PR",
                            "@Voto": "Sim            "
                        },
                        {
                            "@Nome": "Antonio Ueno",
                            "@ideCadastro": "73766",
                            "@Partido": "PFL       ",
                            "@UF": "PR",
                            "@Voto": "Sim            "
                        },
                        {
                            "@Nome": "Basílio Villani",
                            "@ideCadastro": "73767",
                            "@Partido": "PSDB      ",
                            "@UF": "PR",
                            "@Voto": "Sim            "
                        },
                        {
                            "@Nome": "Hermes Parcianello ",
                            "@ideCadastro": "73772",
                            "@Partido": "PMDB      ",
                            "@UF": "PR",
                            "@Voto": "Sim            "
                        },
                        {
                            "@Nome": "Luciano Pizzatto",
                            "@ideCadastro": "73777",
                            "@Partido": "PFL       ",
                            "@UF": "PR",
                            "@Voto": "Sim            "
                        },
                        {
                            "@Nome": "Maurício Requião",
                            "@ideCadastro": "73779",
                            "@Partido": "PMDB      ",
                            "@UF": "PR",
                            "@Voto": "Sim            "
                        },
                        {
                            "@Nome": "Max Rosenmann",
                            "@ideCadastro": "73780",
                            "@Partido": "PMDB      ",
                            "@UF": "PR",
                            "@Voto": "Sim            "
                        },
                        {
                            "@Nome": "Nelson Meurer",
                            "@ideCadastro": "73781",
                            "@Partido": "PPB       ",
                            "@UF": "PR",
                            "@Voto": "Sim            "
                        },
                        {
                            "@Nome": "Paulo Ritzel",
                            "@ideCadastro": "73911",
                            "@Partido": "PMDB      ",
                            "@UF": "RS",
                            "@Voto": "Sim            "
                        },
                        {
                            "@Nome": "Wilson Cignachi",
                            "@ideCadastro": "73991",
                            "@Partido": "PMDB      ",
                            "@UF": "RS",
                            "@Voto": "Sim            "
                        },
                        {
                            "@Nome": "Yeda Crusius",
                            "@ideCadastro": "73992",
                            "@Partido": "PSDB      ",
                            "@UF": "RS",
                            "@Voto": "Sim            "
                        },
                        {
                            "@Nome": "Werner Wanderer",
                            "@ideCadastro": "73792",
                            "@Partido": "PFL       ",
                            "@UF": "PR",
                            "@Voto": "Sim            "
                        },
                        {
                            "@Nome": "Hugo Biehl",
                            "@ideCadastro": "73795",
                            "@Partido": "PPB       ",
                            "@UF": "SC",
                            "@Voto": "Sim            "
                        },
                        {
                            "@Nome": "João Pizzolatti",
                            "@ideCadastro": "73874",
                            "@Partido": "PPB       ",
                            "@UF": "SC",
                            "@Voto": "Sim            "
                        },
                        {
                            "@Nome": "José Carlos Vieira",
                            "@ideCadastro": "73875",
                            "@Partido": "PFL       ",
                            "@UF": "SC",
                            "@Voto": "Sim            "
                        },
                        {
                            "@Nome": "Mário Cavallazzi",
                            "@ideCadastro": "73879",
                            "@Partido": "PPB       ",
                            "@UF": "SC",
                            "@Voto": "Sim            "
                        },
                        {
                            "@Nome": "Neuto de Conto",
                            "@ideCadastro": "73881",
                            "@Partido": "PMDB      ",
                            "@UF": "SC",
                            "@Voto": "Sim            "
                        },
                        {
                            "@Nome": "Paulo Gouvêa",
                            "@ideCadastro": "73884",
                            "@Partido": "PFL       ",
                            "@UF": "SC",
                            "@Voto": "Sim            "
                        },
                        {
                            "@Nome": "Jarbas Lima",
                            "@ideCadastro": "73900",
                            "@Partido": "PPB       ",
                            "@UF": "RS",
                            "@Voto": "Sim            "
                        },
                        {
                            "@Nome": "Nelson Marchezan",
                            "@ideCadastro": "73906",
                            "@Partido": "PSDB      ",
                            "@UF": "RS",
                            "@Voto": "Sim            "
                        },
                        {
                            "@Nome": "Osvaldo Biolchi",
                            "@ideCadastro": "73909",
                            "@Partido": "PTB       ",
                            "@UF": "RS",
                            "@Voto": "Sim            "
                        },
                        {
                            "@Nome": "Alcione Athayde",
                            "@ideCadastro": "74014",
                            "@Partido": "PPB       ",
                            "@UF": "RJ",
                            "@Voto": "Sim            "
                        },
                        {
                            "@Nome": "Arnaldo Madeira",
                            "@ideCadastro": "73993",
                            "@Partido": "PSDB      ",
                            "@UF": "SP",
                            "@Voto": "Sim            "
                        },
                        {
                            "@Nome": "Ezidio Pinheiro",
                            "@ideCadastro": "73895",
                            "@Partido": "PSDB      ",
                            "@UF": "RS",
                            "@Voto": "Sim            "
                        },
                        {
                            "@Nome": "Fetter Júnior ",
                            "@ideCadastro": "73896",
                            "@Partido": "PPB       ",
                            "@UF": "RS",
                            "@Voto": "Sim            "
                        },
                        {
                            "@Nome": "Germano Rigotto ",
                            "@ideCadastro": "73897",
                            "@Partido": "PMDB      ",
                            "@UF": "RS",
                            "@Voto": "Sim            "
                        },
                        {
                            "@Nome": "Osmir Lima",
                            "@ideCadastro": "74107",
                            "@Partido": "PFL       ",
                            "@UF": "AC",
                            "@Voto": "Sim            "
                        },
                        {
                            "@Nome": "Oscar Andrade",
                            "@ideCadastro": "74109",
                            "@Partido": "PMDB      ",
                            "@UF": "RO",
                            "@Voto": "Sim            "
                        },
                        {
                            "@Nome": "Pedro Henry",
                            "@ideCadastro": "74111",
                            "@Partido": "PSDB      ",
                            "@UF": "MT",
                            "@Voto": "Sim            "
                        },
                        {
                            "@Nome": "Paulo Feijó",
                            "@ideCadastro": "74017",
                            "@Partido": "PSDB      ",
                            "@UF": "RJ",
                            "@Voto": "Sim            "
                        },
                        {
                            "@Nome": "Alexandre Ceranto",
                            "@ideCadastro": "73999",
                            "@Partido": "PFL       ",
                            "@UF": "PR",
                            "@Voto": "Sim            "
                        },
                        {
                            "@Nome": "Ricardo Heráclio",
                            "@ideCadastro": "74003",
                            "@Partido": "PSB       ",
                            "@UF": "PE",
                            "@Voto": "Não            "
                        },
                        {
                            "@Nome": "Olavo Calheiros",
                            "@ideCadastro": "74005",
                            "@Partido": "PMDB      ",
                            "@UF": "AL",
                            "@Voto": "Sim            "
                        },
                        {
                            "@Nome": "Marçal Filho",
                            "@ideCadastro": "74124",
                            "@Partido": "PMDB      ",
                            "@UF": "MS",
                            "@Voto": "Sim            "
                        },
                        {
                            "@Nome": "José Lourenço",
                            "@ideCadastro": "74125",
                            "@Partido": "PFL       ",
                            "@UF": "BA",
                            "@Voto": "Sim            "
                        },
                        {
                            "@Nome": "Djalma de Almeida Cesar",
                            "@ideCadastro": "74127",
                            "@Partido": "PMDB      ",
                            "@UF": "PR",
                            "@Voto": "Sim            "
                        },
                        {
                            "@Nome": "João Faustino",
                            "@ideCadastro": "74128",
                            "@Partido": "PSDB      ",
                            "@UF": "RN",
                            "@Voto": "Sim            "
                        },
                        {
                            "@Nome": "Moisés Bennesby ",
                            "@ideCadastro": "74129",
                            "@Partido": "PSDB      ",
                            "@UF": "RO",
                            "@Voto": "Sim            "
                        },
                        {
                            "@Nome": "Regina Lino",
                            "@ideCadastro": "74130",
                            "@Partido": "PMDB      ",
                            "@UF": "AC",
                            "@Voto": "Sim            "
                        },
                        {
                            "@Nome": "Wagner do Nascimento ",
                            "@ideCadastro": "74132",
                            "@Partido": "PPB       ",
                            "@UF": "MG",
                            "@Voto": "Sim            "
                        },
                        {
                            "@Nome": "Luiz Máximo",
                            "@ideCadastro": "74135",
                            "@Partido": "PSDB      ",
                            "@UF": "SP",
                            "@Voto": "Sim            "
                        },
                        {
                            "@Nome": "Etevalda Grassi de Menezes",
                            "@ideCadastro": "74138",
                            "@Partido": "PTB       ",
                            "@UF": "ES",
                            "@Voto": "Sim            "
                        },
                        {
                            "@Nome": "Ricardo Rique",
                            "@ideCadastro": "74023",
                            "@Partido": "PMDB      ",
                            "@UF": "PB",
                            "@Voto": "Sim            "
                        },
                        {
                            "@Nome": "Ronaldo Santos",
                            "@ideCadastro": "74221",
                            "@Partido": "PSDB      ",
                            "@UF": "RJ",
                            "@Voto": "Sim            "
                        },
                        {
                            "@Nome": "Carlos Alberto Campista",
                            "@ideCadastro": "74224",
                            "@Partido": "PFL       ",
                            "@UF": "RJ",
                            "@Voto": "Abstenção      "
                        },
                        {
                            "@Nome": "Robson Romero",
                            "@ideCadastro": "74234",
                            "@Partido": "PSDB      ",
                            "@UF": "RJ",
                            "@Voto": "Sim            "
                        },
                        {
                            "@Nome": "Marcus Vicente",
                            "@ideCadastro": "74235",
                            "@Partido": "PSDB      ",
                            "@UF": "ES",
                            "@Voto": "Sim            "
                        },
                        {
                            "@Nome": "Octávio Elísio",
                            "@ideCadastro": "74236",
                            "@Partido": "PSDB      ",
                            "@UF": "MG",
                            "@Voto": "Sim            "
                        },
                        {
                            "@Nome": "Osmar Leitão",
                            "@ideCadastro": "74117",
                            "@Partido": "PPB       ",
                            "@UF": "RJ",
                            "@Voto": "Sim            "
                        },
                        {
                            "@Nome": "Paulo Lustosa",
                            "@ideCadastro": "74239",
                            "@Partido": "PMDB      ",
                            "@UF": "CE",
                            "@Voto": "Sim            "
                        },
                        {
                            "@Nome": "Arlindo Vargas",
                            "@ideCadastro": "74217",
                            "@Partido": "PTB       ",
                            "@UF": "RS",
                            "@Voto": "Sim            "
                        },
                        {
                            "@Nome": "Pimentel Gomes",
                            "@ideCadastro": "74303",
                            "@Partido": "PSDB      ",
                            "@UF": "CE",
                            "@Voto": "Sim            "
                        },
                        {
                            "@Nome": "Rommel Feijó",
                            "@ideCadastro": "74306",
                            "@Partido": "PSDB      ",
                            "@UF": "CE",
                            "@Voto": "Sim            "
                        },
                        {
                            "@Nome": "Ubiratan Aguiar",
                            "@ideCadastro": "74307",
                            "@Partido": "PSDB      ",
                            "@UF": "CE",
                            "@Voto": "Sim            "
                        },
                        {
                            "@Nome": "Felipe Mendes",
                            "@ideCadastro": "74314",
                            "@Partido": "PPB       ",
                            "@UF": "PI",
                            "@Voto": "Sim            "
                        },
                        {
                            "@Nome": "Júlio Cesar",
                            "@ideCadastro": "74317",
                            "@Partido": "PFL       ",
                            "@UF": "PI",
                            "@Voto": "Sim            "
                        },
                        {
                            "@Nome": "Henrique Eduardo Alves",
                            "@ideCadastro": "74324",
                            "@Partido": "PMDB      ",
                            "@UF": "RN",
                            "@Voto": "Sim            "
                        },
                        {
                            "@Nome": "Magno Bacelar",
                            "@ideCadastro": "74204",
                            "@Partido": "PFL       ",
                            "@UF": "MA",
                            "@Voto": "Sim            "
                        },
                        {
                            "@Nome": "Mauro Fecury",
                            "@ideCadastro": "74206",
                            "@Partido": "PFL       ",
                            "@UF": "MA",
                            "@Voto": "Sim            "
                        },
                        {
                            "@Nome": "Pedro Novais",
                            "@ideCadastro": "74207",
                            "@Partido": "PMDB      ",
                            "@UF": "MA",
                            "@Voto": "Sim            "
                        },
                        {
                            "@Nome": "Roberto Rocha",
                            "@ideCadastro": "74209",
                            "@Partido": "PSDB      ",
                            "@UF": "MA",
                            "@Voto": "Sim            "
                        },
                        {
                            "@Nome": "Sebastião Madeira",
                            "@ideCadastro": "74211",
                            "@Partido": "PSDB      ",
                            "@UF": "MA",
                            "@Voto": "Sim            "
                        },
                        {
                            "@Nome": "Aníbal Gomes",
                            "@ideCadastro": "74212",
                            "@Partido": "PMDB      ",
                            "@UF": "CE",
                            "@Voto": "Sim            "
                        },
                        {
                            "@Nome": "Arnon Bezerra",
                            "@ideCadastro": "74291",
                            "@Partido": "PSDB      ",
                            "@UF": "CE",
                            "@Voto": "Sim            "
                        },
                        {
                            "@Nome": "Leônidas Cristino",
                            "@ideCadastro": "74299",
                            "@Partido": "PSDB      ",
                            "@UF": "CE",
                            "@Voto": "Sim            "
                        },
                        {
                            "@Nome": "Célia Mendes",
                            "@ideCadastro": "74180",
                            "@Partido": "PFL       ",
                            "@UF": "AC",
                            "@Voto": "Abstenção      "
                        },
                        {
                            "@Nome": "Antônio Jorge",
                            "@ideCadastro": "74186",
                            "@Partido": "PPB       ",
                            "@UF": "TO",
                            "@Voto": "Sim            "
                        },
                        {
                            "@Nome": "Darci Coelho",
                            "@ideCadastro": "74187",
                            "@Partido": "PPB       ",
                            "@UF": "TO",
                            "@Voto": "Sim            "
                        },
                        {
                            "@Nome": "Dolores Nunes ",
                            "@ideCadastro": "74188",
                            "@Partido": "PPB       ",
                            "@UF": "TO",
                            "@Voto": "Sim            "
                        },
                        {
                            "@Nome": "Freire Júnior",
                            "@ideCadastro": "74189",
                            "@Partido": "PMDB      ",
                            "@UF": "TO",
                            "@Voto": "Sim            "
                        },
                        {
                            "@Nome": "Osvaldo Reis",
                            "@ideCadastro": "74191",
                            "@Partido": "PPB       ",
                            "@UF": "TO",
                            "@Voto": "Sim            "
                        },
                        {
                            "@Nome": "Paulo Mourão",
                            "@ideCadastro": "74192",
                            "@Partido": "PSDB      ",
                            "@UF": "TO",
                            "@Voto": "Sim            "
                        },
                        {
                            "@Nome": "Antonio Joaquim Araujo",
                            "@ideCadastro": "74194",
                            "@Partido": "PFL       ",
                            "@UF": "MA",
                            "@Voto": "Sim            "
                        },
                        {
                            "@Nome": "Davi Alves Silva",
                            "@ideCadastro": "74196",
                            "@Partido": "PPB       ",
                            "@UF": "MA",
                            "@Voto": "Sim            "
                        },
                        {
                            "@Nome": "Raimundo Santos",
                            "@ideCadastro": "74084",
                            "@Partido": "PFL       ",
                            "@UF": "PA",
                            "@Voto": "Sim            "
                        },
                        {
                            "@Nome": "Arthur Virgílio",
                            "@ideCadastro": "74089",
                            "@Partido": "PSDB      ",
                            "@UF": "AM",
                            "@Voto": "Sim            "
                        },
                        {
                            "@Nome": "Luiz Fernando",
                            "@ideCadastro": "74094",
                            "@Partido": "PSDB      ",
                            "@UF": "AM",
                            "@Voto": "Sim            "
                        },
                        {
                            "@Nome": "Confúcio Moura",
                            "@ideCadastro": "74097",
                            "@Partido": "PMDB      ",
                            "@UF": "RO",
                            "@Voto": "Sim            "
                        },
                        {
                            "@Nome": "Marinha Raupp",
                            "@ideCadastro": "74177",
                            "@Partido": "PSDB      ",
                            "@UF": "RO",
                            "@Voto": "Sim            "
                        },
                        {
                            "@Nome": "Francisco Rodrigues",
                            "@ideCadastro": "73981",
                            "@Partido": "PFL       ",
                            "@UF": "RR",
                            "@Voto": "Sim            "
                        },
                        {
                            "@Nome": "Luciano Castro",
                            "@ideCadastro": "73982",
                            "@Partido": "PSDB      ",
                            "@UF": "RR",
                            "@Voto": "Sim            "
                        },
                        {
                            "@Nome": "Luis Barbosa",
                            "@ideCadastro": "73983",
                            "@Partido": "PPB       ",
                            "@UF": "RR",
                            "@Voto": "Sim            "
                        },
                        {
                            "@Nome": "Salomão Cruz",
                            "@ideCadastro": "73986",
                            "@Partido": "PSDB      ",
                            "@UF": "RR",
                            "@Voto": "Sim            "
                        },
                        {
                            "@Nome": "Antonio Feijão",
                            "@ideCadastro": "73987",
                            "@Partido": "PSDB      ",
                            "@UF": "AP",
                            "@Voto": "Abstenção      "
                        },
                        {
                            "@Nome": "Eraldo Trindade",
                            "@ideCadastro": "74064",
                            "@Partido": "PPB       ",
                            "@UF": "AP",
                            "@Voto": "Sim            "
                        },
                        {
                            "@Nome": "Gervásio Oliveira",
                            "@ideCadastro": "74066",
                            "@Partido": "PSB       ",
                            "@UF": "AP",
                            "@Voto": "Sim            "
                        },
                        {
                            "@Nome": "Murilo Pinheiro",
                            "@ideCadastro": "74067",
                            "@Partido": "PFL       ",
                            "@UF": "AP",
                            "@Voto": "Sim            "
                        },
                        {
                            "@Nome": "Valdenor Guedes",
                            "@ideCadastro": "74070",
                            "@Partido": "PPB       ",
                            "@UF": "AP",
                            "@Voto": "Sim            "
                        },
                        {
                            "@Nome": "Anivaldo Vale",
                            "@ideCadastro": "74072",
                            "@Partido": "PSDB      ",
                            "@UF": "PA",
                            "@Voto": "Sim            "
                        },
                        {
                            "@Nome": "Benedito Guimarães ",
                            "@ideCadastro": "74074",
                            "@Partido": "PPB       ",
                            "@UF": "PA",
                            "@Voto": "Sim            "
                        },
                        {
                            "@Nome": "Hilário Coimbra",
                            "@ideCadastro": "74078",
                            "@Partido": "PSDB      ",
                            "@UF": "PA",
                            "@Voto": "Sim            "
                        },
                        {
                            "@Nome": "B. Sá",
                            "@ideCadastro": "74312",
                            "@Partido": "PSDB      ",
                            "@UF": "PI",
                            "@Voto": "Sim            "
                        },
                        {
                            "@Nome": "Alzira Éwerton",
                            "@ideCadastro": "74088",
                            "@Partido": "PSDB      ",
                            "@UF": "AM",
                            "@Voto": "Sim            "
                        },
                        {
                            "@Nome": "Sérgio Naya",
                            "@ideCadastro": "74764",
                            "@Partido": "PPB       ",
                            "@UF": "MG",
                            "@Voto": "Sim            "
                        }
                    ]
                }
            }
        }
    }
}