{
    "proposicao": {
        "Sigla": "PL",
        "Numero": "4393",
        "Ano": "1994",
        "Votacoes": {
            "Votacao": {
                "@Resumo": "",
                "@Data": "9/3/1994",
                "@Hora": "13:05",
                "@ObjVotacao": "PROJETO",
                "@codSessao": "2669",
                "votos": {
                    "Deputado": [
                        {
                            "@Nome": "Alceste Almeida",
                            "@ideCadastro": "73979",
                            "@Partido": "PTB       ",
                            "@UF": "RR",
                            "@Voto": "Sim            "
                        },
                        {
                            "@Nome": "Júlio Cabral",
                            "@ideCadastro": "73630",
                            "@Partido": "PP        ",
                            "@UF": "RR",
                            "@Voto": "Sim            "
                        },
                        {
                            "@Nome": "Francisco Rodrigues",
                            "@ideCadastro": "73981",
                            "@Partido": "PTB       ",
                            "@UF": "RR",
                            "@Voto": "Sim            "
                        },
                        {
                            "@Nome": "João Fagundes",
                            "@ideCadastro": "133881",
                            "@Partido": "PMDB      ",
                            "@UF": "RR",
                            "@Voto": "Sim            "
                        },
                        {
                            "@Nome": "Marcelo Luz",
                            "@ideCadastro": "133880",
                            "@Partido": "PP        ",
                            "@UF": "RR",
                            "@Voto": "Sim            "
                        },
                        {
                            "@Nome": "Ruben Bento",
                            "@ideCadastro": "73807",
                            "@Partido": "PFL       ",
                            "@UF": "RR",
                            "@Voto": "Sim            "
                        },
                        {
                            "@Nome": "Eraldo Trindade",
                            "@ideCadastro": "74064",
                            "@Partido": "PPR       ",
                            "@UF": "AP",
                            "@Voto": "Sim            "
                        },
                        {
                            "@Nome": "Fátima Pelaes",
                            "@ideCadastro": "74065",
                            "@Partido": "PFL       ",
                            "@UF": "AP",
                            "@Voto": "Sim            "
                        },
                        {
                            "@Nome": "Lourival Freitas",
                            "@ideCadastro": "73822",
                            "@Partido": "PT        ",
                            "@UF": "AP",
                            "@Voto": "Não            "
                        },
                        {
                            "@Nome": "Murilo Pinheiro",
                            "@ideCadastro": "74067",
                            "@Partido": "PFL       ",
                            "@UF": "AP",
                            "@Voto": "Sim            "
                        },
                        {
                            "@Nome": "Valdenor Guedes",
                            "@ideCadastro": "74070",
                            "@Partido": "PP        ",
                            "@UF": "AP",
                            "@Voto": "Sim            "
                        },
                        {
                            "@Nome": "Alacid Nunes",
                            "@ideCadastro": "133939",
                            "@Partido": "PFL       ",
                            "@UF": "PA",
                            "@Voto": "Sim            "
                        },
                        {
                            "@Nome": "Domingos Juvenil",
                            "@ideCadastro": "133993",
                            "@Partido": "PMDB      ",
                            "@UF": "PA",
                            "@Voto": "Sim            "
                        },
                        {
                            "@Nome": "Gérson Peres",
                            "@ideCadastro": "74076",
                            "@Partido": "PPR       ",
                            "@UF": "PA",
                            "@Voto": "Sim            "
                        },
                        {
                            "@Nome": "Hermínio Calvinho",
                            "@ideCadastro": "73740",
                            "@Partido": "PMDB      ",
                            "@UF": "PA",
                            "@Voto": "Não            "
                        },
                        {
                            "@Nome": "Hilário Coimbra",
                            "@ideCadastro": "74078",
                            "@Partido": "PTB       ",
                            "@UF": "PA",
                            "@Voto": "Sim            "
                        },
                        {
                            "@Nome": "José Diogo",
                            "@ideCadastro": "133940",
                            "@Partido": "PP        ",
                            "@UF": "PA",
                            "@Voto": "Sim            "
                        },
                        {
                            "@Nome": "Socorro Gomes",
                            "@ideCadastro": "74085",
                            "@Partido": "PCdoB     ",
                            "@UF": "PA",
                            "@Voto": "Não            "
                        },
                        {
                            "@Nome": "Mario Chermont",
                            "@ideCadastro": "133889",
                            "@Partido": "PP        ",
                            "@UF": "PA",
                            "@Voto": "Sim            "
                        },
                        {
                            "@Nome": "Nicias Ribeiro",
                            "@ideCadastro": "74080",
                            "@Partido": "PMDB      ",
                            "@UF": "PA",
                            "@Voto": "Sim            "
                        },
                        {
                            "@Nome": "Paulo Rocha",
                            "@ideCadastro": "74082",
                            "@Partido": "PT        ",
                            "@UF": "PA",
                            "@Voto": "Não            "
                        },
                        {
                            "@Nome": "Valdir Ganzer",
                            "@ideCadastro": "74348",
                            "@Partido": "PT        ",
                            "@UF": "PA",
                            "@Voto": "Não            "
                        },
                        {
                            "@Nome": "Ézio Ferreira",
                            "@ideCadastro": "133865",
                            "@Partido": "PFL       ",
                            "@UF": "AM",
                            "@Voto": "Sim            "
                        },
                        {
                            "@Nome": "José Dutra",
                            "@ideCadastro": "133867",
                            "@Partido": "PMDB      ",
                            "@UF": "AM",
                            "@Voto": "Sim            "
                        },
                        {
                            "@Nome": "Carlos Camurca",
                            "@ideCadastro": "74096",
                            "@Partido": "PP        ",
                            "@UF": "RO",
                            "@Voto": "Sim            "
                        },
                        {
                            "@Nome": "Maurício Calixto",
                            "@ideCadastro": "73839",
                            "@Partido": "PFL       ",
                            "@UF": "RO",
                            "@Voto": "Sim            "
                        },
                        {
                            "@Nome": "Reditário Cassol",
                            "@ideCadastro": "73851",
                            "@Partido": "PP        ",
                            "@UF": "RO",
                            "@Voto": "Sim            "
                        },
                        {
                            "@Nome": "Célia Mendes",
                            "@ideCadastro": "74180",
                            "@Partido": "PPR       ",
                            "@UF": "AC",
                            "@Voto": "Sim            "
                        },
                        {
                            "@Nome": "Zilá Bezerra",
                            "@ideCadastro": "74185",
                            "@Partido": "PMDB      ",
                            "@UF": "AC",
                            "@Voto": "Sim            "
                        },
                        {
                            "@Nome": "Mauri Sergio",
                            "@ideCadastro": "74183",
                            "@Partido": "PMDB      ",
                            "@UF": "AC",
                            "@Voto": "Sim            "
                        },
                        {
                            "@Nome": "Edmundo Galdino",
                            "@ideCadastro": "73827",
                            "@Partido": "PSDB      ",
                            "@UF": "TO",
                            "@Voto": "Sim            "
                        },
                        {
                            "@Nome": "Merval Pimenta",
                            "@ideCadastro": "73840",
                            "@Partido": "PMDB      ",
                            "@UF": "TO",
                            "@Voto": "Sim            "
                        },
                        {
                            "@Nome": "Costa Ferreira",
                            "@ideCadastro": "74016",
                            "@Partido": "PP        ",
                            "@UF": "MA",
                            "@Voto": "Sim            "
                        },
                        {
                            "@Nome": "Cesar Bandeira",
                            "@ideCadastro": "74195",
                            "@Partido": "PFL       ",
                            "@UF": "MA",
                            "@Voto": "Sim            "
                        },
                        {
                            "@Nome": "Daniel Silva",
                            "@ideCadastro": "73703",
                            "@Partido": "PFL       ",
                            "@UF": "MA",
                            "@Voto": "Sim            "
                        },
                        {
                            "@Nome": "Eduardo Matias",
                            "@ideCadastro": "73727",
                            "@Partido": "PP        ",
                            "@UF": "MA",
                            "@Voto": "Sim            "
                        },
                        {
                            "@Nome": "Francisco Coelho",
                            "@ideCadastro": "74199",
                            "@Partido": "PFL       ",
                            "@UF": "MA",
                            "@Voto": "Sim            "
                        },
                        {
                            "@Nome": "Jayme Santana",
                            "@ideCadastro": "74201",
                            "@Partido": "PSDB      ",
                            "@UF": "MA",
                            "@Voto": "Sim            "
                        },
                        {
                            "@Nome": "João Rodolfo",
                            "@ideCadastro": "133935",
                            "@Partido": "PPR       ",
                            "@UF": "MA",
                            "@Voto": "Sim            "
                        },
                        {
                            "@Nome": "José Burnett",
                            "@ideCadastro": "133936",
                            "@Partido": "PPR       ",
                            "@UF": "MA",
                            "@Voto": "Sim            "
                        },
                        {
                            "@Nome": "Sarney Filho",
                            "@ideCadastro": "74210",
                            "@Partido": "PFL       ",
                            "@UF": "MA",
                            "@Voto": "Sim            "
                        },
                        {
                            "@Nome": "Pedro Novais",
                            "@ideCadastro": "74207",
                            "@Partido": "PMDB      ",
                            "@UF": "MA",
                            "@Voto": "Sim            "
                        },
                        {
                            "@Nome": "Aécio de Borba",
                            "@ideCadastro": "74244",
                            "@Partido": "PPR       ",
                            "@UF": "CE",
                            "@Voto": "Sim            "
                        },
                        {
                            "@Nome": "Carlos Benevides",
                            "@ideCadastro": "73702",
                            "@Partido": "PMDB      ",
                            "@UF": "CE",
                            "@Voto": "Sim            "
                        },
                        {
                            "@Nome": "Edson Silva",
                            "@ideCadastro": "74106",
                            "@Partido": "PDT       ",
                            "@UF": "CE",
                            "@Voto": "Sim            "
                        },
                        {
                            "@Nome": "Ernani Viana",
                            "@ideCadastro": "133927",
                            "@Partido": "PP        ",
                            "@UF": "CE",
                            "@Voto": "Sim            "
                        },
                        {
                            "@Nome": "Ariosto Holanda",
                            "@ideCadastro": "74103",
                            "@Partido": "PSDB      ",
                            "@UF": "CE",
                            "@Voto": "Sim            "
                        },
                        {
                            "@Nome": "Pinheiro Landim",
                            "@ideCadastro": "74304",
                            "@Partido": "PMDB      ",
                            "@UF": "CE",
                            "@Voto": "Sim            "
                        },
                        {
                            "@Nome": "Jackson Pereira",
                            "@ideCadastro": "74296",
                            "@Partido": "PSDB      ",
                            "@UF": "CE",
                            "@Voto": "Sim            "
                        },
                        {
                            "@Nome": "Luiz Pontes",
                            "@ideCadastro": "73717",
                            "@Partido": "PSDB      ",
                            "@UF": "CE",
                            "@Voto": "Sim            "
                        },
                        {
                            "@Nome": "Luiz Girão",
                            "@ideCadastro": "133937",
                            "@Partido": "PDT       ",
                            "@UF": "CE",
                            "@Voto": "Sim            "
                        },
                        {
                            "@Nome": "Marco Penaforte",
                            "@ideCadastro": "73719",
                            "@Partido": "PSDB      ",
                            "@UF": "CE",
                            "@Voto": "Sim            "
                        },
                        {
                            "@Nome": "Maria Luiza Fontenele",
                            "@ideCadastro": "73796",
                            "@Partido": "PSTU      ",
                            "@UF": "CE",
                            "@Voto": "Não            "
                        },
                        {
                            "@Nome": "Ubiratan Aguiar",
                            "@ideCadastro": "74307",
                            "@Partido": "PSDB      ",
                            "@UF": "CE",
                            "@Voto": "Sim            "
                        },
                        {
                            "@Nome": "B. Sá",
                            "@ideCadastro": "74312",
                            "@Partido": "PP        ",
                            "@UF": "PI",
                            "@Voto": "Sim            "
                        },
                        {
                            "@Nome": "João Henrique",
                            "@ideCadastro": "74316",
                            "@Partido": "PMDB      ",
                            "@UF": "PI",
                            "@Voto": "Sim            "
                        },
                        {
                            "@Nome": "José Luiz Maia",
                            "@ideCadastro": "133914",
                            "@Partido": "PPR       ",
                            "@UF": "PI",
                            "@Voto": "Sim            "
                        },
                        {
                            "@Nome": "Murilo Rezende",
                            "@ideCadastro": "133883",
                            "@Partido": "PMDB      ",
                            "@UF": "PI",
                            "@Voto": "Sim            "
                        },
                        {
                            "@Nome": "Paulo Silva",
                            "@ideCadastro": "73816",
                            "@Partido": "PSDB      ",
                            "@UF": "PI",
                            "@Voto": "Não            "
                        },
                        {
                            "@Nome": "Fernando Freire",
                            "@ideCadastro": "73732",
                            "@Partido": "PPR       ",
                            "@UF": "RN",
                            "@Voto": "Sim            "
                        },
                        {
                            "@Nome": "Ibere Ferreira",
                            "@ideCadastro": "74325",
                            "@Partido": "PFL       ",
                            "@UF": "RN",
                            "@Voto": "Sim            "
                        },
                        {
                            "@Nome": "João Faustino",
                            "@ideCadastro": "74128",
                            "@Partido": "PSDB      ",
                            "@UF": "RN",
                            "@Voto": "Sim            "
                        },
                        {
                            "@Nome": "Laire Rosado",
                            "@ideCadastro": "74326",
                            "@Partido": "PMDB      ",
                            "@UF": "RN",
                            "@Voto": "Sim            "
                        },
                        {
                            "@Nome": "Ney Lopes",
                            "@ideCadastro": "74327",
                            "@Partido": "PFL       ",
                            "@UF": "RN",
                            "@Voto": "Sim            "
                        },
                        {
                            "@Nome": "Ivandro Cunha Lima",
                            "@ideCadastro": "74410",
                            "@Partido": "PMDB      ",
                            "@UF": "PB",
                            "@Voto": "Sim            "
                        },
                        {
                            "@Nome": "José Luiz Clerot",
                            "@ideCadastro": "74412",
                            "@Partido": "PMDB      ",
                            "@UF": "PB",
                            "@Voto": "Sim            "
                        },
                        {
                            "@Nome": "Zuca Moreira",
                            "@ideCadastro": "73713",
                            "@Partido": "PMDB      ",
                            "@UF": "PB",
                            "@Voto": "Sim            "
                        },
                        {
                            "@Nome": "José Maranhão",
                            "@ideCadastro": "133975",
                            "@Partido": "PMDB      ",
                            "@UF": "PB",
                            "@Voto": "Sim            "
                        },
                        {
                            "@Nome": "Rivaldo Medeiros",
                            "@ideCadastro": "133926",
                            "@Partido": "PFL       ",
                            "@UF": "PB",
                            "@Voto": "Sim            "
                        },
                        {
                            "@Nome": "Alvaro Ribeiro",
                            "@ideCadastro": "74247",
                            "@Partido": "PSB       ",
                            "@UF": "PE",
                            "@Voto": "Não            "
                        },
                        {
                            "@Nome": "Antônio Geraldo",
                            "@ideCadastro": "74415",
                            "@Partido": "PFL       ",
                            "@UF": "PE",
                            "@Voto": "Sim            "
                        },
                        {
                            "@Nome": "Gilson Machado",
                            "@ideCadastro": "133842",
                            "@Partido": "PFL       ",
                            "@UF": "PE",
                            "@Voto": "Sim            "
                        },
                        {
                            "@Nome": "Inocêncio Oliveira",
                            "@ideCadastro": "74421",
                            "@Partido": "PFL       ",
                            "@UF": "PE",
                            "@Voto": "Abstenção      "
                        },
                        {
                            "@Nome": "José Carlos Vasconcellos",
                            "@ideCadastro": "133976",
                            "@Partido": "PRN       ",
                            "@UF": "PE",
                            "@Voto": "Sim            "
                        },
                        {
                            "@Nome": "José Mendonça Bezerra",
                            "@ideCadastro": "74425",
                            "@Partido": "PFL       ",
                            "@UF": "PE",
                            "@Voto": "Sim            "
                        },
                        {
                            "@Nome": "José Múcio Monteiro",
                            "@ideCadastro": "74426",
                            "@Partido": "PFL       ",
                            "@UF": "PE",
                            "@Voto": "Sim            "
                        },
                        {
                            "@Nome": "Luiz Piauhylino",
                            "@ideCadastro": "74427",
                            "@Partido": "PSB       ",
                            "@UF": "PE",
                            "@Voto": "Não            "
                        },
                        {
                            "@Nome": "Nilson Gibson",
                            "@ideCadastro": "74429",
                            "@Partido": "PMN       ",
                            "@UF": "PE",
                            "@Voto": "Abstenção      "
                        },
                        {
                            "@Nome": "Renildo Calheiros",
                            "@ideCadastro": "73801",
                            "@Partido": "PCdoB     ",
                            "@UF": "PE",
                            "@Voto": "Não            "
                        },
                        {
                            "@Nome": "Roberto França",
                            "@ideCadastro": "73804",
                            "@Partido": "PSB       ",
                            "@UF": "PE",
                            "@Voto": "Sim            "
                        },
                        {
                            "@Nome": "Roberto Magalhães",
                            "@ideCadastro": "74433",
                            "@Partido": "PFL       ",
                            "@UF": "PE",
                            "@Voto": "Sim            "
                        },
                        {
                            "@Nome": "Wilson Campos",
                            "@ideCadastro": "74438",
                            "@Partido": "PSDB      ",
                            "@UF": "PE",
                            "@Voto": "Sim            "
                        },
                        {
                            "@Nome": "José Thomaz Nonô",
                            "@ideCadastro": "74520",
                            "@Partido": "PMDB      ",
                            "@UF": "AL",
                            "@Voto": "Sim            "
                        },
                        {
                            "@Nome": "Roberto Torres",
                            "@ideCadastro": "133913",
                            "@Partido": "PTB       ",
                            "@UF": "AL",
                            "@Voto": "Sim            "
                        },
                        {
                            "@Nome": "Vitório Malta",
                            "@ideCadastro": "73810",
                            "@Partido": "PPR       ",
                            "@UF": "AL",
                            "@Voto": "Sim            "
                        },
                        {
                            "@Nome": "Benedito de Figueiredo",
                            "@ideCadastro": "133942",
                            "@Partido": "PDT       ",
                            "@UF": "SE",
                            "@Voto": "Sim            "
                        },
                        {
                            "@Nome": "Djenal Gonçalves",
                            "@ideCadastro": "133856",
                            "@Partido": "PSDB      ",
                            "@UF": "SE",
                            "@Voto": "Sim            "
                        },
                        {
                            "@Nome": "Evaraldo de Oliveira",
                            "@ideCadastro": "73712",
                            "@Partido": "PFL       ",
                            "@UF": "SE",
                            "@Voto": "Sim            "
                        },
                        {
                            "@Nome": "José Teles",
                            "@ideCadastro": "74529",
                            "@Partido": "PPR       ",
                            "@UF": "SE",
                            "@Voto": "Sim            "
                        },
                        {
                            "@Nome": "Messias Gois",
                            "@ideCadastro": "74249",
                            "@Partido": "PFL       ",
                            "@UF": "SE",
                            "@Voto": "Sim            "
                        },
                        {
                            "@Nome": "Pedro Valadares",
                            "@ideCadastro": "74102",
                            "@Partido": "PP        ",
                            "@UF": "SE",
                            "@Voto": "Sim            "
                        },
                        {
                            "@Nome": "Ângelo Magalhães",
                            "@ideCadastro": "133978",
                            "@Partido": "PFL       ",
                            "@UF": "BA",
                            "@Voto": "Sim            "
                        },
                        {
                            "@Nome": "Aroldo Cedraz",
                            "@ideCadastro": "74534",
                            "@Partido": "PFL       ",
                            "@UF": "BA",
                            "@Voto": "Sim            "
                        },
                        {
                            "@Nome": "Beraldo Boaventura",
                            "@ideCadastro": "73814",
                            "@Partido": "PSDB      ",
                            "@UF": "BA",
                            "@Voto": "Sim            "
                        },
                        {
                            "@Nome": "Clóvis Assis",
                            "@ideCadastro": "73721",
                            "@Partido": "PSDB      ",
                            "@UF": "BA",
                            "@Voto": "Sim            "
                        },
                        {
                            "@Nome": "Eraldo Tinoco",
                            "@ideCadastro": "74540",
                            "@Partido": "PFL       ",
                            "@UF": "BA",
                            "@Voto": "Sim            "
                        },
                        {
                            "@Nome": "Félix Mendonça",
                            "@ideCadastro": "74542",
                            "@Partido": "PTB       ",
                            "@UF": "BA",
                            "@Voto": "Sim            "
                        },
                        {
                            "@Nome": "Waldir Pires",
                            "@ideCadastro": "74576",
                            "@Partido": "PSDB      ",
                            "@UF": "BA",
                            "@Voto": "Sim            "
                        },
                        {
                            "@Nome": "Genebaldo Correia",
                            "@ideCadastro": "133979",
                            "@Partido": "PMDB      ",
                            "@UF": "BA",
                            "@Voto": "Sim            "
                        },
                        {
                            "@Nome": "Jabes Ribeiro",
                            "@ideCadastro": "73742",
                            "@Partido": "PSDB      ",
                            "@UF": "BA",
                            "@Voto": "Não            "
                        },
                        {
                            "@Nome": "Jairo Azi",
                            "@ideCadastro": "74546",
                            "@Partido": "PFL       ",
                            "@UF": "BA",
                            "@Voto": "Sim            "
                        },
                        {
                            "@Nome": "Jonival Lucas",
                            "@ideCadastro": "74551",
                            "@Partido": "PFL       ",
                            "@UF": "BA",
                            "@Voto": "Sim            "
                        },
                        {
                            "@Nome": "Jorge Khoury",
                            "@ideCadastro": "74552",
                            "@Partido": "PFL       ",
                            "@UF": "BA",
                            "@Voto": "Sim            "
                        },
                        {
                            "@Nome": "José Carlos Aleluia",
                            "@ideCadastro": "74553",
                            "@Partido": "PFL       ",
                            "@UF": "BA",
                            "@Voto": "Sim            "
                        },
                        {
                            "@Nome": "José Lourenço",
                            "@ideCadastro": "74125",
                            "@Partido": "PPR       ",
                            "@UF": "BA",
                            "@Voto": "Sim            "
                        },
                        {
                            "@Nome": "Jutahy Júnior",
                            "@ideCadastro": "74570",
                            "@Partido": "PSDB      ",
                            "@UF": "BA",
                            "@Voto": "Sim            "
                        },
                        {
                            "@Nome": "Luís Eduardo",
                            "@ideCadastro": "74630",
                            "@Partido": "PFL       ",
                            "@UF": "BA",
                            "@Voto": "Sim            "
                        },
                        {
                            "@Nome": "Prisco Viana",
                            "@ideCadastro": "74638",
                            "@Partido": "PPR       ",
                            "@UF": "BA",
                            "@Voto": "Sim            "
                        },
                        {
                            "@Nome": "Luiz Moreira",
                            "@ideCadastro": "74632",
                            "@Partido": "PFL       ",
                            "@UF": "BA",
                            "@Voto": "Sim            "
                        },
                        {
                            "@Nome": "Luiz Viana Neto",
                            "@ideCadastro": "133967",
                            "@Partido": "PFL       ",
                            "@UF": "BA",
                            "@Voto": "Sim            "
                        },
                        {
                            "@Nome": "Manoel Castro",
                            "@ideCadastro": "74633",
                            "@Partido": "PFL       ",
                            "@UF": "BA",
                            "@Voto": "Sim            "
                        },
                        {
                            "@Nome": "Marcos Medrado",
                            "@ideCadastro": "74634",
                            "@Partido": "PP        ",
                            "@UF": "BA",
                            "@Voto": "Sim            "
                        },
                        {
                            "@Nome": "Nestor Duarte",
                            "@ideCadastro": "74636",
                            "@Partido": "PMDB      ",
                            "@UF": "BA",
                            "@Voto": "Sim            "
                        },
                        {
                            "@Nome": "Pedro Irujo",
                            "@ideCadastro": "74637",
                            "@Partido": "PMDB      ",
                            "@UF": "BA",
                            "@Voto": "Sim            "
                        },
                        {
                            "@Nome": "Sérgio Brito",
                            "@ideCadastro": "73808",
                            "@Partido": "PSD       ",
                            "@UF": "BA",
                            "@Voto": "Sim            "
                        },
                        {
                            "@Nome": "Sérgio Gaudenzi",
                            "@ideCadastro": "133949",
                            "@Partido": "PSDB      ",
                            "@UF": "BA",
                            "@Voto": "Não            "
                        },
                        {
                            "@Nome": "Uldurico Pinto",
                            "@ideCadastro": "73809",
                            "@Partido": "PSB       ",
                            "@UF": "BA",
                            "@Voto": "Não            "
                        },
                        {
                            "@Nome": "Agostinho Valente",
                            "@ideCadastro": "73694",
                            "@Partido": "PT        ",
                            "@UF": "MG",
                            "@Voto": "Não            "
                        },
                        {
                            "@Nome": "Aloisio Vasconcelos",
                            "@ideCadastro": "133988",
                            "@Partido": "PMDB      ",
                            "@UF": "MG",
                            "@Voto": "Sim            "
                        },
                        {
                            "@Nome": "Aracely de Paula",
                            "@ideCadastro": "74648",
                            "@Partido": "PFL       ",
                            "@UF": "MG",
                            "@Voto": "Sim            "
                        },
                        {
                            "@Nome": "Armando Costa",
                            "@ideCadastro": "74649",
                            "@Partido": "PMDB      ",
                            "@UF": "MG",
                            "@Voto": "Sim            "
                        },
                        {
                            "@Nome": "Edmar Moreira",
                            "@ideCadastro": "74580",
                            "@Partido": "PP        ",
                            "@UF": "MG",
                            "@Voto": "Sim            "
                        },
                        {
                            "@Nome": "Fernando Diniz",
                            "@ideCadastro": "74658",
                            "@Partido": "PMDB      ",
                            "@UF": "MG",
                            "@Voto": "Sim            "
                        },
                        {
                            "@Nome": "Ibrahim Abi-Ackel",
                            "@ideCadastro": "74663",
                            "@Partido": "PPR       ",
                            "@UF": "MG",
                            "@Voto": "Sim            "
                        },
                        {
                            "@Nome": "José Belato",
                            "@ideCadastro": "73749",
                            "@Partido": "PMDB      ",
                            "@UF": "MG",
                            "@Voto": "Sim            "
                        },
                        {
                            "@Nome": "Elias Murad",
                            "@ideCadastro": "74656",
                            "@Partido": "PSDB      ",
                            "@UF": "MG",
                            "@Voto": "Sim            "
                        },
                        {
                            "@Nome": "José Geraldo",
                            "@ideCadastro": "133981",
                            "@Partido": "PMDB      ",
                            "@UF": "MG",
                            "@Voto": "Sim            "
                        },
                        {
                            "@Nome": "José Santana de Vasconcellos",
                            "@ideCadastro": "74741",
                            "@Partido": "PFL       ",
                            "@UF": "MG",
                            "@Voto": "Sim            "
                        },
                        {
                            "@Nome": "Leopoldo Bessone",
                            "@ideCadastro": "74743",
                            "@Partido": "PTB       ",
                            "@UF": "MG",
                            "@Voto": "Sim            "
                        },
                        {
                            "@Nome": "Marcos Lima",
                            "@ideCadastro": "74745",
                            "@Partido": "PMDB      ",
                            "@UF": "MG",
                            "@Voto": "Sim            "
                        },
                        {
                            "@Nome": "Mario de Oliveira",
                            "@ideCadastro": "74747",
                            "@Partido": "PP        ",
                            "@UF": "MG",
                            "@Voto": "Sim            "
                        },
                        {
                            "@Nome": "Maurício Campos",
                            "@ideCadastro": "74748",
                            "@Partido": "PL        ",
                            "@UF": "MG",
                            "@Voto": "Sim            "
                        },
                        {
                            "@Nome": "Odelmo Leão",
                            "@ideCadastro": "74752",
                            "@Partido": "PP        ",
                            "@UF": "MG",
                            "@Voto": "Sim            "
                        },
                        {
                            "@Nome": "Osmânio Pereira",
                            "@ideCadastro": "74753",
                            "@Partido": "PSDB      ",
                            "@UF": "MG",
                            "@Voto": "Sim            "
                        },
                        {
                            "@Nome": "Paulino Cícero de Vasconcelos",
                            "@ideCadastro": "133923",
                            "@Partido": "PSDB      ",
                            "@UF": "MG",
                            "@Voto": "Sim            "
                        },
                        {
                            "@Nome": "Paulo Delgado",
                            "@ideCadastro": "74754",
                            "@Partido": "PT        ",
                            "@UF": "MG",
                            "@Voto": "Não            "
                        },
                        {
                            "@Nome": "Paulo Heslander",
                            "@ideCadastro": "74755",
                            "@Partido": "PTB       ",
                            "@UF": "MG",
                            "@Voto": "Sim            "
                        },
                        {
                            "@Nome": "Romel Anísio",
                            "@ideCadastro": "74759",
                            "@Partido": "PP        ",
                            "@UF": "MG",
                            "@Voto": "Sim            "
                        },
                        {
                            "@Nome": "Samir Tannus",
                            "@ideCadastro": "133924",
                            "@Partido": "PPR       ",
                            "@UF": "MG",
                            "@Voto": "Sim            "
                        },
                        {
                            "@Nome": "Sandra Starling",
                            "@ideCadastro": "74761",
                            "@Partido": "PT        ",
                            "@UF": "MG",
                            "@Voto": "Não            "
                        },
                        {
                            "@Nome": "Saulo Coelho",
                            "@ideCadastro": "73596",
                            "@Partido": "PSDB      ",
                            "@UF": "MG",
                            "@Voto": "Sim            "
                        },
                        {
                            "@Nome": "Tilden Santiago",
                            "@ideCadastro": "74767",
                            "@Partido": "PT        ",
                            "@UF": "MG",
                            "@Voto": "Não            "
                        },
                        {
                            "@Nome": "Vittorio Medioli",
                            "@ideCadastro": "74768",
                            "@Partido": "PSDB      ",
                            "@UF": "MG",
                            "@Voto": "Sim            "
                        },
                        {
                            "@Nome": "Zaire Rezende",
                            "@ideCadastro": "74769",
                            "@Partido": "PMDB      ",
                            "@UF": "MG",
                            "@Voto": "Sim            "
                        },
                        {
                            "@Nome": "Etevalda Grassi de Menezes",
                            "@ideCadastro": "74138",
                            "@Partido": "PTB       ",
                            "@UF": "ES",
                            "@Voto": "Sim            "
                        },
                        {
                            "@Nome": "Jones Santos Neves",
                            "@ideCadastro": "133974",
                            "@Partido": "PL        ",
                            "@UF": "ES",
                            "@Voto": "Sim            "
                        },
                        {
                            "@Nome": "Jorio de Barros",
                            "@ideCadastro": "133933",
                            "@Partido": "PMDB      ",
                            "@UF": "ES",
                            "@Voto": "Sim            "
                        },
                        {
                            "@Nome": "Nilton Baiano",
                            "@ideCadastro": "74776",
                            "@Partido": "PMDB      ",
                            "@UF": "ES",
                            "@Voto": "Sim            "
                        },
                        {
                            "@Nome": "Rita Camata",
                            "@ideCadastro": "74777",
                            "@Partido": "PMDB      ",
                            "@UF": "ES",
                            "@Voto": "Sim            "
                        },
                        {
                            "@Nome": "Roberto Valadão",
                            "@ideCadastro": "74826",
                            "@Partido": "PMDB      ",
                            "@UF": "ES",
                            "@Voto": "Sim            "
                        },
                        {
                            "@Nome": "Sérgio Arouca",
                            "@ideCadastro": "73423",
                            "@Partido": "PPS       ",
                            "@UF": "RJ",
                            "@Voto": "Sim            "
                        },
                        {
                            "@Nome": "Arolde de Oliveira",
                            "@ideCadastro": "74833",
                            "@Partido": "PFL       ",
                            "@UF": "RJ",
                            "@Voto": "Abstenção      "
                        },
                        {
                            "@Nome": "Benedita da Silva",
                            "@ideCadastro": "73701",
                            "@Partido": "PT        ",
                            "@UF": "RJ",
                            "@Voto": "Não            "
                        },
                        {
                            "@Nome": "Carlos Lupi",
                            "@ideCadastro": "73638",
                            "@Partido": "PDT       ",
                            "@UF": "RJ",
                            "@Voto": "Sim            "
                        },
                        {
                            "@Nome": "Flávio Palmier da Veiga",
                            "@ideCadastro": "74223",
                            "@Partido": "PSDB      ",
                            "@UF": "RJ",
                            "@Voto": "Sim            "
                        },
                        {
                            "@Nome": "Francisco Dornelles",
                            "@ideCadastro": "74844",
                            "@Partido": "PPR       ",
                            "@UF": "RJ",
                            "@Voto": "Sim            "
                        },
                        {
                            "@Nome": "Jair Bolsonaro",
                            "@ideCadastro": "74847",
                            "@Partido": "PPR       ",
                            "@UF": "RJ",
                            "@Voto": "Abstenção      "
                        },
                        {
                            "@Nome": "Jandira Feghali",
                            "@ideCadastro": "74848",
                            "@Partido": "PCdoB     ",
                            "@UF": "RJ",
                            "@Voto": "Não            "
                        },
                        {
                            "@Nome": "José Vicente Brizola",
                            "@ideCadastro": "73756",
                            "@Partido": "PDT       ",
                            "@UF": "RJ",
                            "@Voto": "Sim            "
                        },
                        {
                            "@Nome": "Junot Abi-ramia",
                            "@ideCadastro": "73757",
                            "@Partido": "PDT       ",
                            "@UF": "RJ",
                            "@Voto": "Sim            "
                        },
                        {
                            "@Nome": "Luiz Salomão",
                            "@ideCadastro": "74339",
                            "@Partido": "PDT       ",
                            "@UF": "RJ",
                            "@Voto": "Sim            "
                        },
                        {
                            "@Nome": "Marcia Cibilis Vianna",
                            "@ideCadastro": "74859",
                            "@Partido": "PDT       ",
                            "@UF": "RJ",
                            "@Voto": "Sim            "
                        },
                        {
                            "@Nome": "Nelson Bornier",
                            "@ideCadastro": "73416",
                            "@Partido": "PL        ",
                            "@UF": "RJ",
                            "@Voto": "Sim            "
                        },
                        {
                            "@Nome": "Francisco Silva",
                            "@ideCadastro": "74845",
                            "@Partido": "PP        ",
                            "@UF": "RJ",
                            "@Voto": "Sim            "
                        },
                        {
                            "@Nome": "Artur da Tavola",
                            "@ideCadastro": "73503",
                            "@Partido": "PSDB      ",
                            "@UF": "RJ",
                            "@Voto": "Sim            "
                        },
                        {
                            "@Nome": "Roberto Jefferson",
                            "@ideCadastro": "73420",
                            "@Partido": "PTB       ",
                            "@UF": "RJ",
                            "@Voto": "Sim            "
                        },
                        {
                            "@Nome": "Roberto Campos",
                            "@ideCadastro": "73419",
                            "@Partido": "PPR       ",
                            "@UF": "RJ",
                            "@Voto": "Sim            "
                        },
                        {
                            "@Nome": "Sandra Cavalcanti",
                            "@ideCadastro": "133986",
                            "@Partido": "PPR       ",
                            "@UF": "RJ",
                            "@Voto": "Sim            "
                        },
                        {
                            "@Nome": "Sidney de Miguel",
                            "@ideCadastro": "73856",
                            "@Partido": "PV        ",
                            "@UF": "RJ",
                            "@Voto": "Sim            "
                        },
                        {
                            "@Nome": "Vladimir Palmeira",
                            "@ideCadastro": "133985",
                            "@Partido": "PT        ",
                            "@UF": "RJ",
                            "@Voto": "Não            "
                        },
                        {
                            "@Nome": "Wanda Reis",
                            "@ideCadastro": "73862",
                            "@Partido": "PMDB      ",
                            "@UF": "RJ",
                            "@Voto": "Sim            "
                        },
                        {
                            "@Nome": "Alberto Haddad",
                            "@ideCadastro": "73695",
                            "@Partido": "PP        ",
                            "@UF": "SP",
                            "@Voto": "Sim            "
                        },
                        {
                            "@Nome": "Aloizio Mercadante",
                            "@ideCadastro": "74697",
                            "@Partido": "PT        ",
                            "@UF": "SP",
                            "@Voto": "Não            "
                        },
                        {
                            "@Nome": "Cunha Bueno",
                            "@ideCadastro": "73443",
                            "@Partido": "PPR       ",
                            "@UF": "SP",
                            "@Voto": "Sim            "
                        },
                        {
                            "@Nome": "Ary Kara",
                            "@ideCadastro": "73435",
                            "@Partido": "PMDB      ",
                            "@UF": "SP",
                            "@Voto": "Sim            "
                        },
                        {
                            "@Nome": "Diogo Nomura",
                            "@ideCadastro": "133885",
                            "@Partido": "PL        ",
                            "@UF": "SP",
                            "@Voto": "Sim            "
                        },
                        {
                            "@Nome": "Ernesto Gradella",
                            "@ideCadastro": "73729",
                            "@Partido": "PSTU      ",
                            "@UF": "SP",
                            "@Voto": "Não            "
                        },
                        {
                            "@Nome": "Euclydes Mello",
                            "@ideCadastro": "73824",
                            "@Partido": "PRN       ",
                            "@UF": "SP",
                            "@Voto": "Não            "
                        },
                        {
                            "@Nome": "Fábio Meirelles",
                            "@ideCadastro": "73730",
                            "@Partido": "PPR       ",
                            "@UF": "SP",
                            "@Voto": "Sim            "
                        },
                        {
                            "@Nome": "Florestan Fernandes",
                            "@ideCadastro": "133873",
                            "@Partido": "PT        ",
                            "@UF": "SP",
                            "@Voto": "Não            "
                        },
                        {
                            "@Nome": "Heitor Franco",
                            "@ideCadastro": "73739",
                            "@Partido": "PPR       ",
                            "@UF": "SP",
                            "@Voto": "Sim            "
                        },
                        {
                            "@Nome": "Hélio Bicudo",
                            "@ideCadastro": "73453",
                            "@Partido": "PT        ",
                            "@UF": "SP",
                            "@Voto": "Não            "
                        },
                        {
                            "@Nome": "Irma Passoni",
                            "@ideCadastro": "133915",
                            "@Partido": "PT        ",
                            "@UF": "SP",
                            "@Voto": "Não            "
                        },
                        {
                            "@Nome": "Maluly Netto",
                            "@ideCadastro": "73547",
                            "@Partido": "PFL       ",
                            "@UF": "SP",
                            "@Voto": "Sim            "
                        },
                        {
                            "@Nome": "Aldo Rebelo",
                            "@ideCadastro": "73428",
                            "@Partido": "PCdoB     ",
                            "@UF": "SP",
                            "@Voto": "Não            "
                        },
                        {
                            "@Nome": "José Cicote",
                            "@ideCadastro": "73751",
                            "@Partido": "PT        ",
                            "@UF": "SP",
                            "@Voto": "Não            "
                        },
                        {
                            "@Nome": "José Dirceu",
                            "@ideCadastro": "74782",
                            "@Partido": "PT        ",
                            "@UF": "SP",
                            "@Voto": "Não            "
                        },
                        {
                            "@Nome": "José Genoíno",
                            "@ideCadastro": "73540",
                            "@Partido": "PT        ",
                            "@UF": "SP",
                            "@Voto": "Não            "
                        },
                        {
                            "@Nome": "Tuga Angerami",
                            "@ideCadastro": "73562",
                            "@Partido": "PSDB      ",
                            "@UF": "SP",
                            "@Voto": "Sim            "
                        },
                        {
                            "@Nome": "Mendes Botelho",
                            "@ideCadastro": "133965",
                            "@Partido": "PP        ",
                            "@UF": "SP",
                            "@Voto": "Sim            "
                        },
                        {
                            "@Nome": "José Serra",
                            "@ideCadastro": "65495",
                            "@Partido": "PSDB      ",
                            "@UF": "SP",
                            "@Voto": "Sim            "
                        },
                        {
                            "@Nome": "Koyu Iha",
                            "@ideCadastro": "73544",
                            "@Partido": "PSDB      ",
                            "@UF": "SP",
                            "@Voto": "Sim            "
                        },
                        {
                            "@Nome": "Pedro Pavão",
                            "@ideCadastro": "73850",
                            "@Partido": "PPR       ",
                            "@UF": "SP",
                            "@Voto": "Sim            "
                        },
                        {
                            "@Nome": "Valdemar Costa Neto",
                            "@ideCadastro": "73565",
                            "@Partido": "PL        ",
                            "@UF": "SP",
                            "@Voto": "Sim            "
                        },
                        {
                            "@Nome": "Jonas Pinheiro",
                            "@ideCadastro": "73710",
                            "@Partido": "PFL       ",
                            "@UF": "MT",
                            "@Voto": "Sim            "
                        },
                        {
                            "@Nome": "Rodrigues Palma",
                            "@ideCadastro": "73650",
                            "@Partido": "PTB       ",
                            "@UF": "MT",
                            "@Voto": "Sim            "
                        },
                        {
                            "@Nome": "Oscar Travassos",
                            "@ideCadastro": "73821",
                            "@Partido": "PL        ",
                            "@UF": "MT",
                            "@Voto": "Sim            "
                        },
                        {
                            "@Nome": "Welinton Fagundes",
                            "@ideCadastro": "73653",
                            "@Partido": "PL        ",
                            "@UF": "MT",
                            "@Voto": "Sim            "
                        },
                        {
                            "@Nome": "Augusto Carvalho",
                            "@ideCadastro": "73655",
                            "@Partido": "PPS       ",
                            "@UF": "DF",
                            "@Voto": "Não            "
                        },
                        {
                            "@Nome": "Chico Vigilante",
                            "@ideCadastro": "73657",
                            "@Partido": "PT        ",
                            "@UF": "DF",
                            "@Voto": "Não            "
                        },
                        {
                            "@Nome": "Sigmaringa Seixas",
                            "@ideCadastro": "73718",
                            "@Partido": "PSDB      ",
                            "@UF": "DF",
                            "@Voto": "Sim            "
                        },
                        {
                            "@Nome": "Maria Laura",
                            "@ideCadastro": "73659",
                            "@Partido": "PT        ",
                            "@UF": "DF",
                            "@Voto": "Não            "
                        },
                        {
                            "@Nome": "Délio Braz",
                            "@ideCadastro": "133989",
                            "@Partido": "PFL       ",
                            "@UF": "GO",
                            "@Voto": "Não            "
                        },
                        {
                            "@Nome": "Haley Margon",
                            "@ideCadastro": "73738",
                            "@Partido": "PMDB      ",
                            "@UF": "GO",
                            "@Voto": "Sim            "
                        },
                        {
                            "@Nome": "João Natal",
                            "@ideCadastro": "73664",
                            "@Partido": "PMDB      ",
                            "@UF": "GO",
                            "@Voto": "Sim            "
                        },
                        {
                            "@Nome": "Maria Valadão",
                            "@ideCadastro": "73669",
                            "@Partido": "PPR       ",
                            "@UF": "GO",
                            "@Voto": "Sim            "
                        },
                        {
                            "@Nome": "Mauro Borges",
                            "@ideCadastro": "1535",
                            "@Partido": "PP        ",
                            "@UF": "GO",
                            "@Voto": "Sim            "
                        },
                        {
                            "@Nome": "Paulo Mandarino",
                            "@ideCadastro": "73849",
                            "@Partido": "PPR       ",
                            "@UF": "GO",
                            "@Voto": "Sim            "
                        },
                        {
                            "@Nome": "Virmondes Cruvinel",
                            "@ideCadastro": "74019",
                            "@Partido": "PMDB      ",
                            "@UF": "GO",
                            "@Voto": "Sim            "
                        },
                        {
                            "@Nome": "Flávio Derzi",
                            "@ideCadastro": "73758",
                            "@Partido": "PP        ",
                            "@UF": "MS",
                            "@Voto": "Sim            "
                        },
                        {
                            "@Nome": "George Takimoto",
                            "@ideCadastro": "133929",
                            "@Partido": "PFL       ",
                            "@UF": "MS",
                            "@Voto": "Sim            "
                        },
                        {
                            "@Nome": "Marilu Guimarães",
                            "@ideCadastro": "73759",
                            "@Partido": "PFL       ",
                            "@UF": "MS",
                            "@Voto": "Sim            "
                        },
                        {
                            "@Nome": "Valter Pereira",
                            "@ideCadastro": "133860",
                            "@Partido": "PMDB      ",
                            "@UF": "MS",
                            "@Voto": "Sim            "
                        },
                        {
                            "@Nome": "Antônio Barbara",
                            "@ideCadastro": "73631",
                            "@Partido": "PMDB      ",
                            "@UF": "PR",
                            "@Voto": "Sim            "
                        },
                        {
                            "@Nome": "Carlos Roberto Massa",
                            "@ideCadastro": "73639",
                            "@Partido": "PTB       ",
                            "@UF": "PR",
                            "@Voto": "Sim            "
                        },
                        {
                            "@Nome": "Carlos Scarpelini",
                            "@ideCadastro": "73640",
                            "@Partido": "PP        ",
                            "@UF": "PR",
                            "@Voto": "Sim            "
                        },
                        {
                            "@Nome": "Delcino Tavares",
                            "@ideCadastro": "73722",
                            "@Partido": "PP        ",
                            "@UF": "PR",
                            "@Voto": "Sim            "
                        },
                        {
                            "@Nome": "Edésio Passos",
                            "@ideCadastro": "73724",
                            "@Partido": "PT        ",
                            "@UF": "PR",
                            "@Voto": "Não            "
                        },
                        {
                            "@Nome": "Flávio Arns",
                            "@ideCadastro": "73771",
                            "@Partido": "PSDB      ",
                            "@UF": "PR",
                            "@Voto": "Sim            "
                        },
                        {
                            "@Nome": "Ivanio Guerra",
                            "@ideCadastro": "73570",
                            "@Partido": "PFL       ",
                            "@UF": "PR",
                            "@Voto": "Sim            "
                        },
                        {
                            "@Nome": "Luiz Carlos Hauly",
                            "@ideCadastro": "73778",
                            "@Partido": "PP        ",
                            "@UF": "PR",
                            "@Voto": "Sim            "
                        },
                        {
                            "@Nome": "Munhoz da Rocha",
                            "@ideCadastro": "73847",
                            "@Partido": "PSDB      ",
                            "@UF": "PR",
                            "@Voto": "Sim            "
                        },
                        {
                            "@Nome": "Pedro Tonelli",
                            "@ideCadastro": "73799",
                            "@Partido": "PT        ",
                            "@UF": "PR",
                            "@Voto": "Não            "
                        },
                        {
                            "@Nome": "Wilson Moreira",
                            "@ideCadastro": "73864",
                            "@Partido": "PSDB      ",
                            "@UF": "PR",
                            "@Voto": "Sim            "
                        },
                        {
                            "@Nome": "Ângela Amin",
                            "@ideCadastro": "73696",
                            "@Partido": "PPR       ",
                            "@UF": "SC",
                            "@Voto": "Sim            "
                        },
                        {
                            "@Nome": "Dejandir Dalpasquale",
                            "@ideCadastro": "74011",
                            "@Partido": "PMDB      ",
                            "@UF": "SC",
                            "@Voto": "Sim            "
                        },
                        {
                            "@Nome": "Dércio Knop",
                            "@ideCadastro": "74215",
                            "@Partido": "PDT       ",
                            "@UF": "SC",
                            "@Voto": "Sim            "
                        },
                        {
                            "@Nome": "Jarvis Gaidzinski",
                            "@ideCadastro": "133954",
                            "@Partido": "PPR       ",
                            "@UF": "SC",
                            "@Voto": "Sim            "
                        },
                        {
                            "@Nome": "Luiz Henrique",
                            "@ideCadastro": "73878",
                            "@Partido": "PMDB      ",
                            "@UF": "SC",
                            "@Voto": "Sim            "
                        },
                        {
                            "@Nome": "Neuto de Conto",
                            "@ideCadastro": "73881",
                            "@Partido": "PMDB      ",
                            "@UF": "SC",
                            "@Voto": "Sim            "
                        },
                        {
                            "@Nome": "Ruberval Pilotto",
                            "@ideCadastro": "133912",
                            "@Partido": "PPR       ",
                            "@UF": "SC",
                            "@Voto": "Sim            "
                        },
                        {
                            "@Nome": "Vasco Furlan",
                            "@ideCadastro": "133960",
                            "@Partido": "PPR       ",
                            "@UF": "SC",
                            "@Voto": "Sim            "
                        },
                        {
                            "@Nome": "Adão Pretto",
                            "@ideCadastro": "73886",
                            "@Partido": "PT        ",
                            "@UF": "RS",
                            "@Voto": "Não            "
                        },
                        {
                            "@Nome": "Fetter Júnior",
                            "@ideCadastro": "73896",
                            "@Partido": "PPR       ",
                            "@UF": "RS",
                            "@Voto": "Sim            "
                        },
                        {
                            "@Nome": "Adroaldo Streck",
                            "@ideCadastro": "73996",
                            "@Partido": "PSDB      ",
                            "@UF": "RS",
                            "@Voto": "Sim            "
                        },
                        {
                            "@Nome": "Adylson Motta",
                            "@ideCadastro": "73887",
                            "@Partido": "PPR       ",
                            "@UF": "RS",
                            "@Voto": "Sim            "
                        },
                        {
                            "@Nome": "Amaury Muller",
                            "@ideCadastro": "133852",
                            "@Partido": "PDT       ",
                            "@UF": "RS",
                            "@Voto": "Sim            "
                        },
                        {
                            "@Nome": "Arno Magarinos",
                            "@ideCadastro": "133996",
                            "@Partido": "PPR       ",
                            "@UF": "RS",
                            "@Voto": "Sim            "
                        },
                        {
                            "@Nome": "Carlos Azambuja",
                            "@ideCadastro": "73641",
                            "@Partido": "PPR       ",
                            "@UF": "RS",
                            "@Voto": "Sim            "
                        },
                        {
                            "@Nome": "Celso Bernardi",
                            "@ideCadastro": "133997",
                            "@Partido": "PPR       ",
                            "@UF": "RS",
                            "@Voto": "Sim            "
                        },
                        {
                            "@Nome": "Eden Pedroso",
                            "@ideCadastro": "133952",
                            "@Partido": "PT        ",
                            "@UF": "RS",
                            "@Voto": "Não            "
                        },
                        {
                            "@Nome": "Germano Rigotto",
                            "@ideCadastro": "73897",
                            "@Partido": "PMDB      ",
                            "@UF": "RS",
                            "@Voto": "Sim            "
                        },
                        {
                            "@Nome": "Ivo Mainardi",
                            "@ideCadastro": "74008",
                            "@Partido": "PMDB      ",
                            "@UF": "RS",
                            "@Voto": "Sim            "
                        },
                        {
                            "@Nome": "João de Deus Antunes",
                            "@ideCadastro": "133863",
                            "@Partido": "PPR       ",
                            "@UF": "RS",
                            "@Voto": "Sim            "
                        },
                        {
                            "@Nome": "Mendes Ribeiro",
                            "@ideCadastro": "133859",
                            "@Partido": "PMDB      ",
                            "@UF": "RS",
                            "@Voto": "Sim            "
                        },
                        {
                            "@Nome": "José Fortunati",
                            "@ideCadastro": "73901",
                            "@Partido": "PT        ",
                            "@UF": "RS",
                            "@Voto": "Não            "
                        },
                        {
                            "@Nome": "Luis Roberto Ponte",
                            "@ideCadastro": "74002",
                            "@Partido": "PMDB      ",
                            "@UF": "RS",
                            "@Voto": "Sim            "
                        },
                        {
                            "@Nome": "Nelson Jobim",
                            "@ideCadastro": "73798",
                            "@Partido": "PMDB      ",
                            "@UF": "RS",
                            "@Voto": "Sim            "
                        },
                        {
                            "@Nome": "Osvaldo Bender",
                            "@ideCadastro": "133845",
                            "@Partido": "PPR       ",
                            "@UF": "RS",
                            "@Voto": "Sim            "
                        },
                        {
                            "@Nome": "Paulo Paim",
                            "@ideCadastro": "73910",
                            "@Partido": "PT        ",
                            "@UF": "RS",
                            "@Voto": "Não            "
                        },
                        {
                            "@Nome": "Valdomiro Lima",
                            "@ideCadastro": "133951",
                            "@Partido": "PDT       ",
                            "@UF": "RS",
                            "@Voto": "Sim            "
                        },
                        {
                            "@Nome": "Victor Faccioni",
                            "@ideCadastro": "133855",
                            "@Partido": "PPR       ",
                            "@UF": "RS",
                            "@Voto": "Sim            "
                        },
                        {
                            "@Nome": "Felipe Mendes",
                            "@ideCadastro": "74314",
                            "@Partido": "PPR       ",
                            "@UF": "PI",
                            "@Voto": "Sim            "
                        },
                        {
                            "@Nome": "Luiz Soyer",
                            "@ideCadastro": "133870",
                            "@Partido": "PMDB      ",
                            "@UF": "GO",
                            "@Voto": "Sim            "
                        },
                        {
                            "@Nome": "Eliel Rodrigues",
                            "@ideCadastro": "133844",
                            "@Partido": "PMDB      ",
                            "@UF": "PA",
                            "@Voto": "Sim            "
                        },
                        {
                            "@Nome": "Roberto Rollemberg",
                            "@ideCadastro": "133992",
                            "@Partido": "PMDB      ",
                            "@UF": "SP",
                            "@Voto": "Sim            "
                        },
                        {
                            "@Nome": "Jairo Carneiro",
                            "@ideCadastro": "74547",
                            "@Partido": "PFL       ",
                            "@UF": "BA",
                            "@Voto": "Sim            "
                        },
                        {
                            "@Nome": "Ronaldo Perim",
                            "@ideCadastro": "74760",
                            "@Partido": "PMDB      ",
                            "@UF": "MG",
                            "@Voto": "Sim            "
                        },
                        {
                            "@Nome": "José Ulisses de Oliveira",
                            "@ideCadastro": "133962",
                            "@Partido": "PTB       ",
                            "@UF": "MG",
                            "@Voto": "Sim            "
                        },
                        {
                            "@Nome": "Annibal Teixeira",
                            "@ideCadastro": "133894",
                            "@Partido": "PP        ",
                            "@UF": "MG",
                            "@Voto": "Sim            "
                        },
                        {
                            "@Nome": "Paulo Ramos",
                            "@ideCadastro": "133968",
                            "@Partido": "PDT       ",
                            "@UF": "RJ",
                            "@Voto": "Sim            "
                        },
                        {
                            "@Nome": "Tourinho Dantas",
                            "@ideCadastro": "73872",
                            "@Partido": "PFL       ",
                            "@UF": "BA",
                            "@Voto": "Sim            "
                        },
                        {
                            "@Nome": "Paulo Lima",
                            "@ideCadastro": "73555",
                            "@Partido": "PSC       ",
                            "@UF": "SP",
                            "@Voto": "Sim            "
                        },
                        {
                            "@Nome": "Carlos Nelson",
                            "@ideCadastro": "73439",
                            "@Partido": "PMDB      ",
                            "@UF": "SP",
                            "@Voto": "Sim            "
                        },
                        {
                            "@Nome": "Paulo Novaes",
                            "@ideCadastro": "133904",
                            "@Partido": "PMDB      ",
                            "@UF": "SP",
                            "@Voto": "Sim            "
                        },
                        {
                            "@Nome": "Vilmar Rocha",
                            "@ideCadastro": "73677",
                            "@Partido": "PFL       ",
                            "@UF": "GO",
                            "@Voto": "Sim            "
                        },
                        {
                            "@Nome": "Deni Schwartz",
                            "@ideCadastro": "73952",
                            "@Partido": "PSDB      ",
                            "@UF": "PR",
                            "@Voto": "Sim            "
                        },
                        {
                            "@Nome": "Luiz Máximo",
                            "@ideCadastro": "74135",
                            "@Partido": "PSDB      ",
                            "@UF": "SP",
                            "@Voto": "Sim            "
                        },
                        {
                            "@Nome": "José Abrão",
                            "@ideCadastro": "73711",
                            "@Partido": "PSDB      ",
                            "@UF": "SP",
                            "@Voto": "Sim            "
                        },
                        {
                            "@Nome": "José Anibal",
                            "@ideCadastro": "73536",
                            "@Partido": "PSDB      ",
                            "@UF": "SP",
                            "@Voto": "Sim            "
                        },
                        {
                            "@Nome": "João Thomé",
                            "@ideCadastro": "74092",
                            "@Partido": "PMDB      ",
                            "@UF": "AM",
                            "@Voto": "Sim            "
                        },
                        {
                            "@Nome": "Helvécio Castello",
                            "@ideCadastro": "73953",
                            "@Partido": "PT        ",
                            "@UF": "ES",
                            "@Voto": "Não            "
                        },
                        {
                            "@Nome": "Lezio Sathler",
                            "@ideCadastro": "73826",
                            "@Partido": "PSDB      ",
                            "@UF": "ES",
                            "@Voto": "Sim            "
                        },
                        {
                            "@Nome": "Sergio Spada",
                            "@ideCadastro": "73510",
                            "@Partido": "PP        ",
                            "@UF": "PR",
                            "@Voto": "Abstenção      "
                        },
                        {
                            "@Nome": "Armando Pinheiro",
                            "@ideCadastro": "133902",
                            "@Partido": "PPR       ",
                            "@UF": "SP",
                            "@Voto": "Sim            "
                        },
                        {
                            "@Nome": "Maurício Najar",
                            "@ideCadastro": "73551",
                            "@Partido": "PFL       ",
                            "@UF": "SP",
                            "@Voto": "Sim            "
                        },
                        {
                            "@Nome": "Sérgio Miranda",
                            "@ideCadastro": "74763",
                            "@Partido": "PCdoB     ",
                            "@UF": "MG",
                            "@Voto": "Não            "
                        },
                        {
                            "@Nome": "Ricardo Correa",
                            "@ideCadastro": "73956",
                            "@Partido": "PL        ",
                            "@UF": "MT",
                            "@Voto": "Sim            "
                        },
                        {
                            "@Nome": "Aparício Carvalho",
                            "@ideCadastro": "73958",
                            "@Partido": "PSDB      ",
                            "@UF": "RO",
                            "@Voto": "Sim            "
                        },
                        {
                            "@Nome": "Ervin Bonkoski",
                            "@ideCadastro": "65468",
                            "@Partido": "PTB       ",
                            "@UF": "PR",
                            "@Voto": "Sim            "
                        }
                    ]
                }
            }
        }
    }
}