{
    "proposicao": {
        "Sigla": "PL",
        "Numero": "3399",
        "Ano": "1992",
        "Votacoes": {
            "Votacao": {
                "@Resumo": "",
                "@Data": "16/12/1992",
                "@Hora": "20:55",
                "@ObjVotacao": "SUBSTITUTIVO CSSF",
                "@codSessao": "2523",
                "votos": {
                    "Deputado": [
                        {
                            "@Nome": "Ruben Bento",
                            "@ideCadastro": "73807",
                            "@Partido": "PFL       ",
                            "@UF": "RR",
                            "@Voto": "Não            "
                        },
                        {
                            "@Nome": "Gilvan Borges",
                            "@ideCadastro": "73815",
                            "@Partido": "PMDB      ",
                            "@UF": "AP",
                            "@Voto": "Sim            "
                        },
                        {
                            "@Nome": "Lourival Freitas",
                            "@ideCadastro": "73822",
                            "@Partido": "PT        ",
                            "@UF": "AP",
                            "@Voto": "Sim            "
                        },
                        {
                            "@Nome": "Murilo Pinheiro",
                            "@ideCadastro": "74067",
                            "@Partido": "PFL       ",
                            "@UF": "AP",
                            "@Voto": "Não            "
                        },
                        {
                            "@Nome": "Alacid Nunes",
                            "@ideCadastro": "133939",
                            "@Partido": "PFL       ",
                            "@UF": "PA",
                            "@Voto": "Não            "
                        },
                        {
                            "@Nome": "Gérson Peres",
                            "@ideCadastro": "74076",
                            "@Partido": "PDS       ",
                            "@UF": "PA",
                            "@Voto": "Não            "
                        },
                        {
                            "@Nome": "Giovanni Queiroz",
                            "@ideCadastro": "74077",
                            "@Partido": "PDT       ",
                            "@UF": "PA",
                            "@Voto": "Sim            "
                        },
                        {
                            "@Nome": "Mario Martins",
                            "@ideCadastro": "74114",
                            "@Partido": "PMDB      ",
                            "@UF": "PA",
                            "@Voto": "Sim            "
                        },
                        {
                            "@Nome": "Nicias Ribeiro",
                            "@ideCadastro": "74080",
                            "@Partido": "PMDB      ",
                            "@UF": "PA",
                            "@Voto": "Sim            "
                        },
                        {
                            "@Nome": "Paulo Rocha",
                            "@ideCadastro": "74082",
                            "@Partido": "PT        ",
                            "@UF": "PA",
                            "@Voto": "Sim            "
                        },
                        {
                            "@Nome": "Valdir Ganzer",
                            "@ideCadastro": "74348",
                            "@Partido": "PT        ",
                            "@UF": "PA",
                            "@Voto": "Sim            "
                        },
                        {
                            "@Nome": "Beth Azize",
                            "@ideCadastro": "133866",
                            "@Partido": "PDT       ",
                            "@UF": "AM",
                            "@Voto": "Sim            "
                        },
                        {
                            "@Nome": "Ricardo Moraes",
                            "@ideCadastro": "73803",
                            "@Partido": "PT        ",
                            "@UF": "AM",
                            "@Voto": "Sim            "
                        },
                        {
                            "@Nome": "João Maia",
                            "@ideCadastro": "141459",
                            "@Partido": "PP        ",
                            "@UF": "AC",
                            "@Voto": "Sim            "
                        },
                        {
                            "@Nome": "Zilá Bezerra",
                            "@ideCadastro": "74185",
                            "@Partido": "PMDB      ",
                            "@UF": "AC",
                            "@Voto": "Sim            "
                        },
                        {
                            "@Nome": "Daniel Silva",
                            "@ideCadastro": "73703",
                            "@Partido": "PDS       ",
                            "@UF": "MA",
                            "@Voto": "Não            "
                        },
                        {
                            "@Nome": "Nan Souza",
                            "@ideCadastro": "74013",
                            "@Partido": "PP        ",
                            "@UF": "MA",
                            "@Voto": "Abstenção      "
                        },
                        {
                            "@Nome": "Haroldo Sabóia",
                            "@ideCadastro": "68676",
                            "@Partido": "PT        ",
                            "@UF": "MA",
                            "@Voto": "Sim            "
                        },
                        {
                            "@Nome": "Pedro Novais",
                            "@ideCadastro": "74207",
                            "@Partido": "PDC       ",
                            "@UF": "MA",
                            "@Voto": "Não            "
                        },
                        {
                            "@Nome": "Aécio de Borba",
                            "@ideCadastro": "74244",
                            "@Partido": "PDS       ",
                            "@UF": "CE",
                            "@Voto": "Não            "
                        },
                        {
                            "@Nome": "Ernani Viana",
                            "@ideCadastro": "133927",
                            "@Partido": "PSDB      ",
                            "@UF": "CE",
                            "@Voto": "Sim            "
                        },
                        {
                            "@Nome": "Ariosto Holanda",
                            "@ideCadastro": "74103",
                            "@Partido": "PSB       ",
                            "@UF": "CE",
                            "@Voto": "Sim            "
                        },
                        {
                            "@Nome": "Pinheiro Landim",
                            "@ideCadastro": "74304",
                            "@Partido": "PMDB      ",
                            "@UF": "CE",
                            "@Voto": "Sim            "
                        },
                        {
                            "@Nome": "Jackson Pereira",
                            "@ideCadastro": "74296",
                            "@Partido": "PSDB      ",
                            "@UF": "CE",
                            "@Voto": "Sim            "
                        },
                        {
                            "@Nome": "Marco Penaforte",
                            "@ideCadastro": "73719",
                            "@Partido": "PSDB      ",
                            "@UF": "CE",
                            "@Voto": "Sim            "
                        },
                        {
                            "@Nome": "Moroni Torgan",
                            "@ideCadastro": "74457",
                            "@Partido": "PSDB      ",
                            "@UF": "CE",
                            "@Voto": "Sim            "
                        },
                        {
                            "@Nome": "Ciro Nogueira",
                            "@ideCadastro": "74313",
                            "@Partido": "PFL       ",
                            "@UF": "PI",
                            "@Voto": "Sim            "
                        },
                        {
                            "@Nome": "João Henrique",
                            "@ideCadastro": "74316",
                            "@Partido": "PMDB      ",
                            "@UF": "PI",
                            "@Voto": "Sim            "
                        },
                        {
                            "@Nome": "Murilo Rezende",
                            "@ideCadastro": "133883",
                            "@Partido": "PMDB      ",
                            "@UF": "PI",
                            "@Voto": "Sim            "
                        },
                        {
                            "@Nome": "Paulo Silva",
                            "@ideCadastro": "73816",
                            "@Partido": "PSDB      ",
                            "@UF": "PI",
                            "@Voto": "Sim            "
                        },
                        {
                            "@Nome": "Adauto Pereira",
                            "@ideCadastro": "74328",
                            "@Partido": "PFL       ",
                            "@UF": "PB",
                            "@Voto": "Não            "
                        },
                        {
                            "@Nome": "Vital do Rego",
                            "@ideCadastro": "133890",
                            "@Partido": "PDT       ",
                            "@UF": "PB",
                            "@Voto": "Sim            "
                        },
                        {
                            "@Nome": "Efraim Morais",
                            "@ideCadastro": "74407",
                            "@Partido": "PFL       ",
                            "@UF": "PB",
                            "@Voto": "Abstenção      "
                        },
                        {
                            "@Nome": "Ivandro Cunha Lima",
                            "@ideCadastro": "74410",
                            "@Partido": "PMDB      ",
                            "@UF": "PB",
                            "@Voto": "Sim            "
                        },
                        {
                            "@Nome": "José Luiz Clerot",
                            "@ideCadastro": "74412",
                            "@Partido": "PMDB      ",
                            "@UF": "PB",
                            "@Voto": "Sim            "
                        },
                        {
                            "@Nome": "José Maranhão",
                            "@ideCadastro": "133975",
                            "@Partido": "PMDB      ",
                            "@UF": "PB",
                            "@Voto": "Sim            "
                        },
                        {
                            "@Nome": "Gilson Machado",
                            "@ideCadastro": "133842",
                            "@Partido": "PFL       ",
                            "@UF": "PE",
                            "@Voto": "Não            "
                        },
                        {
                            "@Nome": "Luiz Piauhylino",
                            "@ideCadastro": "74427",
                            "@Partido": "PSB       ",
                            "@UF": "PE",
                            "@Voto": "Sim            "
                        },
                        {
                            "@Nome": "Nilson Gibson",
                            "@ideCadastro": "74429",
                            "@Partido": "PMDB      ",
                            "@UF": "PE",
                            "@Voto": "Sim            "
                        },
                        {
                            "@Nome": "Renildo Calheiros",
                            "@ideCadastro": "73801",
                            "@Partido": "PCdoB     ",
                            "@UF": "PE",
                            "@Voto": "Sim            "
                        },
                        {
                            "@Nome": "Ricardo Fiúza",
                            "@ideCadastro": "74557",
                            "@Partido": "PFL       ",
                            "@UF": "PE",
                            "@Voto": "Sim            "
                        },
                        {
                            "@Nome": "Roberto França",
                            "@ideCadastro": "73804",
                            "@Partido": "PSB       ",
                            "@UF": "PE",
                            "@Voto": "Sim            "
                        },
                        {
                            "@Nome": "Roberto Freire",
                            "@ideCadastro": "73805",
                            "@Partido": "PCB       ",
                            "@UF": "PE",
                            "@Voto": "Sim            "
                        },
                        {
                            "@Nome": "Roberto Magalhães",
                            "@ideCadastro": "74433",
                            "@Partido": "PFL       ",
                            "@UF": "PE",
                            "@Voto": "Não            "
                        },
                        {
                            "@Nome": "Olavo Calheiros",
                            "@ideCadastro": "74005",
                            "@Partido": "PMDB      ",
                            "@UF": "AL",
                            "@Voto": "Sim            "
                        },
                        {
                            "@Nome": "Roberto Torres",
                            "@ideCadastro": "133913",
                            "@Partido": "PTB       ",
                            "@UF": "AL",
                            "@Voto": "Não            "
                        },
                        {
                            "@Nome": "Benedito de Figueiredo",
                            "@ideCadastro": "133942",
                            "@Partido": "S.Part.   ",
                            "@UF": "SE",
                            "@Voto": "Sim            "
                        },
                        {
                            "@Nome": "Cleonancio Fonseca",
                            "@ideCadastro": "74527",
                            "@Partido": "PPR       ",
                            "@UF": "SE",
                            "@Voto": "Não            "
                        },
                        {
                            "@Nome": "Messias Gois",
                            "@ideCadastro": "74249",
                            "@Partido": "PFL       ",
                            "@UF": "SE",
                            "@Voto": "Não            "
                        },
                        {
                            "@Nome": "Clóvis Assis",
                            "@ideCadastro": "73721",
                            "@Partido": "PDT       ",
                            "@UF": "BA",
                            "@Voto": "Sim            "
                        },
                        {
                            "@Nome": "Waldir Pires",
                            "@ideCadastro": "74576",
                            "@Partido": "PDT       ",
                            "@UF": "BA",
                            "@Voto": "Sim            "
                        },
                        {
                            "@Nome": "Genebaldo Correia",
                            "@ideCadastro": "133979",
                            "@Partido": "PMDB      ",
                            "@UF": "BA",
                            "@Voto": "Sim            "
                        },
                        {
                            "@Nome": "Jaques Wagner",
                            "@ideCadastro": "74548",
                            "@Partido": "PT        ",
                            "@UF": "BA",
                            "@Voto": "Sim            "
                        },
                        {
                            "@Nome": "João Almeida",
                            "@ideCadastro": "74549",
                            "@Partido": "PMDB      ",
                            "@UF": "BA",
                            "@Voto": "Sim            "
                        },
                        {
                            "@Nome": "José Carlos Aleluia",
                            "@ideCadastro": "74553",
                            "@Partido": "PFL       ",
                            "@UF": "BA",
                            "@Voto": "Não            "
                        },
                        {
                            "@Nome": "José Falcão",
                            "@ideCadastro": "133941",
                            "@Partido": "PFL       ",
                            "@UF": "BA",
                            "@Voto": "Não            "
                        },
                        {
                            "@Nome": "Ribeiro Tavares",
                            "@ideCadastro": "73830",
                            "@Partido": "PL        ",
                            "@UF": "BA",
                            "@Voto": "Não            "
                        },
                        {
                            "@Nome": "Luís Eduardo",
                            "@ideCadastro": "74630",
                            "@Partido": "PFL       ",
                            "@UF": "BA",
                            "@Voto": "Não            "
                        },
                        {
                            "@Nome": "Prisco Viana",
                            "@ideCadastro": "74638",
                            "@Partido": "PDS       ",
                            "@UF": "BA",
                            "@Voto": "Não            "
                        },
                        {
                            "@Nome": "Alcides Modesto",
                            "@ideCadastro": "74532",
                            "@Partido": "PT        ",
                            "@UF": "BA",
                            "@Voto": "Sim            "
                        },
                        {
                            "@Nome": "Manoel Castro",
                            "@ideCadastro": "74633",
                            "@Partido": "PFL       ",
                            "@UF": "BA",
                            "@Voto": "Não            "
                        },
                        {
                            "@Nome": "Sérgio Gaudenzi",
                            "@ideCadastro": "133949",
                            "@Partido": "PDT       ",
                            "@UF": "BA",
                            "@Voto": "Sim            "
                        },
                        {
                            "@Nome": "Agostinho Valente",
                            "@ideCadastro": "73694",
                            "@Partido": "PT        ",
                            "@UF": "MG",
                            "@Voto": "Sim            "
                        },
                        {
                            "@Nome": "Armando Costa",
                            "@ideCadastro": "74649",
                            "@Partido": "PMDB      ",
                            "@UF": "MG",
                            "@Voto": "Sim            "
                        },
                        {
                            "@Nome": "Avelino Costa",
                            "@ideCadastro": "73634",
                            "@Partido": "PL        ",
                            "@UF": "MG",
                            "@Voto": "Não            "
                        },
                        {
                            "@Nome": "Felipe Neri",
                            "@ideCadastro": "133918",
                            "@Partido": "PMDB      ",
                            "@UF": "MG",
                            "@Voto": "Não            "
                        },
                        {
                            "@Nome": "Fernando Diniz",
                            "@ideCadastro": "74658",
                            "@Partido": "PMDB      ",
                            "@UF": "MG",
                            "@Voto": "Sim            "
                        },
                        {
                            "@Nome": "Genésio Bernardino",
                            "@ideCadastro": "74659",
                            "@Partido": "PMDB      ",
                            "@UF": "MG",
                            "@Voto": "Abstenção      "
                        },
                        {
                            "@Nome": "Getúlio Neiva",
                            "@ideCadastro": "133920",
                            "@Partido": "PL        ",
                            "@UF": "MG",
                            "@Voto": "Não            "
                        },
                        {
                            "@Nome": "Ibrahim Abi-Ackel",
                            "@ideCadastro": "74663",
                            "@Partido": "PDS       ",
                            "@UF": "MG",
                            "@Voto": "Não            "
                        },
                        {
                            "@Nome": "Irani Barbosa",
                            "@ideCadastro": "73741",
                            "@Partido": "PSD       ",
                            "@UF": "MG",
                            "@Voto": "Não            "
                        },
                        {
                            "@Nome": "João Paulo",
                            "@ideCadastro": "133969",
                            "@Partido": "PT        ",
                            "@UF": "MG",
                            "@Voto": "Sim            "
                        },
                        {
                            "@Nome": "José Belato",
                            "@ideCadastro": "73749",
                            "@Partido": "PMDB      ",
                            "@UF": "MG",
                            "@Voto": "Abstenção      "
                        },
                        {
                            "@Nome": "José Aldo",
                            "@ideCadastro": "133848",
                            "@Partido": "PRS       ",
                            "@UF": "MG",
                            "@Voto": "Não            "
                        },
                        {
                            "@Nome": "Elias Murad",
                            "@ideCadastro": "74656",
                            "@Partido": "PSDB      ",
                            "@UF": "MG",
                            "@Voto": "Não            "
                        },
                        {
                            "@Nome": "José Santana de Vasconcellos",
                            "@ideCadastro": "74741",
                            "@Partido": "PFL       ",
                            "@UF": "MG",
                            "@Voto": "Não            "
                        },
                        {
                            "@Nome": "Luiz Tadeu Leite",
                            "@ideCadastro": "133922",
                            "@Partido": "PMDB      ",
                            "@UF": "MG",
                            "@Voto": "Sim            "
                        },
                        {
                            "@Nome": "Marcos Lima",
                            "@ideCadastro": "74745",
                            "@Partido": "PMDB      ",
                            "@UF": "MG",
                            "@Voto": "Abstenção      "
                        },
                        {
                            "@Nome": "Nilmário Miranda",
                            "@ideCadastro": "74751",
                            "@Partido": "PT        ",
                            "@UF": "MG",
                            "@Voto": "Sim            "
                        },
                        {
                            "@Nome": "Paulo Delgado",
                            "@ideCadastro": "74754",
                            "@Partido": "PT        ",
                            "@UF": "MG",
                            "@Voto": "Sim            "
                        },
                        {
                            "@Nome": "Paulo Heslander",
                            "@ideCadastro": "74755",
                            "@Partido": "PTB       ",
                            "@UF": "MG",
                            "@Voto": "Não            "
                        },
                        {
                            "@Nome": "Tarcísio Delgado",
                            "@ideCadastro": "133919",
                            "@Partido": "PMDB      ",
                            "@UF": "MG",
                            "@Voto": "Sim            "
                        },
                        {
                            "@Nome": "Sandra Starling",
                            "@ideCadastro": "74761",
                            "@Partido": "PT        ",
                            "@UF": "MG",
                            "@Voto": "Sim            "
                        },
                        {
                            "@Nome": "Saulo Coelho",
                            "@ideCadastro": "73596",
                            "@Partido": "PSDB      ",
                            "@UF": "MG",
                            "@Voto": "Sim            "
                        },
                        {
                            "@Nome": "Tilden Santiago",
                            "@ideCadastro": "74767",
                            "@Partido": "PT        ",
                            "@UF": "MG",
                            "@Voto": "Sim            "
                        },
                        {
                            "@Nome": "Vittorio Medioli",
                            "@ideCadastro": "74768",
                            "@Partido": "PSDB      ",
                            "@UF": "MG",
                            "@Voto": "Sim            "
                        },
                        {
                            "@Nome": "Zaire Rezende",
                            "@ideCadastro": "74769",
                            "@Partido": "PMDB      ",
                            "@UF": "MG",
                            "@Voto": "Sim            "
                        },
                        {
                            "@Nome": "João Baptista Motta",
                            "@ideCadastro": "133891",
                            "@Partido": "PSDB      ",
                            "@UF": "ES",
                            "@Voto": "Sim            "
                        },
                        {
                            "@Nome": "Nilton Baiano",
                            "@ideCadastro": "74776",
                            "@Partido": "PMDB      ",
                            "@UF": "ES",
                            "@Voto": "Sim            "
                        },
                        {
                            "@Nome": "Roberto Valadão",
                            "@ideCadastro": "74826",
                            "@Partido": "PMDB      ",
                            "@UF": "ES",
                            "@Voto": "Sim            "
                        },
                        {
                            "@Nome": "Alvaro Valle",
                            "@ideCadastro": "74831",
                            "@Partido": "PL        ",
                            "@UF": "RJ",
                            "@Voto": "Não            "
                        },
                        {
                            "@Nome": "Benedita da Silva",
                            "@ideCadastro": "73701",
                            "@Partido": "PT        ",
                            "@UF": "RJ",
                            "@Voto": "Sim            "
                        },
                        {
                            "@Nome": "Carlos Santana",
                            "@ideCadastro": "74835",
                            "@Partido": "PT        ",
                            "@UF": "RJ",
                            "@Voto": "Sim            "
                        },
                        {
                            "@Nome": "Carlos Lupi",
                            "@ideCadastro": "73638",
                            "@Partido": "PDT       ",
                            "@UF": "RJ",
                            "@Voto": "Sim            "
                        },
                        {
                            "@Nome": "Francisco Dornelles",
                            "@ideCadastro": "74844",
                            "@Partido": "PPR       ",
                            "@UF": "RJ",
                            "@Voto": "Não            "
                        },
                        {
                            "@Nome": "Jair Bolsonaro",
                            "@ideCadastro": "74847",
                            "@Partido": "PDC       ",
                            "@UF": "RJ",
                            "@Voto": "Sim            "
                        },
                        {
                            "@Nome": "José Vicente Brizola",
                            "@ideCadastro": "73756",
                            "@Partido": "PDT       ",
                            "@UF": "RJ",
                            "@Voto": "Sim            "
                        },
                        {
                            "@Nome": "Luiz Salomão",
                            "@ideCadastro": "74339",
                            "@Partido": "PDT       ",
                            "@UF": "RJ",
                            "@Voto": "Sim            "
                        },
                        {
                            "@Nome": "Roberto Jefferson",
                            "@ideCadastro": "73420",
                            "@Partido": "PTB       ",
                            "@UF": "RJ",
                            "@Voto": "Não            "
                        },
                        {
                            "@Nome": "Roberto Campos",
                            "@ideCadastro": "73419",
                            "@Partido": "PDS       ",
                            "@UF": "RJ",
                            "@Voto": "Não            "
                        },
                        {
                            "@Nome": "Sandra Cavalcanti",
                            "@ideCadastro": "133986",
                            "@Partido": "PPR       ",
                            "@UF": "RJ",
                            "@Voto": "Não            "
                        },
                        {
                            "@Nome": "Sidney de Miguel",
                            "@ideCadastro": "73856",
                            "@Partido": "PV        ",
                            "@UF": "RJ",
                            "@Voto": "Sim            "
                        },
                        {
                            "@Nome": "Simão Sessim",
                            "@ideCadastro": "73424",
                            "@Partido": "PPR       ",
                            "@UF": "RJ",
                            "@Voto": "Sim            "
                        },
                        {
                            "@Nome": "Vladimir Palmeira",
                            "@ideCadastro": "133985",
                            "@Partido": "PT        ",
                            "@UF": "RJ",
                            "@Voto": "Sim            "
                        },
                        {
                            "@Nome": "Miro Teixeira",
                            "@ideCadastro": "74862",
                            "@Partido": "PDT       ",
                            "@UF": "RJ",
                            "@Voto": "Sim            "
                        },
                        {
                            "@Nome": "Wanda Reis",
                            "@ideCadastro": "73862",
                            "@Partido": "S.Part.   ",
                            "@UF": "RJ",
                            "@Voto": "Não            "
                        },
                        {
                            "@Nome": "Aloizio Mercadante",
                            "@ideCadastro": "74697",
                            "@Partido": "PT        ",
                            "@UF": "SP",
                            "@Voto": "Sim            "
                        },
                        {
                            "@Nome": "Eduardo Jorge",
                            "@ideCadastro": "73448",
                            "@Partido": "PT        ",
                            "@UF": "SP",
                            "@Voto": "Sim            "
                        },
                        {
                            "@Nome": "Ernesto Gradella",
                            "@ideCadastro": "73729",
                            "@Partido": "S.Part.   ",
                            "@UF": "SP",
                            "@Voto": "Não            "
                        },
                        {
                            "@Nome": "Fábio Meirelles",
                            "@ideCadastro": "73730",
                            "@Partido": "PDS       ",
                            "@UF": "SP",
                            "@Voto": "Não            "
                        },
                        {
                            "@Nome": "Fausto Rocha",
                            "@ideCadastro": "133872",
                            "@Partido": "PL        ",
                            "@UF": "SP",
                            "@Voto": "Não            "
                        },
                        {
                            "@Nome": "Florestan Fernandes",
                            "@ideCadastro": "133873",
                            "@Partido": "PT        ",
                            "@UF": "SP",
                            "@Voto": "Sim            "
                        },
                        {
                            "@Nome": "Geraldo Alckmin Filho",
                            "@ideCadastro": "65480",
                            "@Partido": "PSDB      ",
                            "@UF": "SP",
                            "@Voto": "Sim            "
                        },
                        {
                            "@Nome": "Hélio Bicudo",
                            "@ideCadastro": "73453",
                            "@Partido": "PT        ",
                            "@UF": "SP",
                            "@Voto": "Sim            "
                        },
                        {
                            "@Nome": "Irma Passoni",
                            "@ideCadastro": "133915",
                            "@Partido": "PT        ",
                            "@UF": "SP",
                            "@Voto": "Sim            "
                        },
                        {
                            "@Nome": "Aldo Rebelo",
                            "@ideCadastro": "73428",
                            "@Partido": "PCdoB     ",
                            "@UF": "SP",
                            "@Voto": "Sim            "
                        },
                        {
                            "@Nome": "José Cicote",
                            "@ideCadastro": "73751",
                            "@Partido": "PT        ",
                            "@UF": "SP",
                            "@Voto": "Sim            "
                        },
                        {
                            "@Nome": "José Dirceu",
                            "@ideCadastro": "74782",
                            "@Partido": "PT        ",
                            "@UF": "SP",
                            "@Voto": "Sim            "
                        },
                        {
                            "@Nome": "José Genoíno",
                            "@ideCadastro": "73540",
                            "@Partido": "PT        ",
                            "@UF": "SP",
                            "@Voto": "Sim            "
                        },
                        {
                            "@Nome": "Liberato Caboclo",
                            "@ideCadastro": "73754",
                            "@Partido": "PDT       ",
                            "@UF": "SP",
                            "@Voto": "Sim            "
                        },
                        {
                            "@Nome": "Magalhães Teixeira",
                            "@ideCadastro": "133879",
                            "@Partido": "PSDB      ",
                            "@UF": "SP",
                            "@Voto": "Sim            "
                        },
                        {
                            "@Nome": "Luiz Gushiken",
                            "@ideCadastro": "67836",
                            "@Partido": "PT        ",
                            "@UF": "SP",
                            "@Voto": "Sim            "
                        },
                        {
                            "@Nome": "Nelson Marquezelli",
                            "@ideCadastro": "73553",
                            "@Partido": "PTB       ",
                            "@UF": "SP",
                            "@Voto": "Não            "
                        },
                        {
                            "@Nome": "Beto Mansur",
                            "@ideCadastro": "73437",
                            "@Partido": "PDT       ",
                            "@UF": "SP",
                            "@Voto": "Sim            "
                        },
                        {
                            "@Nome": "Ricardo Izar",
                            "@ideCadastro": "73557",
                            "@Partido": "PL        ",
                            "@UF": "SP",
                            "@Voto": "Não            "
                        },
                        {
                            "@Nome": "Tadashi Kuriki",
                            "@ideCadastro": "133886",
                            "@Partido": "PPR       ",
                            "@UF": "SP",
                            "@Voto": "Não            "
                        },
                        {
                            "@Nome": "Walter Nory",
                            "@ideCadastro": "73812",
                            "@Partido": "PMDB      ",
                            "@UF": "SP",
                            "@Voto": "Sim            "
                        },
                        {
                            "@Nome": "Jonas Pinheiro",
                            "@ideCadastro": "73710",
                            "@Partido": "PFL       ",
                            "@UF": "MT",
                            "@Voto": "Não            "
                        },
                        {
                            "@Nome": "Welinton Fagundes",
                            "@ideCadastro": "73653",
                            "@Partido": "PL        ",
                            "@UF": "MT",
                            "@Voto": "Não            "
                        },
                        {
                            "@Nome": "Augusto Carvalho",
                            "@ideCadastro": "73655",
                            "@Partido": "PCB       ",
                            "@UF": "DF",
                            "@Voto": "Sim            "
                        },
                        {
                            "@Nome": "Chico Vigilante",
                            "@ideCadastro": "73657",
                            "@Partido": "PT        ",
                            "@UF": "DF",
                            "@Voto": "Sim            "
                        },
                        {
                            "@Nome": "Jofran Frejat",
                            "@ideCadastro": "73658",
                            "@Partido": "PP        ",
                            "@UF": "DF",
                            "@Voto": "Não            "
                        },
                        {
                            "@Nome": "Maria Laura",
                            "@ideCadastro": "73659",
                            "@Partido": "PT        ",
                            "@UF": "DF",
                            "@Voto": "Sim            "
                        },
                        {
                            "@Nome": "Osório Adriano",
                            "@ideCadastro": "73660",
                            "@Partido": "PFL       ",
                            "@UF": "DF",
                            "@Voto": "Abstenção      "
                        },
                        {
                            "@Nome": "Paulo Octávio",
                            "@ideCadastro": "74804",
                            "@Partido": "PRN       ",
                            "@UF": "DF",
                            "@Voto": "Não            "
                        },
                        {
                            "@Nome": "Mauro Borges",
                            "@ideCadastro": "1535",
                            "@Partido": "PDC       ",
                            "@UF": "GO",
                            "@Voto": "Não            "
                        },
                        {
                            "@Nome": "Roberto Balestra",
                            "@ideCadastro": "73674",
                            "@Partido": "PDC       ",
                            "@UF": "GO",
                            "@Voto": "Não            "
                        },
                        {
                            "@Nome": "Ronaldo Caiado",
                            "@ideCadastro": "74813",
                            "@Partido": "PFL       ",
                            "@UF": "GO",
                            "@Voto": "Não            "
                        },
                        {
                            "@Nome": "Virmondes Cruvinel",
                            "@ideCadastro": "74019",
                            "@Partido": "PMDB      ",
                            "@UF": "GO",
                            "@Voto": "Sim            "
                        },
                        {
                            "@Nome": "Elisio Curvo",
                            "@ideCadastro": "74126",
                            "@Partido": "PTB       ",
                            "@UF": "MS",
                            "@Voto": "Não            "
                        },
                        {
                            "@Nome": "Valter Pereira",
                            "@ideCadastro": "133860",
                            "@Partido": "PMDB      ",
                            "@UF": "MS",
                            "@Voto": "Sim            "
                        },
                        {
                            "@Nome": "Basílio Villani",
                            "@ideCadastro": "73767",
                            "@Partido": "PDS       ",
                            "@UF": "PR",
                            "@Voto": "Não            "
                        },
                        {
                            "@Nome": "Carlos Roberto Massa",
                            "@ideCadastro": "73639",
                            "@Partido": "PTB       ",
                            "@UF": "PR",
                            "@Voto": "Sim            "
                        },
                        {
                            "@Nome": "Edésio Passos",
                            "@ideCadastro": "73724",
                            "@Partido": "PT        ",
                            "@UF": "PR",
                            "@Voto": "Sim            "
                        },
                        {
                            "@Nome": "Flávio Arns",
                            "@ideCadastro": "73771",
                            "@Partido": "PSDB      ",
                            "@UF": "PR",
                            "@Voto": "Sim            "
                        },
                        {
                            "@Nome": "Ivanio Guerra",
                            "@ideCadastro": "73570",
                            "@Partido": "PFL       ",
                            "@UF": "PR",
                            "@Voto": "Não            "
                        },
                        {
                            "@Nome": "Luiz Carlos Hauly",
                            "@ideCadastro": "73778",
                            "@Partido": "PP        ",
                            "@UF": "PR",
                            "@Voto": "Sim            "
                        },
                        {
                            "@Nome": "Matheus Iensen",
                            "@ideCadastro": "",
                            "@Partido": "PSD       ",
                            "@UF": "PR",
                            "@Voto": "Não            "
                        },
                        {
                            "@Nome": "Max Rosenmann",
                            "@ideCadastro": "73780",
                            "@Partido": "PDT       ",
                            "@UF": "PR",
                            "@Voto": "Não            "
                        },
                        {
                            "@Nome": "Otto Cunha",
                            "@ideCadastro": "133943",
                            "@Partido": "PPR       ",
                            "@UF": "PR",
                            "@Voto": "Não            "
                        },
                        {
                            "@Nome": "Paulo Bernardo",
                            "@ideCadastro": "73784",
                            "@Partido": "PT        ",
                            "@UF": "PR",
                            "@Voto": "Sim            "
                        },
                        {
                            "@Nome": "Munhoz da Rocha",
                            "@ideCadastro": "73847",
                            "@Partido": "PSDB      ",
                            "@UF": "PR",
                            "@Voto": "Sim            "
                        },
                        {
                            "@Nome": "Pedro Tonelli",
                            "@ideCadastro": "73799",
                            "@Partido": "PT        ",
                            "@UF": "PR",
                            "@Voto": "Sim            "
                        },
                        {
                            "@Nome": "Reinhold Stephanes",
                            "@ideCadastro": "73786",
                            "@Partido": "PFL       ",
                            "@UF": "PR",
                            "@Voto": "Não            "
                        },
                        {
                            "@Nome": "Rubens Bueno",
                            "@ideCadastro": "73466",
                            "@Partido": "PSDB      ",
                            "@UF": "PR",
                            "@Voto": "Sim            "
                        },
                        {
                            "@Nome": "Werner Wanderer",
                            "@ideCadastro": "73792",
                            "@Partido": "PFL       ",
                            "@UF": "PR",
                            "@Voto": "Não            "
                        },
                        {
                            "@Nome": "Wilson Moreira",
                            "@ideCadastro": "73864",
                            "@Partido": "PSDB      ",
                            "@UF": "PR",
                            "@Voto": "Sim            "
                        },
                        {
                            "@Nome": "Ângela Amin",
                            "@ideCadastro": "73696",
                            "@Partido": "PDS       ",
                            "@UF": "SC",
                            "@Voto": "Não            "
                        },
                        {
                            "@Nome": "Dejandir Dalpasquale",
                            "@ideCadastro": "74011",
                            "@Partido": "PMDB      ",
                            "@UF": "SC",
                            "@Voto": "Sim            "
                        },
                        {
                            "@Nome": "Luci Choinacki",
                            "@ideCadastro": "73474",
                            "@Partido": "PT        ",
                            "@UF": "SC",
                            "@Voto": "Sim            "
                        },
                        {
                            "@Nome": "Luiz Henrique",
                            "@ideCadastro": "73878",
                            "@Partido": "PMDB      ",
                            "@UF": "SC",
                            "@Voto": "Sim            "
                        },
                        {
                            "@Nome": "Neuto de Conto",
                            "@ideCadastro": "73881",
                            "@Partido": "PMDB      ",
                            "@UF": "SC",
                            "@Voto": "Sim            "
                        },
                        {
                            "@Nome": "Ruberval Pilotto",
                            "@ideCadastro": "133912",
                            "@Partido": "PDS       ",
                            "@UF": "SC",
                            "@Voto": "Sim            "
                        },
                        {
                            "@Nome": "Adão Pretto",
                            "@ideCadastro": "73886",
                            "@Partido": "PT        ",
                            "@UF": "RS",
                            "@Voto": "Sim            "
                        },
                        {
                            "@Nome": "Fetter Júnior",
                            "@ideCadastro": "73896",
                            "@Partido": "PDS       ",
                            "@UF": "RS",
                            "@Voto": "Não            "
                        },
                        {
                            "@Nome": "Adylson Motta",
                            "@ideCadastro": "73887",
                            "@Partido": "PDS       ",
                            "@UF": "RS",
                            "@Voto": "Não            "
                        },
                        {
                            "@Nome": "Arno Magarinos",
                            "@ideCadastro": "133996",
                            "@Partido": "PPR       ",
                            "@UF": "RS",
                            "@Voto": "Não            "
                        },
                        {
                            "@Nome": "Germano Rigotto",
                            "@ideCadastro": "73897",
                            "@Partido": "PMDB      ",
                            "@UF": "RS",
                            "@Voto": "Sim            "
                        },
                        {
                            "@Nome": "Ibsen Pinheiro",
                            "@ideCadastro": "133853",
                            "@Partido": "PMDB      ",
                            "@UF": "RS",
                            "@Voto": "Sim            "
                        },
                        {
                            "@Nome": "Ivo Mainardi",
                            "@ideCadastro": "74008",
                            "@Partido": "PMDB      ",
                            "@UF": "RS",
                            "@Voto": "Sim            "
                        },
                        {
                            "@Nome": "Mendes Ribeiro",
                            "@ideCadastro": "133859",
                            "@Partido": "PMDB      ",
                            "@UF": "RS",
                            "@Voto": "Não            "
                        },
                        {
                            "@Nome": "José Fortunati",
                            "@ideCadastro": "73901",
                            "@Partido": "PT        ",
                            "@UF": "RS",
                            "@Voto": "Sim            "
                        },
                        {
                            "@Nome": "Luis Roberto Ponte",
                            "@ideCadastro": "74002",
                            "@Partido": "PMDB      ",
                            "@UF": "RS",
                            "@Voto": "Sim            "
                        },
                        {
                            "@Nome": "Odacir Klein",
                            "@ideCadastro": "73908",
                            "@Partido": "PMDB      ",
                            "@UF": "RS",
                            "@Voto": "Sim            "
                        },
                        {
                            "@Nome": "Paulo Paim",
                            "@ideCadastro": "73910",
                            "@Partido": "PT        ",
                            "@UF": "RS",
                            "@Voto": "Sim            "
                        },
                        {
                            "@Nome": "Valdomiro Lima",
                            "@ideCadastro": "133951",
                            "@Partido": "PDT       ",
                            "@UF": "RS",
                            "@Voto": "Sim            "
                        },
                        {
                            "@Nome": "Wilson Muller",
                            "@ideCadastro": "73863",
                            "@Partido": "PDT       ",
                            "@UF": "RS",
                            "@Voto": "Sim            "
                        },
                        {
                            "@Nome": "Eurides Brito",
                            "@ideCadastro": "133892",
                            "@Partido": "PP        ",
                            "@UF": "DF",
                            "@Voto": "Sim            "
                        },
                        {
                            "@Nome": "Laerte Bastos",
                            "@ideCadastro": "73869",
                            "@Partido": "PDT       ",
                            "@UF": "RJ",
                            "@Voto": "Sim            "
                        },
                        {
                            "@Nome": "Orlando Pacheco",
                            "@ideCadastro": "133874",
                            "@Partido": "PTN       ",
                            "@UF": "SC",
                            "@Voto": "Não            "
                        },
                        {
                            "@Nome": "José Ulisses de Oliveira",
                            "@ideCadastro": "133962",
                            "@Partido": "PRS       ",
                            "@UF": "MG",
                            "@Voto": "Sim            "
                        },
                        {
                            "@Nome": "Annibal Teixeira",
                            "@ideCadastro": "133894",
                            "@Partido": "PP        ",
                            "@UF": "MG",
                            "@Voto": "Não            "
                        },
                        {
                            "@Nome": "Paulo Ramos",
                            "@ideCadastro": "133968",
                            "@Partido": "PDT       ",
                            "@UF": "RJ",
                            "@Voto": "Sim            "
                        },
                        {
                            "@Nome": "Eduardo Mascarenhas",
                            "@ideCadastro": "74839",
                            "@Partido": "PDT       ",
                            "@UF": "RJ",
                            "@Voto": "Abstenção      "
                        },
                        {
                            "@Nome": "Cyro Garcia",
                            "@ideCadastro": "133900",
                            "@Partido": "PT        ",
                            "@UF": "RJ",
                            "@Voto": "Não            "
                        },
                        {
                            "@Nome": "Hilário Braun",
                            "@ideCadastro": "73708",
                            "@Partido": "PMDB      ",
                            "@UF": "RS",
                            "@Voto": "Sim            "
                        },
                        {
                            "@Nome": "Alvaro Pereira",
                            "@ideCadastro": "73950",
                            "@Partido": "PSDB      ",
                            "@UF": "MG",
                            "@Voto": "Sim            "
                        },
                        {
                            "@Nome": "Paulo Novaes",
                            "@ideCadastro": "133904",
                            "@Partido": "PMDB      ",
                            "@UF": "SP",
                            "@Voto": "Sim            "
                        },
                        {
                            "@Nome": "Raul Pont",
                            "@ideCadastro": "133953",
                            "@Partido": "PT        ",
                            "@UF": "RS",
                            "@Voto": "Sim            "
                        }
                    ]
                }
            }
        }
    }
}