{
    "proposicao": {
        "Sigla": "PL",
        "Numero": "2653",
        "Ano": "1996",
        "Votacoes": {
            "Votacao": {
                "@Resumo": "",
                "@Data": "7/1/1997",
                "@Hora": "17:52",
                "@ObjVotacao": "REQUERIMENTO DE URGENCIA",
                "@codSessao": "2144",
                "votos": {
                    "Deputado": [
                        {
                            "@Nome": "Ivandro Cunha Lima",
                            "@ideCadastro": "74410",
                            "@Partido": "PMDB      ",
                            "@UF": "PB",
                            "@Voto": "Sim            "
                        },
                        {
                            "@Nome": "José Aldemir",
                            "@ideCadastro": "74411",
                            "@Partido": "PMDB      ",
                            "@UF": "PB",
                            "@Voto": "Sim            "
                        },
                        {
                            "@Nome": "Roberto Paulino",
                            "@ideCadastro": "74413",
                            "@Partido": "PMDB      ",
                            "@UF": "PB",
                            "@Voto": "Sim            "
                        },
                        {
                            "@Nome": "Wilson Braga",
                            "@ideCadastro": "74414",
                            "@Partido": "PDT       ",
                            "@UF": "PB",
                            "@Voto": "Sim            "
                        },
                        {
                            "@Nome": "Antônio Geraldo",
                            "@ideCadastro": "74415",
                            "@Partido": "PFL       ",
                            "@UF": "PE",
                            "@Voto": "Sim            "
                        },
                        {
                            "@Nome": "Fernando Lyra",
                            "@ideCadastro": "74418",
                            "@Partido": "PSB       ",
                            "@UF": "PE",
                            "@Voto": "Sim            "
                        },
                        {
                            "@Nome": "Gonzaga Patriota ",
                            "@ideCadastro": "74419",
                            "@Partido": "PSB       ",
                            "@UF": "PE",
                            "@Voto": "Não            "
                        },
                        {
                            "@Nome": "Inocêncio Oliveira ",
                            "@ideCadastro": "74421",
                            "@Partido": "PFL       ",
                            "@UF": "PE",
                            "@Voto": "Sim            "
                        },
                        {
                            "@Nome": "Iberê Ferreira",
                            "@ideCadastro": "74325",
                            "@Partido": "PFL       ",
                            "@UF": "RN",
                            "@Voto": "Sim            "
                        },
                        {
                            "@Nome": "Roberto Fontes",
                            "@ideCadastro": "74432",
                            "@Partido": "PFL       ",
                            "@UF": "PE",
                            "@Voto": "Sim            "
                        },
                        {
                            "@Nome": "Sérgio Guerra",
                            "@ideCadastro": "74435",
                            "@Partido": "PSB       ",
                            "@UF": "PE",
                            "@Voto": "Sim            "
                        },
                        {
                            "@Nome": "Wilson Campos",
                            "@ideCadastro": "74438",
                            "@Partido": "PSDB      ",
                            "@UF": "PE",
                            "@Voto": "Sim            "
                        },
                        {
                            "@Nome": "Albérico Cordeiro ",
                            "@ideCadastro": "74440",
                            "@Partido": "PTB       ",
                            "@UF": "AL",
                            "@Voto": "Sim            "
                        },
                        {
                            "@Nome": "Benedito de Lira",
                            "@ideCadastro": "74517",
                            "@Partido": "PFL       ",
                            "@UF": "AL",
                            "@Voto": "Sim            "
                        },
                        {
                            "@Nome": "Ceci Cunha",
                            "@ideCadastro": "74518",
                            "@Partido": "PSDB      ",
                            "@UF": "AL",
                            "@Voto": "Sim            "
                        },
                        {
                            "@Nome": "Fernando Torres",
                            "@ideCadastro": "74519",
                            "@Partido": "PSDB      ",
                            "@UF": "AL",
                            "@Voto": "Sim            "
                        },
                        {
                            "@Nome": "José Thomaz Nonô",
                            "@ideCadastro": "74520",
                            "@Partido": "PSDB      ",
                            "@UF": "AL",
                            "@Voto": "Sim            "
                        },
                        {
                            "@Nome": "José Jorge",
                            "@ideCadastro": "74424",
                            "@Partido": "PFL       ",
                            "@UF": "PE",
                            "@Voto": "Sim            "
                        },
                        {
                            "@Nome": "Adauto Pereira",
                            "@ideCadastro": "74328",
                            "@Partido": "PFL       ",
                            "@UF": "PB",
                            "@Voto": "Sim            "
                        },
                        {
                            "@Nome": "Álvaro Gaudêncio Neto",
                            "@ideCadastro": "74404",
                            "@Partido": "PFL       ",
                            "@UF": "PB",
                            "@Voto": "Sim            "
                        },
                        {
                            "@Nome": "Armando Abílio ",
                            "@ideCadastro": "74405",
                            "@Partido": "PMDB      ",
                            "@UF": "PB",
                            "@Voto": "Sim            "
                        },
                        {
                            "@Nome": "Efraim Morais",
                            "@ideCadastro": "74407",
                            "@Partido": "PFL       ",
                            "@UF": "PB",
                            "@Voto": "Sim            "
                        },
                        {
                            "@Nome": "Wilson Cunha",
                            "@ideCadastro": "73598",
                            "@Partido": "PFL       ",
                            "@UF": "SE",
                            "@Voto": "Sim            "
                        },
                        {
                            "@Nome": "Aroldo Cedraz",
                            "@ideCadastro": "74534",
                            "@Partido": "PFL       ",
                            "@UF": "BA",
                            "@Voto": "Sim            "
                        },
                        {
                            "@Nome": "Benito Gama",
                            "@ideCadastro": "74535",
                            "@Partido": "PFL       ",
                            "@UF": "BA",
                            "@Voto": "Sim            "
                        },
                        {
                            "@Nome": "Claudio Cajado",
                            "@ideCadastro": "74537",
                            "@Partido": "PFL       ",
                            "@UF": "BA",
                            "@Voto": "Sim            "
                        },
                        {
                            "@Nome": "Domingos Leonelli",
                            "@ideCadastro": "74539",
                            "@Partido": "PSDB      ",
                            "@UF": "BA",
                            "@Voto": "Sim            "
                        },
                        {
                            "@Nome": "Eujácio Simões",
                            "@ideCadastro": "74541",
                            "@Partido": "PL        ",
                            "@UF": "BA",
                            "@Voto": "Sim            "
                        },
                        {
                            "@Nome": "Félix Mendonça",
                            "@ideCadastro": "74542",
                            "@Partido": "PTB       ",
                            "@UF": "BA",
                            "@Voto": "Sim            "
                        },
                        {
                            "@Nome": "Geddel Vieira Lima",
                            "@ideCadastro": "74544",
                            "@Partido": "PMDB      ",
                            "@UF": "BA",
                            "@Voto": "Sim            "
                        },
                        {
                            "@Nome": "José Mendonça Bezerra ",
                            "@ideCadastro": "74425",
                            "@Partido": "PFL       ",
                            "@UF": "PE",
                            "@Voto": "Sim            "
                        },
                        {
                            "@Nome": "José Múcio Monteiro",
                            "@ideCadastro": "74426",
                            "@Partido": "PFL       ",
                            "@UF": "PE",
                            "@Voto": "Sim            "
                        },
                        {
                            "@Nome": "Luiz Piauhylino",
                            "@ideCadastro": "74427",
                            "@Partido": "PSDB      ",
                            "@UF": "PE",
                            "@Voto": "Sim            "
                        },
                        {
                            "@Nome": "Mendonça Filho",
                            "@ideCadastro": "74428",
                            "@Partido": "PFL       ",
                            "@UF": "PE",
                            "@Voto": "Sim            "
                        },
                        {
                            "@Nome": "Nilson Gibson ",
                            "@ideCadastro": "74429",
                            "@Partido": "PSB       ",
                            "@UF": "PE",
                            "@Voto": "Abstenção      "
                        },
                        {
                            "@Nome": "Adelson Ribeiro",
                            "@ideCadastro": "74524",
                            "@Partido": "PSDB      ",
                            "@UF": "SE",
                            "@Voto": "Sim            "
                        },
                        {
                            "@Nome": "Carlos Magno",
                            "@ideCadastro": "160605",
                            "@Partido": "PFL       ",
                            "@UF": "SE",
                            "@Voto": "Sim            "
                        },
                        {
                            "@Nome": "Ademir Lucas",
                            "@ideCadastro": "74645",
                            "@Partido": "PSDB      ",
                            "@UF": "MG",
                            "@Voto": "Sim            "
                        },
                        {
                            "@Nome": "Jairo Carneiro",
                            "@ideCadastro": "74547",
                            "@Partido": "PFL       ",
                            "@UF": "BA",
                            "@Voto": "Sim            "
                        },
                        {
                            "@Nome": "João Almeida",
                            "@ideCadastro": "74549",
                            "@Partido": "PMDB      ",
                            "@UF": "BA",
                            "@Voto": "Sim            "
                        },
                        {
                            "@Nome": "José Carlos Aleluia ",
                            "@ideCadastro": "74553",
                            "@Partido": "PFL       ",
                            "@UF": "BA",
                            "@Voto": "Sim            "
                        },
                        {
                            "@Nome": "José Rocha",
                            "@ideCadastro": "74554",
                            "@Partido": "PFL       ",
                            "@UF": "BA",
                            "@Voto": "Sim            "
                        },
                        {
                            "@Nome": "Leur Lomanto",
                            "@ideCadastro": "74555",
                            "@Partido": "PFL       ",
                            "@UF": "BA",
                            "@Voto": "Sim            "
                        },
                        {
                            "@Nome": "Luís Eduardo",
                            "@ideCadastro": "74630",
                            "@Partido": "PFL       ",
                            "@UF": "BA",
                            "@Voto": "Abstenção      "
                        },
                        {
                            "@Nome": "Luiz Braga",
                            "@ideCadastro": "74631",
                            "@Partido": "PFL       ",
                            "@UF": "BA",
                            "@Voto": "Sim            "
                        },
                        {
                            "@Nome": "Luiz Moreira",
                            "@ideCadastro": "74632",
                            "@Partido": "PFL       ",
                            "@UF": "BA",
                            "@Voto": "Sim            "
                        },
                        {
                            "@Nome": "Manoel Castro",
                            "@ideCadastro": "74633",
                            "@Partido": "PFL       ",
                            "@UF": "BA",
                            "@Voto": "Sim            "
                        },
                        {
                            "@Nome": "Mário Negromonte ",
                            "@ideCadastro": "74635",
                            "@Partido": "PSDB      ",
                            "@UF": "BA",
                            "@Voto": "Sim            "
                        },
                        {
                            "@Nome": "Nestor Duarte",
                            "@ideCadastro": "74636",
                            "@Partido": "PMDB      ",
                            "@UF": "BA",
                            "@Voto": "Sim            "
                        },
                        {
                            "@Nome": "Pedro Irujo ",
                            "@ideCadastro": "74637",
                            "@Partido": "PMDB      ",
                            "@UF": "BA",
                            "@Voto": "Sim            "
                        },
                        {
                            "@Nome": "Roberto Santos",
                            "@ideCadastro": "74639",
                            "@Partido": "PSDB      ",
                            "@UF": "BA",
                            "@Voto": "Sim            "
                        },
                        {
                            "@Nome": "Roland Lavigne",
                            "@ideCadastro": "74640",
                            "@Partido": "PFL       ",
                            "@UF": "BA",
                            "@Voto": "Sim            "
                        },
                        {
                            "@Nome": "Simara Ellery",
                            "@ideCadastro": "74642",
                            "@Partido": "PMDB      ",
                            "@UF": "BA",
                            "@Voto": "Sim            "
                        },
                        {
                            "@Nome": "Ursicino Queiroz",
                            "@ideCadastro": "74644",
                            "@Partido": "PFL       ",
                            "@UF": "BA",
                            "@Voto": "Sim            "
                        },
                        {
                            "@Nome": "Saraiva Felipe",
                            "@ideCadastro": "74762",
                            "@Partido": "PMDB      ",
                            "@UF": "MG",
                            "@Voto": "Sim            "
                        },
                        {
                            "@Nome": "Silas Brasileiro ",
                            "@ideCadastro": "74765",
                            "@Partido": "PMDB      ",
                            "@UF": "MG",
                            "@Voto": "Sim            "
                        },
                        {
                            "@Nome": "José Santana de Vasconcellos",
                            "@ideCadastro": "74741",
                            "@Partido": "PFL       ",
                            "@UF": "MG",
                            "@Voto": "Sim            "
                        },
                        {
                            "@Nome": "Antônio do Valle",
                            "@ideCadastro": "74647",
                            "@Partido": "PMDB      ",
                            "@UF": "MG",
                            "@Voto": "Sim            "
                        },
                        {
                            "@Nome": "Aracely de Paula ",
                            "@ideCadastro": "74648",
                            "@Partido": "PFL       ",
                            "@UF": "MG",
                            "@Voto": "Sim            "
                        },
                        {
                            "@Nome": "Armando Costa",
                            "@ideCadastro": "74649",
                            "@Partido": "PMDB      ",
                            "@UF": "MG",
                            "@Voto": "Sim            "
                        },
                        {
                            "@Nome": "Carlos Melles",
                            "@ideCadastro": "74651",
                            "@Partido": "PFL       ",
                            "@UF": "MG",
                            "@Voto": "Sim            "
                        },
                        {
                            "@Nome": "Carlos Mosconi",
                            "@ideCadastro": "74652",
                            "@Partido": "PSDB      ",
                            "@UF": "MG",
                            "@Voto": "Sim            "
                        },
                        {
                            "@Nome": "Danilo de Castro",
                            "@ideCadastro": "74654",
                            "@Partido": "PSDB      ",
                            "@UF": "MG",
                            "@Voto": "Sim            "
                        },
                        {
                            "@Nome": "Elias Murad ",
                            "@ideCadastro": "74656",
                            "@Partido": "PSDB      ",
                            "@UF": "MG",
                            "@Voto": "Sim            "
                        },
                        {
                            "@Nome": "Eliseu Resende",
                            "@ideCadastro": "74657",
                            "@Partido": "PFL       ",
                            "@UF": "MG",
                            "@Voto": "Sim            "
                        },
                        {
                            "@Nome": "Fernando Diniz",
                            "@ideCadastro": "74658",
                            "@Partido": "PMDB      ",
                            "@UF": "MG",
                            "@Voto": "Sim            "
                        },
                        {
                            "@Nome": "Genésio Bernardino ",
                            "@ideCadastro": "74659",
                            "@Partido": "PMDB      ",
                            "@UF": "MG",
                            "@Voto": "Sim            "
                        },
                        {
                            "@Nome": "Hugo Rodrigues da Cunha",
                            "@ideCadastro": "74661",
                            "@Partido": "PFL       ",
                            "@UF": "MG",
                            "@Voto": "Sim            "
                        },
                        {
                            "@Nome": "Jaime Martins",
                            "@ideCadastro": "74665",
                            "@Partido": "PFL       ",
                            "@UF": "MG",
                            "@Voto": "Sim            "
                        },
                        {
                            "@Nome": "Arolde de Oliveira ",
                            "@ideCadastro": "74833",
                            "@Partido": "PFL       ",
                            "@UF": "RJ",
                            "@Voto": "Sim            "
                        },
                        {
                            "@Nome": "Candinho Mattos",
                            "@ideCadastro": "74834",
                            "@Partido": "PSDB      ",
                            "@UF": "RJ",
                            "@Voto": "Sim            "
                        },
                        {
                            "@Nome": "Lael Varella ",
                            "@ideCadastro": "74742",
                            "@Partido": "PFL       ",
                            "@UF": "MG",
                            "@Voto": "Sim            "
                        },
                        {
                            "@Nome": "Marcos Lima",
                            "@ideCadastro": "74745",
                            "@Partido": "PMDB      ",
                            "@UF": "MG",
                            "@Voto": "Sim            "
                        },
                        {
                            "@Nome": "Osmânio Pereira",
                            "@ideCadastro": "74753",
                            "@Partido": "PSDB      ",
                            "@UF": "MG",
                            "@Voto": "Sim            "
                        },
                        {
                            "@Nome": "Paulo Heslander",
                            "@ideCadastro": "74755",
                            "@Partido": "PTB       ",
                            "@UF": "MG",
                            "@Voto": "Sim            "
                        },
                        {
                            "@Nome": "Raul Belém",
                            "@ideCadastro": "74757",
                            "@Partido": "PFL       ",
                            "@UF": "MG",
                            "@Voto": "Sim            "
                        },
                        {
                            "@Nome": "Roberto Brant ",
                            "@ideCadastro": "74758",
                            "@Partido": "PSDB      ",
                            "@UF": "MG",
                            "@Voto": "Sim            "
                        },
                        {
                            "@Nome": "Zaire Rezende",
                            "@ideCadastro": "74769",
                            "@Partido": "PMDB      ",
                            "@UF": "MG",
                            "@Voto": "Sim            "
                        },
                        {
                            "@Nome": "Adelson Salvador",
                            "@ideCadastro": "74770",
                            "@Partido": "PMDB      ",
                            "@UF": "ES",
                            "@Voto": "Abstenção      "
                        },
                        {
                            "@Nome": "Feu Rosa",
                            "@ideCadastro": "74771",
                            "@Partido": "PSDB      ",
                            "@UF": "ES",
                            "@Voto": "Sim            "
                        },
                        {
                            "@Nome": "Rita Camata",
                            "@ideCadastro": "74777",
                            "@Partido": "PMDB      ",
                            "@UF": "ES",
                            "@Voto": "Não            "
                        },
                        {
                            "@Nome": "Roberto Valadão",
                            "@ideCadastro": "74826",
                            "@Partido": "PMDB      ",
                            "@UF": "ES",
                            "@Voto": "Sim            "
                        },
                        {
                            "@Nome": "Aldir Cabral",
                            "@ideCadastro": "74828",
                            "@Partido": "PFL       ",
                            "@UF": "RJ",
                            "@Voto": "Sim            "
                        },
                        {
                            "@Nome": "Alexandre Santos",
                            "@ideCadastro": "74830",
                            "@Partido": "PSDB      ",
                            "@UF": "RJ",
                            "@Voto": "Sim            "
                        },
                        {
                            "@Nome": "Lima Netto",
                            "@ideCadastro": "74857",
                            "@Partido": "PFL       ",
                            "@UF": "RJ",
                            "@Voto": "Sim            "
                        },
                        {
                            "@Nome": "Sergio Arouca",
                            "@ideCadastro": "73423",
                            "@Partido": "PPS       ",
                            "@UF": "RJ",
                            "@Voto": "Não            "
                        },
                        {
                            "@Nome": "Simão Sessim",
                            "@ideCadastro": "73424",
                            "@Partido": "PSDB      ",
                            "@UF": "RJ",
                            "@Voto": "Sim            "
                        },
                        {
                            "@Nome": "Vanessa Felippe ",
                            "@ideCadastro": "73425",
                            "@Partido": "PSDB      ",
                            "@UF": "RJ",
                            "@Voto": "Sim            "
                        },
                        {
                            "@Nome": "Alberto Goldman ",
                            "@ideCadastro": "73427",
                            "@Partido": "PMDB      ",
                            "@UF": "SP",
                            "@Voto": "Sim            "
                        },
                        {
                            "@Nome": "Almino Affonso",
                            "@ideCadastro": "73429",
                            "@Partido": "PSDB      ",
                            "@UF": "SP",
                            "@Voto": "Sim            "
                        },
                        {
                            "@Nome": "Aloysio Nunes Ferreira",
                            "@ideCadastro": "73430",
                            "@Partido": "PMDB      ",
                            "@UF": "SP",
                            "@Voto": "Sim            "
                        },
                        {
                            "@Nome": "Antonio Carlos Pannunzio ",
                            "@ideCadastro": "73431",
                            "@Partido": "PSDB      ",
                            "@UF": "SP",
                            "@Voto": "Sim            "
                        },
                        {
                            "@Nome": "Fernando Gabeira",
                            "@ideCadastro": "74841",
                            "@Partido": "PV        ",
                            "@UF": "RJ",
                            "@Voto": "Sim            "
                        },
                        {
                            "@Nome": "Fernando Gonçalves ",
                            "@ideCadastro": "74842",
                            "@Partido": "PTB       ",
                            "@UF": "RJ",
                            "@Voto": "Sim            "
                        },
                        {
                            "@Nome": "Fernando Lopes",
                            "@ideCadastro": "74843",
                            "@Partido": "PDT       ",
                            "@UF": "RJ",
                            "@Voto": "Não            "
                        },
                        {
                            "@Nome": "Itamar Serpa",
                            "@ideCadastro": "74846",
                            "@Partido": "PSDB      ",
                            "@UF": "RJ",
                            "@Voto": "Sim            "
                        },
                        {
                            "@Nome": "Rubem Medina",
                            "@ideCadastro": "73422",
                            "@Partido": "PFL       ",
                            "@UF": "RJ",
                            "@Voto": "Sim            "
                        },
                        {
                            "@Nome": "Edinho Araújo ",
                            "@ideCadastro": "73447",
                            "@Partido": "PMDB      ",
                            "@UF": "SP",
                            "@Voto": "Sim            "
                        },
                        {
                            "@Nome": "Franco Montoro",
                            "@ideCadastro": "73452",
                            "@Partido": "PSDB      ",
                            "@UF": "SP",
                            "@Voto": "Sim            "
                        },
                        {
                            "@Nome": "Hélio Rosas",
                            "@ideCadastro": "73530",
                            "@Partido": "PMDB      ",
                            "@UF": "SP",
                            "@Voto": "Sim            "
                        },
                        {
                            "@Nome": "José Aníbal ",
                            "@ideCadastro": "73536",
                            "@Partido": "PSDB      ",
                            "@UF": "SP",
                            "@Voto": "Sim            "
                        },
                        {
                            "@Nome": "Carlos Apolinário",
                            "@ideCadastro": "73438",
                            "@Partido": "PMDB      ",
                            "@UF": "SP",
                            "@Voto": "Sim            "
                        },
                        {
                            "@Nome": "Moreira Franco",
                            "@ideCadastro": "74863",
                            "@Partido": "PMDB      ",
                            "@UF": "RJ",
                            "@Voto": "Sim            "
                        },
                        {
                            "@Nome": "Noel de Oliveira",
                            "@ideCadastro": "73418",
                            "@Partido": "PMDB      ",
                            "@UF": "RJ",
                            "@Voto": "Sim            "
                        },
                        {
                            "@Nome": "Roberto Jefferson",
                            "@ideCadastro": "73420",
                            "@Partido": "PTB       ",
                            "@UF": "RJ",
                            "@Voto": "Sim            "
                        },
                        {
                            "@Nome": "José Pinotti",
                            "@ideCadastro": "73542",
                            "@Partido": "PMDB      ",
                            "@UF": "SP",
                            "@Voto": "Sim            "
                        },
                        {
                            "@Nome": "Jurandyr Paixão",
                            "@ideCadastro": "73543",
                            "@Partido": "PMDB      ",
                            "@UF": "SP",
                            "@Voto": "Sim            "
                        },
                        {
                            "@Nome": "Koyu Iha",
                            "@ideCadastro": "73544",
                            "@Partido": "PSDB      ",
                            "@UF": "SP",
                            "@Voto": "Sim            "
                        },
                        {
                            "@Nome": "Maluly Netto",
                            "@ideCadastro": "73547",
                            "@Partido": "PFL       ",
                            "@UF": "SP",
                            "@Voto": "Sim            "
                        },
                        {
                            "@Nome": "Marcelo Barbieri",
                            "@ideCadastro": "73548",
                            "@Partido": "PMDB      ",
                            "@UF": "SP",
                            "@Voto": "Sim            "
                        },
                        {
                            "@Nome": "Marquinho Chedid ",
                            "@ideCadastro": "73549",
                            "@Partido": "PSD       ",
                            "@UF": "SP",
                            "@Voto": "Sim            "
                        },
                        {
                            "@Nome": "Maurício Najar",
                            "@ideCadastro": "73551",
                            "@Partido": "PFL       ",
                            "@UF": "SP",
                            "@Voto": "Sim            "
                        },
                        {
                            "@Nome": "Michel Temer",
                            "@ideCadastro": "73552",
                            "@Partido": "PMDB      ",
                            "@UF": "SP",
                            "@Voto": "Sim            "
                        },
                        {
                            "@Nome": "Nelson Marquezelli",
                            "@ideCadastro": "73553",
                            "@Partido": "PTB       ",
                            "@UF": "SP",
                            "@Voto": "Abstenção      "
                        },
                        {
                            "@Nome": "De Velasco",
                            "@ideCadastro": "73554",
                            "@Partido": "PSD       ",
                            "@UF": "SP",
                            "@Voto": "Sim            "
                        },
                        {
                            "@Nome": "Paulo Lima",
                            "@ideCadastro": "73555",
                            "@Partido": "PFL       ",
                            "@UF": "SP",
                            "@Voto": "Sim            "
                        },
                        {
                            "@Nome": "Robson Tuma",
                            "@ideCadastro": "73558",
                            "@Partido": "PSL       ",
                            "@UF": "SP",
                            "@Voto": "Sim            "
                        },
                        {
                            "@Nome": "Salvador Zimbaldi",
                            "@ideCadastro": "73559",
                            "@Partido": "PSDB      ",
                            "@UF": "SP",
                            "@Voto": "Sim            "
                        },
                        {
                            "@Nome": "Silvio Torres",
                            "@ideCadastro": "73560",
                            "@Partido": "PSDB      ",
                            "@UF": "SP",
                            "@Voto": "Sim            "
                        },
                        {
                            "@Nome": "Tuga Angerami",
                            "@ideCadastro": "73562",
                            "@Partido": "PSDB      ",
                            "@UF": "SP",
                            "@Voto": "Sim            "
                        },
                        {
                            "@Nome": "José de Abreu",
                            "@ideCadastro": "73539",
                            "@Partido": "PSDB      ",
                            "@UF": "SP",
                            "@Voto": "Sim            "
                        },
                        {
                            "@Nome": "Carlos Nelson",
                            "@ideCadastro": "73439",
                            "@Partido": "PMDB      ",
                            "@UF": "SP",
                            "@Voto": "Sim            "
                        },
                        {
                            "@Nome": "Celso Russomanno",
                            "@ideCadastro": "73441",
                            "@Partido": "PSDB      ",
                            "@UF": "SP",
                            "@Voto": "Sim            "
                        },
                        {
                            "@Nome": "Corauci Sobrinho",
                            "@ideCadastro": "73442",
                            "@Partido": "PFL       ",
                            "@UF": "SP",
                            "@Voto": "Sim            "
                        },
                        {
                            "@Nome": "Rodrigues Palma",
                            "@ideCadastro": "73650",
                            "@Partido": "PTB       ",
                            "@UF": "MT",
                            "@Voto": "Sim            "
                        },
                        {
                            "@Nome": "Rogério Silva",
                            "@ideCadastro": "73651",
                            "@Partido": "PFL       ",
                            "@UF": "MT",
                            "@Voto": "Sim            "
                        },
                        {
                            "@Nome": "Tete Bezerra ",
                            "@ideCadastro": "73652",
                            "@Partido": "PMDB      ",
                            "@UF": "MT",
                            "@Voto": "Sim            "
                        },
                        {
                            "@Nome": "Augusto Carvalho ",
                            "@ideCadastro": "73655",
                            "@Partido": "PPS       ",
                            "@UF": "DF",
                            "@Voto": "Sim            "
                        },
                        {
                            "@Nome": "Saulo Queiroz",
                            "@ideCadastro": "73763",
                            "@Partido": "PFL       ",
                            "@UF": "MS",
                            "@Voto": "Sim            "
                        },
                        {
                            "@Nome": "Welson Gasparini",
                            "@ideCadastro": "73644",
                            "@Partido": "PSDB      ",
                            "@UF": "SP",
                            "@Voto": "Sim            "
                        },
                        {
                            "@Nome": "Zulaiê Cobra",
                            "@ideCadastro": "73645",
                            "@Partido": "PSDB      ",
                            "@UF": "SP",
                            "@Voto": "Sim            "
                        },
                        {
                            "@Nome": "Paulo Cordeiro",
                            "@ideCadastro": "73785",
                            "@Partido": "PTB       ",
                            "@UF": "PR",
                            "@Voto": "Sim            "
                        },
                        {
                            "@Nome": "Abelardo Lupion",
                            "@ideCadastro": "73764",
                            "@Partido": "PFL       ",
                            "@UF": "PR",
                            "@Voto": "Sim            "
                        },
                        {
                            "@Nome": "Barbosa Neto ",
                            "@ideCadastro": "73663",
                            "@Partido": "PMDB      ",
                            "@UF": "GO",
                            "@Voto": "Sim            "
                        },
                        {
                            "@Nome": "João Natal",
                            "@ideCadastro": "73664",
                            "@Partido": "PMDB      ",
                            "@UF": "GO",
                            "@Voto": "Sim            "
                        },
                        {
                            "@Nome": "Jovair Arantes",
                            "@ideCadastro": "73666",
                            "@Partido": "PSDB      ",
                            "@UF": "GO",
                            "@Voto": "Sim            "
                        },
                        {
                            "@Nome": "Marconi Perillo",
                            "@ideCadastro": "73668",
                            "@Partido": "PSDB      ",
                            "@UF": "GO",
                            "@Voto": "Sim            "
                        },
                        {
                            "@Nome": "Orcino Gonçalves ",
                            "@ideCadastro": "73670",
                            "@Partido": "PMDB      ",
                            "@UF": "GO",
                            "@Voto": "Sim            "
                        },
                        {
                            "@Nome": "Vilmar Rocha",
                            "@ideCadastro": "73677",
                            "@Partido": "PFL       ",
                            "@UF": "GO",
                            "@Voto": "Sim            "
                        },
                        {
                            "@Nome": "Zé Gomes da Rocha",
                            "@ideCadastro": "73678",
                            "@Partido": "PSD       ",
                            "@UF": "GO",
                            "@Voto": "Sim            "
                        },
                        {
                            "@Nome": "Dilso Sperafico",
                            "@ideCadastro": "73680",
                            "@Partido": "PMDB      ",
                            "@UF": "MS",
                            "@Voto": "Sim            "
                        },
                        {
                            "@Nome": "Flávio Derzi ",
                            "@ideCadastro": "73758",
                            "@Partido": "PPB       ",
                            "@UF": "MS",
                            "@Voto": "Sim            "
                        },
                        {
                            "@Nome": "Marilu Guimarães ",
                            "@ideCadastro": "73759",
                            "@Partido": "PFL       ",
                            "@UF": "MS",
                            "@Voto": "Sim            "
                        },
                        {
                            "@Nome": "Marisa Serrano",
                            "@ideCadastro": "73760",
                            "@Partido": "PMDB      ",
                            "@UF": "MS",
                            "@Voto": "Sim            "
                        },
                        {
                            "@Nome": "Nelson Trad",
                            "@ideCadastro": "73761",
                            "@Partido": "PTB       ",
                            "@UF": "MS",
                            "@Voto": "Sim            "
                        },
                        {
                            "@Nome": "Darcísio Perondi",
                            "@ideCadastro": "73891",
                            "@Partido": "PMDB      ",
                            "@UF": "RS",
                            "@Voto": "Sim            "
                        },
                        {
                            "@Nome": "Affonso Camargo",
                            "@ideCadastro": "73765",
                            "@Partido": "PFL       ",
                            "@UF": "PR",
                            "@Voto": "Sim            "
                        },
                        {
                            "@Nome": "Antonio Ueno",
                            "@ideCadastro": "73766",
                            "@Partido": "PFL       ",
                            "@UF": "PR",
                            "@Voto": "Sim            "
                        },
                        {
                            "@Nome": "Flávio Arns",
                            "@ideCadastro": "73771",
                            "@Partido": "PSDB      ",
                            "@UF": "PR",
                            "@Voto": "Sim            "
                        },
                        {
                            "@Nome": "Hermes Parcianello ",
                            "@ideCadastro": "73772",
                            "@Partido": "PMDB      ",
                            "@UF": "PR",
                            "@Voto": "Sim            "
                        },
                        {
                            "@Nome": "Homero Oguidó",
                            "@ideCadastro": "73773",
                            "@Partido": "PMDB      ",
                            "@UF": "PR",
                            "@Voto": "Sim            "
                        },
                        {
                            "@Nome": "José Borba",
                            "@ideCadastro": "73775",
                            "@Partido": "PTB       ",
                            "@UF": "PR",
                            "@Voto": "Sim            "
                        },
                        {
                            "@Nome": "Luciano Pizzatto",
                            "@ideCadastro": "73777",
                            "@Partido": "PFL       ",
                            "@UF": "PR",
                            "@Voto": "Sim            "
                        },
                        {
                            "@Nome": "Luiz Carlos Hauly",
                            "@ideCadastro": "73778",
                            "@Partido": "PSDB      ",
                            "@UF": "PR",
                            "@Voto": "Sim            "
                        },
                        {
                            "@Nome": "Max Rosenmann",
                            "@ideCadastro": "73780",
                            "@Partido": "PMDB      ",
                            "@UF": "PR",
                            "@Voto": "Sim            "
                        },
                        {
                            "@Nome": "Odílio Balbinotti ",
                            "@ideCadastro": "73782",
                            "@Partido": "PTB       ",
                            "@UF": "PR",
                            "@Voto": "Sim            "
                        },
                        {
                            "@Nome": "Paulo Ritzel",
                            "@ideCadastro": "73911",
                            "@Partido": "PMDB      ",
                            "@UF": "RS",
                            "@Voto": "Sim            "
                        },
                        {
                            "@Nome": "Wilson Cignachi",
                            "@ideCadastro": "73991",
                            "@Partido": "PMDB      ",
                            "@UF": "RS",
                            "@Voto": "Sim            "
                        },
                        {
                            "@Nome": "Yeda Crusius",
                            "@ideCadastro": "73992",
                            "@Partido": "PSDB      ",
                            "@UF": "RS",
                            "@Voto": "Sim            "
                        },
                        {
                            "@Nome": "Eliseu Padilha",
                            "@ideCadastro": "73892",
                            "@Partido": "PMDB      ",
                            "@UF": "RS",
                            "@Voto": "Sim            "
                        },
                        {
                            "@Nome": "Werner Wanderer",
                            "@ideCadastro": "73792",
                            "@Partido": "PFL       ",
                            "@UF": "PR",
                            "@Voto": "Sim            "
                        },
                        {
                            "@Nome": "Edinho Bez",
                            "@ideCadastro": "73793",
                            "@Partido": "PMDB      ",
                            "@UF": "SC",
                            "@Voto": "Sim            "
                        },
                        {
                            "@Nome": "Edison Andrino",
                            "@ideCadastro": "73794",
                            "@Partido": "PMDB      ",
                            "@UF": "SC",
                            "@Voto": "Sim            "
                        },
                        {
                            "@Nome": "José Carlos Vieira",
                            "@ideCadastro": "73875",
                            "@Partido": "PFL       ",
                            "@UF": "SC",
                            "@Voto": "Sim            "
                        },
                        {
                            "@Nome": "Neuto de Conto",
                            "@ideCadastro": "73881",
                            "@Partido": "PMDB      ",
                            "@UF": "SC",
                            "@Voto": "Sim            "
                        },
                        {
                            "@Nome": "Paulo Bauer",
                            "@ideCadastro": "73882",
                            "@Partido": "PFL       ",
                            "@UF": "SC",
                            "@Voto": "Sim            "
                        },
                        {
                            "@Nome": "Paulo Bornhausen",
                            "@ideCadastro": "73883",
                            "@Partido": "PFL       ",
                            "@UF": "SC",
                            "@Voto": "Sim            "
                        },
                        {
                            "@Nome": "Paulo Gouvêa",
                            "@ideCadastro": "73884",
                            "@Partido": "PFL       ",
                            "@UF": "SC",
                            "@Voto": "Sim            "
                        },
                        {
                            "@Nome": "Jair Soares ",
                            "@ideCadastro": "73899",
                            "@Partido": "PFL       ",
                            "@UF": "RS",
                            "@Voto": "Sim            "
                        },
                        {
                            "@Nome": "Nelson Marchezan",
                            "@ideCadastro": "73906",
                            "@Partido": "PSDB      ",
                            "@UF": "RS",
                            "@Voto": "Sim            "
                        },
                        {
                            "@Nome": "Odacir Klein",
                            "@ideCadastro": "73908",
                            "@Partido": "PMDB      ",
                            "@UF": "RS",
                            "@Voto": "Sim            "
                        },
                        {
                            "@Nome": "Osvaldo Biolchi",
                            "@ideCadastro": "73909",
                            "@Partido": "PTB       ",
                            "@UF": "RS",
                            "@Voto": "Sim            "
                        },
                        {
                            "@Nome": "Antônio Aureliano",
                            "@ideCadastro": "74007",
                            "@Partido": "PSDB      ",
                            "@UF": "MG",
                            "@Voto": "Sim            "
                        },
                        {
                            "@Nome": "Ivo Mainardi",
                            "@ideCadastro": "74008",
                            "@Partido": "PMDB      ",
                            "@UF": "RS",
                            "@Voto": "Sim            "
                        },
                        {
                            "@Nome": "Valdir Colatto",
                            "@ideCadastro": "74010",
                            "@Partido": "PMDB      ",
                            "@UF": "SC",
                            "@Voto": "Sim            "
                        },
                        {
                            "@Nome": "Dejandir Dalpasquale",
                            "@ideCadastro": "74011",
                            "@Partido": "PMDB      ",
                            "@UF": "SC",
                            "@Voto": "Sim            "
                        },
                        {
                            "@Nome": "Costa Ferreira",
                            "@ideCadastro": "74016",
                            "@Partido": "PFL       ",
                            "@UF": "MA",
                            "@Voto": "Sim            "
                        },
                        {
                            "@Nome": "Arnaldo Madeira",
                            "@ideCadastro": "73993",
                            "@Partido": "PSDB      ",
                            "@UF": "SP",
                            "@Voto": "Sim            "
                        },
                        {
                            "@Nome": "Ezidio Pinheiro",
                            "@ideCadastro": "73895",
                            "@Partido": "PSDB      ",
                            "@UF": "RS",
                            "@Voto": "Sim            "
                        },
                        {
                            "@Nome": "Germano Rigotto ",
                            "@ideCadastro": "73897",
                            "@Partido": "PMDB      ",
                            "@UF": "RS",
                            "@Voto": "Sim            "
                        },
                        {
                            "@Nome": "Edson Silva",
                            "@ideCadastro": "74106",
                            "@Partido": "PSDB      ",
                            "@UF": "CE",
                            "@Voto": "Sim            "
                        },
                        {
                            "@Nome": "Oscar Andrade",
                            "@ideCadastro": "74109",
                            "@Partido": "PMDB      ",
                            "@UF": "RO",
                            "@Voto": "Sim            "
                        },
                        {
                            "@Nome": "Cláudio Chaves",
                            "@ideCadastro": "74110",
                            "@Partido": "PFL       ",
                            "@UF": "AM",
                            "@Voto": "Sim            "
                        },
                        {
                            "@Nome": "Pedro Henry",
                            "@ideCadastro": "74111",
                            "@Partido": "PSDB      ",
                            "@UF": "MT",
                            "@Voto": "Sim            "
                        },
                        {
                            "@Nome": "Murilo Domingos",
                            "@ideCadastro": "74112",
                            "@Partido": "PTB       ",
                            "@UF": "MT",
                            "@Voto": "Sim            "
                        },
                        {
                            "@Nome": "Mário Martins",
                            "@ideCadastro": "74114",
                            "@Partido": "PMDB      ",
                            "@UF": "PA",
                            "@Voto": "Sim            "
                        },
                        {
                            "@Nome": "Pedro Yves",
                            "@ideCadastro": "74115",
                            "@Partido": "PMDB      ",
                            "@UF": "SP",
                            "@Voto": "Sim            "
                        },
                        {
                            "@Nome": "Paulo Feijó",
                            "@ideCadastro": "74017",
                            "@Partido": "PSDB      ",
                            "@UF": "RJ",
                            "@Voto": "Sim            "
                        },
                        {
                            "@Nome": "Adroaldo Streck",
                            "@ideCadastro": "73996",
                            "@Partido": "PSDB      ",
                            "@UF": "RS",
                            "@Voto": "Sim            "
                        },
                        {
                            "@Nome": "Francisco Horta",
                            "@ideCadastro": "73997",
                            "@Partido": "PL        ",
                            "@UF": "MG",
                            "@Voto": "Sim            "
                        },
                        {
                            "@Nome": "Alexandre Ceranto",
                            "@ideCadastro": "73999",
                            "@Partido": "PFL       ",
                            "@UF": "PR",
                            "@Voto": "Sim            "
                        },
                        {
                            "@Nome": "Jaime Fernandes",
                            "@ideCadastro": "74001",
                            "@Partido": "PFL       ",
                            "@UF": "BA",
                            "@Voto": "Sim            "
                        },
                        {
                            "@Nome": "Ricardo Heráclio",
                            "@ideCadastro": "74003",
                            "@Partido": "PSB       ",
                            "@UF": "PE",
                            "@Voto": "Sim            "
                        },
                        {
                            "@Nome": "Pedro Valadares",
                            "@ideCadastro": "74102",
                            "@Partido": "PSB       ",
                            "@UF": "SE",
                            "@Voto": "Sim            "
                        },
                        {
                            "@Nome": "Marçal Filho",
                            "@ideCadastro": "74124",
                            "@Partido": "PMDB      ",
                            "@UF": "MS",
                            "@Voto": "Sim            "
                        },
                        {
                            "@Nome": "José Lourenço",
                            "@ideCadastro": "74125",
                            "@Partido": "PPB       ",
                            "@UF": "BA",
                            "@Voto": "Sim            "
                        },
                        {
                            "@Nome": "Djalma de Almeida Cesar",
                            "@ideCadastro": "74127",
                            "@Partido": "PMDB      ",
                            "@UF": "PR",
                            "@Voto": "Sim            "
                        },
                        {
                            "@Nome": "João Faustino",
                            "@ideCadastro": "74128",
                            "@Partido": "PSDB      ",
                            "@UF": "RN",
                            "@Voto": "Sim            "
                        },
                        {
                            "@Nome": "Moisés Bennesby ",
                            "@ideCadastro": "74129",
                            "@Partido": "PL        ",
                            "@UF": "RO",
                            "@Voto": "Sim            "
                        },
                        {
                            "@Nome": "João Carlos Bacelar",
                            "@ideCadastro": "74131",
                            "@Partido": "PSC       ",
                            "@UF": "BA",
                            "@Voto": "Sim            "
                        },
                        {
                            "@Nome": "Luiz Máximo",
                            "@ideCadastro": "74135",
                            "@Partido": "PSDB      ",
                            "@UF": "SP",
                            "@Voto": "Sim            "
                        },
                        {
                            "@Nome": "Alberico Filho",
                            "@ideCadastro": "74018",
                            "@Partido": "PMDB      ",
                            "@UF": "MA",
                            "@Voto": "Abstenção      "
                        },
                        {
                            "@Nome": "Ricardo Rique",
                            "@ideCadastro": "74023",
                            "@Partido": "PMDB      ",
                            "@UF": "PB",
                            "@Voto": "Sim            "
                        },
                        {
                            "@Nome": "Ayrton Xerez",
                            "@ideCadastro": "74024",
                            "@Partido": "PSDB      ",
                            "@UF": "RJ",
                            "@Voto": "Sim            "
                        },
                        {
                            "@Nome": "Oswaldo Soler",
                            "@ideCadastro": "74122",
                            "@Partido": "PSDB      ",
                            "@UF": "MT",
                            "@Voto": "Sim            "
                        },
                        {
                            "@Nome": "Asdrúbal Bentes",
                            "@ideCadastro": "74222",
                            "@Partido": "PMDB      ",
                            "@UF": "PA",
                            "@Voto": "Sim            "
                        },
                        {
                            "@Nome": "Flávio Palmier Da Veiga",
                            "@ideCadastro": "74223",
                            "@Partido": "PSDB      ",
                            "@UF": "RJ",
                            "@Voto": "Sim            "
                        },
                        {
                            "@Nome": "Sílvio Pessoa",
                            "@ideCadastro": "74229",
                            "@Partido": "PSDB      ",
                            "@UF": "PE",
                            "@Voto": "Sim            "
                        },
                        {
                            "@Nome": "Colbert Martins",
                            "@ideCadastro": "74230",
                            "@Partido": "PMDB      ",
                            "@UF": "BA",
                            "@Voto": "Sim            "
                        },
                        {
                            "@Nome": "Dalila Figueiredo",
                            "@ideCadastro": "74231",
                            "@Partido": "PSDB      ",
                            "@UF": "SP",
                            "@Voto": "Sim            "
                        },
                        {
                            "@Nome": "Raimundo Gomes de Matos",
                            "@ideCadastro": "74216",
                            "@Partido": "PSDB      ",
                            "@UF": "CE",
                            "@Voto": "Sim            "
                        },
                        {
                            "@Nome": "João Magalhães",
                            "@ideCadastro": "74120",
                            "@Partido": "PFL       ",
                            "@UF": "MG",
                            "@Voto": "Sim            "
                        },
                        {
                            "@Nome": "Arlindo Vargas",
                            "@ideCadastro": "74217",
                            "@Partido": "PTB       ",
                            "@UF": "RS",
                            "@Voto": "Sim            "
                        },
                        {
                            "@Nome": "Paes de Andrade",
                            "@ideCadastro": "74302",
                            "@Partido": "PMDB      ",
                            "@UF": "CE",
                            "@Voto": "Sim            "
                        },
                        {
                            "@Nome": "Pimentel Gomes",
                            "@ideCadastro": "74303",
                            "@Partido": "PSDB      ",
                            "@UF": "CE",
                            "@Voto": "Sim            "
                        },
                        {
                            "@Nome": "Rommel Feijó",
                            "@ideCadastro": "74306",
                            "@Partido": "PSDB      ",
                            "@UF": "CE",
                            "@Voto": "Sim            "
                        },
                        {
                            "@Nome": "Ubiratan Aguiar",
                            "@ideCadastro": "74307",
                            "@Partido": "PSDB      ",
                            "@UF": "CE",
                            "@Voto": "Sim            "
                        },
                        {
                            "@Nome": "Vicente Arruda",
                            "@ideCadastro": "74308",
                            "@Partido": "PSDB      ",
                            "@UF": "CE",
                            "@Voto": "Sim            "
                        },
                        {
                            "@Nome": "Alberto Silva",
                            "@ideCadastro": "74310",
                            "@Partido": "PMDB      ",
                            "@UF": "PI",
                            "@Voto": "Sim            "
                        },
                        {
                            "@Nome": "Ciro Nogueira",
                            "@ideCadastro": "74313",
                            "@Partido": "PFL       ",
                            "@UF": "PI",
                            "@Voto": "Sim            "
                        },
                        {
                            "@Nome": "Heraclito Fortes",
                            "@ideCadastro": "74315",
                            "@Partido": "PFL       ",
                            "@UF": "PI",
                            "@Voto": "Sim            "
                        },
                        {
                            "@Nome": "João Henrique",
                            "@ideCadastro": "74316",
                            "@Partido": "PMDB      ",
                            "@UF": "PI",
                            "@Voto": "Sim            "
                        },
                        {
                            "@Nome": "Júlio Cesar",
                            "@ideCadastro": "74317",
                            "@Partido": "PFL       ",
                            "@UF": "PI",
                            "@Voto": "Sim            "
                        },
                        {
                            "@Nome": "Mussa Demes",
                            "@ideCadastro": "74318",
                            "@Partido": "PFL       ",
                            "@UF": "PI",
                            "@Voto": "Sim            "
                        },
                        {
                            "@Nome": "Paes Landim",
                            "@ideCadastro": "74319",
                            "@Partido": "PFL       ",
                            "@UF": "PI",
                            "@Voto": "Sim            "
                        },
                        {
                            "@Nome": "Augusto Viveiros",
                            "@ideCadastro": "74320",
                            "@Partido": "PFL       ",
                            "@UF": "RN",
                            "@Voto": "Sim            "
                        },
                        {
                            "@Nome": "Betinho Rosado",
                            "@ideCadastro": "74321",
                            "@Partido": "PFL       ",
                            "@UF": "RN",
                            "@Voto": "Sim            "
                        },
                        {
                            "@Nome": "Cipriano Correia",
                            "@ideCadastro": "74323",
                            "@Partido": "PSDB      ",
                            "@UF": "RN",
                            "@Voto": "Sim            "
                        },
                        {
                            "@Nome": "Henrique Eduardo Alves",
                            "@ideCadastro": "74324",
                            "@Partido": "PMDB      ",
                            "@UF": "RN",
                            "@Voto": "Sim            "
                        },
                        {
                            "@Nome": "Mauro Fecury",
                            "@ideCadastro": "74206",
                            "@Partido": "PFL       ",
                            "@UF": "MA",
                            "@Voto": "Sim            "
                        },
                        {
                            "@Nome": "Pedro Novais",
                            "@ideCadastro": "74207",
                            "@Partido": "PMDB      ",
                            "@UF": "MA",
                            "@Voto": "Sim            "
                        },
                        {
                            "@Nome": "Sebastião Madeira",
                            "@ideCadastro": "74211",
                            "@Partido": "PSDB      ",
                            "@UF": "MA",
                            "@Voto": "Sim            "
                        },
                        {
                            "@Nome": "Aníbal Gomes",
                            "@ideCadastro": "74212",
                            "@Partido": "PMDB      ",
                            "@UF": "CE",
                            "@Voto": "Sim            "
                        },
                        {
                            "@Nome": "Antonio Balhmann ",
                            "@ideCadastro": "74213",
                            "@Partido": "PSDB      ",
                            "@UF": "CE",
                            "@Voto": "Sim            "
                        },
                        {
                            "@Nome": "Firmo de Castro",
                            "@ideCadastro": "74293",
                            "@Partido": "PSDB      ",
                            "@UF": "CE",
                            "@Voto": "Sim            "
                        },
                        {
                            "@Nome": "Gonzaga Mota",
                            "@ideCadastro": "74294",
                            "@Partido": "PMDB      ",
                            "@UF": "CE",
                            "@Voto": "Sim            "
                        },
                        {
                            "@Nome": "Leônidas Cristino",
                            "@ideCadastro": "74299",
                            "@Partido": "PSDB      ",
                            "@UF": "CE",
                            "@Voto": "Sim            "
                        },
                        {
                            "@Nome": "Jayme Santana",
                            "@ideCadastro": "74201",
                            "@Partido": "PSDB      ",
                            "@UF": "MA",
                            "@Voto": "Sim            "
                        },
                        {
                            "@Nome": "Célia Mendes",
                            "@ideCadastro": "74180",
                            "@Partido": "PFL       ",
                            "@UF": "AC",
                            "@Voto": "Sim            "
                        },
                        {
                            "@Nome": "Chicão Brígido",
                            "@ideCadastro": "74181",
                            "@Partido": "PMDB      ",
                            "@UF": "AC",
                            "@Voto": "Sim            "
                        },
                        {
                            "@Nome": "João Maia",
                            "@ideCadastro": "141459",
                            "@Partido": "PFL       ",
                            "@UF": "AC",
                            "@Voto": "Sim            "
                        },
                        {
                            "@Nome": "Ronivon Santiago",
                            "@ideCadastro": "74184",
                            "@Partido": "PFL       ",
                            "@UF": "AC",
                            "@Voto": "Sim            "
                        },
                        {
                            "@Nome": "Zila Bezerra",
                            "@ideCadastro": "74185",
                            "@Partido": "PFL       ",
                            "@UF": "AC",
                            "@Voto": "Sim            "
                        },
                        {
                            "@Nome": "Paulo Mourão",
                            "@ideCadastro": "74192",
                            "@Partido": "PSDB      ",
                            "@UF": "TO",
                            "@Voto": "Sim            "
                        },
                        {
                            "@Nome": "Udson Bandeira",
                            "@ideCadastro": "74193",
                            "@Partido": "PMDB      ",
                            "@UF": "TO",
                            "@Voto": "Sim            "
                        },
                        {
                            "@Nome": "Antonio Joaquim Araujo",
                            "@ideCadastro": "74194",
                            "@Partido": "PFL       ",
                            "@UF": "MA",
                            "@Voto": "Abstenção      "
                        },
                        {
                            "@Nome": "Cesar Bandeira",
                            "@ideCadastro": "74195",
                            "@Partido": "PFL       ",
                            "@UF": "MA",
                            "@Voto": "Sim            "
                        },
                        {
                            "@Nome": "Olávio Rocha",
                            "@ideCadastro": "74081",
                            "@Partido": "PSDB      ",
                            "@UF": "PA",
                            "@Voto": "Sim            "
                        },
                        {
                            "@Nome": "Socorro Gomes ",
                            "@ideCadastro": "74085",
                            "@Partido": "PCdoB     ",
                            "@UF": "PA",
                            "@Voto": "Não            "
                        },
                        {
                            "@Nome": "Vic Pires Franco",
                            "@ideCadastro": "74087",
                            "@Partido": "PFL       ",
                            "@UF": "PA",
                            "@Voto": "Sim            "
                        },
                        {
                            "@Nome": "Arthur Virgílio",
                            "@ideCadastro": "74089",
                            "@Partido": "PSDB      ",
                            "@UF": "AM",
                            "@Voto": "Sim            "
                        },
                        {
                            "@Nome": "João Thomé Mestrinho",
                            "@ideCadastro": "74092",
                            "@Partido": "PMDB      ",
                            "@UF": "AM",
                            "@Voto": "Sim            "
                        },
                        {
                            "@Nome": "Confúcio Moura",
                            "@ideCadastro": "74097",
                            "@Partido": "PMDB      ",
                            "@UF": "RO",
                            "@Voto": "Sim            "
                        },
                        {
                            "@Nome": "Emerson Olavo Pires",
                            "@ideCadastro": "74098",
                            "@Partido": "PMDB      ",
                            "@UF": "RO",
                            "@Voto": "Sim            "
                        },
                        {
                            "@Nome": "Expedito Júnior",
                            "@ideCadastro": "74100",
                            "@Partido": "PPB       ",
                            "@UF": "RO",
                            "@Voto": "Sim            "
                        },
                        {
                            "@Nome": "Marinha Raupp",
                            "@ideCadastro": "74177",
                            "@Partido": "PSDB      ",
                            "@UF": "RO",
                            "@Voto": "Sim            "
                        },
                        {
                            "@Nome": "Elton Rohnelt",
                            "@ideCadastro": "73980",
                            "@Partido": "PSC       ",
                            "@UF": "RR",
                            "@Voto": "Sim            "
                        },
                        {
                            "@Nome": "Luciano Castro",
                            "@ideCadastro": "73982",
                            "@Partido": "PSDB      ",
                            "@UF": "RR",
                            "@Voto": "Sim            "
                        },
                        {
                            "@Nome": "Moises Lipnik",
                            "@ideCadastro": "73984",
                            "@Partido": "PTB       ",
                            "@UF": "RR",
                            "@Voto": "Sim            "
                        },
                        {
                            "@Nome": "Fátima Pelaes",
                            "@ideCadastro": "74065",
                            "@Partido": "PSDB      ",
                            "@UF": "AP",
                            "@Voto": "Sim            "
                        },
                        {
                            "@Nome": "Murilo Pinheiro",
                            "@ideCadastro": "74067",
                            "@Partido": "PFL       ",
                            "@UF": "AP",
                            "@Voto": "Sim            "
                        },
                        {
                            "@Nome": "Raquel Capiberibe ",
                            "@ideCadastro": "74068",
                            "@Partido": "PSB       ",
                            "@UF": "AP",
                            "@Voto": "Sim            "
                        },
                        {
                            "@Nome": "Sérgio Barcellos",
                            "@ideCadastro": "74069",
                            "@Partido": "PFL       ",
                            "@UF": "AP",
                            "@Voto": "Sim            "
                        },
                        {
                            "@Nome": "Anivaldo Vale",
                            "@ideCadastro": "74072",
                            "@Partido": "PPB       ",
                            "@UF": "PA",
                            "@Voto": "Sim            "
                        },
                        {
                            "@Nome": "Elcione Barbalho",
                            "@ideCadastro": "74075",
                            "@Partido": "PMDB      ",
                            "@UF": "PA",
                            "@Voto": "Sim            "
                        },
                        {
                            "@Nome": "B. Sá",
                            "@ideCadastro": "74312",
                            "@Partido": "PSDB      ",
                            "@UF": "PI",
                            "@Voto": "Sim            "
                        }
                    ]
                }
            }
        }
    }
}