{
    "proposicao": {
        "Sigla": "PL",
        "Numero": "1670",
        "Ano": "1989",
        "Votacoes": {
            "Votacao": {
                "@Resumo": "",
                "@Data": "15/8/1995",
                "@Hora": "20:11",
                "@ObjVotacao": "REQUERIMENTO ADIAMENTO - 2 SESSOES.",
                "@codSessao": "1947",
                "votos": {
                    "Deputado": [
                        {
                            "@Nome": "José Aldemir",
                            "@ideCadastro": "74411",
                            "@Partido": "PMDB      ",
                            "@UF": "PB",
                            "@Voto": "Não            "
                        },
                        {
                            "@Nome": "José Luiz Clerot",
                            "@ideCadastro": "74412",
                            "@Partido": "PMDB      ",
                            "@UF": "PB",
                            "@Voto": "Sim            "
                        },
                        {
                            "@Nome": "Inocêncio Oliveira ",
                            "@ideCadastro": "74421",
                            "@Partido": "PFL       ",
                            "@UF": "PE",
                            "@Voto": "Não            "
                        },
                        {
                            "@Nome": "Roberto Fontes",
                            "@ideCadastro": "74432",
                            "@Partido": "PFL       ",
                            "@UF": "PE",
                            "@Voto": "Não            "
                        },
                        {
                            "@Nome": "Benedito de Lira",
                            "@ideCadastro": "74517",
                            "@Partido": "PFL       ",
                            "@UF": "AL",
                            "@Voto": "Não            "
                        },
                        {
                            "@Nome": "Adauto Pereira",
                            "@ideCadastro": "74328",
                            "@Partido": "PFL       ",
                            "@UF": "PB",
                            "@Voto": "Não            "
                        },
                        {
                            "@Nome": "Wilson Cunha",
                            "@ideCadastro": "73598",
                            "@Partido": "PFL       ",
                            "@UF": "SE",
                            "@Voto": "Não            "
                        },
                        {
                            "@Nome": "Aroldo Cedraz",
                            "@ideCadastro": "74534",
                            "@Partido": "PFL       ",
                            "@UF": "BA",
                            "@Voto": "Não            "
                        },
                        {
                            "@Nome": "Benito Gama",
                            "@ideCadastro": "74535",
                            "@Partido": "PFL       ",
                            "@UF": "BA",
                            "@Voto": "Não            "
                        },
                        {
                            "@Nome": "Claudio Cajado",
                            "@ideCadastro": "74537",
                            "@Partido": "PFL       ",
                            "@UF": "BA",
                            "@Voto": "Não            "
                        },
                        {
                            "@Nome": "Domingos Leonelli",
                            "@ideCadastro": "74539",
                            "@Partido": "PSDB      ",
                            "@UF": "BA",
                            "@Voto": "Sim            "
                        },
                        {
                            "@Nome": "Félix Mendonça",
                            "@ideCadastro": "74542",
                            "@Partido": "PTB       ",
                            "@UF": "BA",
                            "@Voto": "Sim            "
                        },
                        {
                            "@Nome": "Fernando Gomes",
                            "@ideCadastro": "74543",
                            "@Partido": "PMDB      ",
                            "@UF": "BA",
                            "@Voto": "Não            "
                        },
                        {
                            "@Nome": "Geddel Vieira Lima",
                            "@ideCadastro": "74544",
                            "@Partido": "PMDB      ",
                            "@UF": "BA",
                            "@Voto": "Sim            "
                        },
                        {
                            "@Nome": "Mendonça Filho",
                            "@ideCadastro": "74428",
                            "@Partido": "PFL       ",
                            "@UF": "PE",
                            "@Voto": "Não            "
                        },
                        {
                            "@Nome": "Adelson Ribeiro",
                            "@ideCadastro": "74524",
                            "@Partido": "PSDB      ",
                            "@UF": "SE",
                            "@Voto": "Sim            "
                        },
                        {
                            "@Nome": "Carlos Magno",
                            "@ideCadastro": "160605",
                            "@Partido": "PFL       ",
                            "@UF": "SE",
                            "@Voto": "Não            "
                        },
                        {
                            "@Nome": "Marcelo Déda",
                            "@ideCadastro": "74530",
                            "@Partido": "PT        ",
                            "@UF": "SE",
                            "@Voto": "Não            "
                        },
                        {
                            "@Nome": "João Fassarella",
                            "@ideCadastro": "74667",
                            "@Partido": "PT        ",
                            "@UF": "MG",
                            "@Voto": "Não            "
                        },
                        {
                            "@Nome": "José Rezende",
                            "@ideCadastro": "74740",
                            "@Partido": "PTB       ",
                            "@UF": "MG",
                            "@Voto": "Não            "
                        },
                        {
                            "@Nome": "Jairo Carneiro",
                            "@ideCadastro": "74547",
                            "@Partido": "PFL       ",
                            "@UF": "BA",
                            "@Voto": "Não            "
                        },
                        {
                            "@Nome": "João Almeida",
                            "@ideCadastro": "74549",
                            "@Partido": "PMDB      ",
                            "@UF": "BA",
                            "@Voto": "Não            "
                        },
                        {
                            "@Nome": "José Carlos Aleluia ",
                            "@ideCadastro": "74553",
                            "@Partido": "PFL       ",
                            "@UF": "BA",
                            "@Voto": "Não            "
                        },
                        {
                            "@Nome": "José Rocha",
                            "@ideCadastro": "74554",
                            "@Partido": "PFL       ",
                            "@UF": "BA",
                            "@Voto": "Não            "
                        },
                        {
                            "@Nome": "Luís Eduardo",
                            "@ideCadastro": "74630",
                            "@Partido": "PFL       ",
                            "@UF": "BA",
                            "@Voto": "Abstenção      "
                        },
                        {
                            "@Nome": "Luiz Braga",
                            "@ideCadastro": "74631",
                            "@Partido": "PFL       ",
                            "@UF": "BA",
                            "@Voto": "Não            "
                        },
                        {
                            "@Nome": "Manoel Castro",
                            "@ideCadastro": "74633",
                            "@Partido": "PFL       ",
                            "@UF": "BA",
                            "@Voto": "Não            "
                        },
                        {
                            "@Nome": "Nestor Duarte",
                            "@ideCadastro": "74636",
                            "@Partido": "PMDB      ",
                            "@UF": "BA",
                            "@Voto": "Não            "
                        },
                        {
                            "@Nome": "Roberto Santos",
                            "@ideCadastro": "74639",
                            "@Partido": "PSDB      ",
                            "@UF": "BA",
                            "@Voto": "Não            "
                        },
                        {
                            "@Nome": "Simara Ellery",
                            "@ideCadastro": "74642",
                            "@Partido": "PMDB      ",
                            "@UF": "BA",
                            "@Voto": "Não            "
                        },
                        {
                            "@Nome": "Ursicino Queiroz",
                            "@ideCadastro": "74644",
                            "@Partido": "PFL       ",
                            "@UF": "BA",
                            "@Voto": "Não            "
                        },
                        {
                            "@Nome": "Jairo Azi",
                            "@ideCadastro": "74546",
                            "@Partido": "PFL       ",
                            "@UF": "BA",
                            "@Voto": "Não            "
                        },
                        {
                            "@Nome": "Jair Siqueira",
                            "@ideCadastro": "74666",
                            "@Partido": "PFL       ",
                            "@UF": "MG",
                            "@Voto": "Não            "
                        },
                        {
                            "@Nome": "Ronaldo Perim",
                            "@ideCadastro": "74760",
                            "@Partido": "PMDB      ",
                            "@UF": "MG",
                            "@Voto": "Não            "
                        },
                        {
                            "@Nome": "Sandra Starling",
                            "@ideCadastro": "74761",
                            "@Partido": "PT        ",
                            "@UF": "MG",
                            "@Voto": "Não            "
                        },
                        {
                            "@Nome": "Silas Brasileiro ",
                            "@ideCadastro": "74765",
                            "@Partido": "PMDB      ",
                            "@UF": "MG",
                            "@Voto": "Não            "
                        },
                        {
                            "@Nome": "Antônio do Valle",
                            "@ideCadastro": "74647",
                            "@Partido": "PMDB      ",
                            "@UF": "MG",
                            "@Voto": "Não            "
                        },
                        {
                            "@Nome": "Aracely de Paula ",
                            "@ideCadastro": "74648",
                            "@Partido": "PFL       ",
                            "@UF": "MG",
                            "@Voto": "Abstenção      "
                        },
                        {
                            "@Nome": "Armando Costa",
                            "@ideCadastro": "74649",
                            "@Partido": "PMDB      ",
                            "@UF": "MG",
                            "@Voto": "Não            "
                        },
                        {
                            "@Nome": "Carlos Melles",
                            "@ideCadastro": "74651",
                            "@Partido": "PFL       ",
                            "@UF": "MG",
                            "@Voto": "Não            "
                        },
                        {
                            "@Nome": "Chico Ferramenta",
                            "@ideCadastro": "74653",
                            "@Partido": "PT        ",
                            "@UF": "MG",
                            "@Voto": "Não            "
                        },
                        {
                            "@Nome": "Fernando Diniz",
                            "@ideCadastro": "74658",
                            "@Partido": "PMDB      ",
                            "@UF": "MG",
                            "@Voto": "Não            "
                        },
                        {
                            "@Nome": "Genésio Bernardino ",
                            "@ideCadastro": "74659",
                            "@Partido": "PMDB      ",
                            "@UF": "MG",
                            "@Voto": "Não            "
                        },
                        {
                            "@Nome": "Humberto Souto",
                            "@ideCadastro": "74662",
                            "@Partido": "PFL       ",
                            "@UF": "MG",
                            "@Voto": "Não            "
                        },
                        {
                            "@Nome": "Ibrahim Abi-Ackel",
                            "@ideCadastro": "74663",
                            "@Partido": "PPR       ",
                            "@UF": "MG",
                            "@Voto": "Sim            "
                        },
                        {
                            "@Nome": "Jaime Martins",
                            "@ideCadastro": "74665",
                            "@Partido": "PFL       ",
                            "@UF": "MG",
                            "@Voto": "Não            "
                        },
                        {
                            "@Nome": "Candinho Mattos",
                            "@ideCadastro": "74834",
                            "@Partido": "PMDB      ",
                            "@UF": "RJ",
                            "@Voto": "Não            "
                        },
                        {
                            "@Nome": "Leopoldo Bessone",
                            "@ideCadastro": "74743",
                            "@Partido": "PTB       ",
                            "@UF": "MG",
                            "@Voto": "Não            "
                        },
                        {
                            "@Nome": "Mauro Lopes",
                            "@ideCadastro": "74749",
                            "@Partido": "PFL       ",
                            "@UF": "MG",
                            "@Voto": "Não            "
                        },
                        {
                            "@Nome": "Newton Cardoso",
                            "@ideCadastro": "74750",
                            "@Partido": "PMDB      ",
                            "@UF": "MG",
                            "@Voto": "Não            "
                        },
                        {
                            "@Nome": "Nilmário Miranda",
                            "@ideCadastro": "74751",
                            "@Partido": "PT        ",
                            "@UF": "MG",
                            "@Voto": "Não            "
                        },
                        {
                            "@Nome": "Osmânio Pereira",
                            "@ideCadastro": "74753",
                            "@Partido": "PSDB      ",
                            "@UF": "MG",
                            "@Voto": "Sim            "
                        },
                        {
                            "@Nome": "Paulo Delgado",
                            "@ideCadastro": "74754",
                            "@Partido": "PT        ",
                            "@UF": "MG",
                            "@Voto": "Não            "
                        },
                        {
                            "@Nome": "Raul Belém",
                            "@ideCadastro": "74757",
                            "@Partido": "PFL       ",
                            "@UF": "MG",
                            "@Voto": "Não            "
                        },
                        {
                            "@Nome": "Milton Temer",
                            "@ideCadastro": "74861",
                            "@Partido": "PT        ",
                            "@UF": "RJ",
                            "@Voto": "Não            "
                        },
                        {
                            "@Nome": "Tilden Santiago",
                            "@ideCadastro": "74767",
                            "@Partido": "PT        ",
                            "@UF": "MG",
                            "@Voto": "Não            "
                        },
                        {
                            "@Nome": "Adelson Salvador",
                            "@ideCadastro": "74770",
                            "@Partido": "PSB       ",
                            "@UF": "ES",
                            "@Voto": "Não            "
                        },
                        {
                            "@Nome": "Feu Rosa",
                            "@ideCadastro": "74771",
                            "@Partido": "PSDB      ",
                            "@UF": "ES",
                            "@Voto": "Não            "
                        },
                        {
                            "@Nome": "Jorge Anders",
                            "@ideCadastro": "74773",
                            "@Partido": "PSDB      ",
                            "@UF": "ES",
                            "@Voto": "Não            "
                        },
                        {
                            "@Nome": "Nilton Baiano",
                            "@ideCadastro": "74776",
                            "@Partido": "PMDB      ",
                            "@UF": "ES",
                            "@Voto": "Não            "
                        },
                        {
                            "@Nome": "Roberto Valadão",
                            "@ideCadastro": "74826",
                            "@Partido": "PMDB      ",
                            "@UF": "ES",
                            "@Voto": "Não            "
                        },
                        {
                            "@Nome": "Lima Netto",
                            "@ideCadastro": "74857",
                            "@Partido": "PFL       ",
                            "@UF": "RJ",
                            "@Voto": "Não            "
                        },
                        {
                            "@Nome": "Simão Sessim",
                            "@ideCadastro": "73424",
                            "@Partido": "PPR       ",
                            "@UF": "RJ",
                            "@Voto": "Não            "
                        },
                        {
                            "@Nome": "Alberto Goldman ",
                            "@ideCadastro": "73427",
                            "@Partido": "PMDB      ",
                            "@UF": "SP",
                            "@Voto": "Não            "
                        },
                        {
                            "@Nome": "Aloysio Nunes Ferreira",
                            "@ideCadastro": "73430",
                            "@Partido": "PMDB      ",
                            "@UF": "SP",
                            "@Voto": "Abstenção      "
                        },
                        {
                            "@Nome": "Arnaldo Faria de Sá",
                            "@ideCadastro": "73434",
                            "@Partido": "PPR       ",
                            "@UF": "SP",
                            "@Voto": "Sim            "
                        },
                        {
                            "@Nome": "Ary Kara ",
                            "@ideCadastro": "73435",
                            "@Partido": "PMDB      ",
                            "@UF": "SP",
                            "@Voto": "Não            "
                        },
                        {
                            "@Nome": "Ayres da Cunha",
                            "@ideCadastro": "73436",
                            "@Partido": "PFL       ",
                            "@UF": "SP",
                            "@Voto": "Não            "
                        },
                        {
                            "@Nome": "Beto Mansur",
                            "@ideCadastro": "73437",
                            "@Partido": "PPR       ",
                            "@UF": "SP",
                            "@Voto": "Não            "
                        },
                        {
                            "@Nome": "Miro Teixeira",
                            "@ideCadastro": "74862",
                            "@Partido": "PDT       ",
                            "@UF": "RJ",
                            "@Voto": "Sim            "
                        },
                        {
                            "@Nome": "Jair Bolsonaro",
                            "@ideCadastro": "74847",
                            "@Partido": "PPR       ",
                            "@UF": "RJ",
                            "@Voto": "Sim            "
                        },
                        {
                            "@Nome": "Rubem Medina",
                            "@ideCadastro": "73422",
                            "@Partido": "PFL       ",
                            "@UF": "RJ",
                            "@Voto": "Não            "
                        },
                        {
                            "@Nome": "Cunha Lima",
                            "@ideCadastro": "73444",
                            "@Partido": "S.Part.   ",
                            "@UF": "SP",
                            "@Voto": "Sim            "
                        },
                        {
                            "@Nome": "Edinho Araújo ",
                            "@ideCadastro": "73447",
                            "@Partido": "PMDB      ",
                            "@UF": "SP",
                            "@Voto": "Não            "
                        },
                        {
                            "@Nome": "Eduardo Jorge",
                            "@ideCadastro": "73448",
                            "@Partido": "PT        ",
                            "@UF": "SP",
                            "@Voto": "Não            "
                        },
                        {
                            "@Nome": "Hélio Bicudo",
                            "@ideCadastro": "73453",
                            "@Partido": "PT        ",
                            "@UF": "SP",
                            "@Voto": "Não            "
                        },
                        {
                            "@Nome": "Jair Meneguelli",
                            "@ideCadastro": "73532",
                            "@Partido": "PT        ",
                            "@UF": "SP",
                            "@Voto": "Não            "
                        },
                        {
                            "@Nome": "João Paulo ",
                            "@ideCadastro": "73534",
                            "@Partido": "PT        ",
                            "@UF": "SP",
                            "@Voto": "Não            "
                        },
                        {
                            "@Nome": "Jorge Tadeu Mudalen ",
                            "@ideCadastro": "73535",
                            "@Partido": "PMDB      ",
                            "@UF": "SP",
                            "@Voto": "Não            "
                        },
                        {
                            "@Nome": "José Augusto",
                            "@ideCadastro": "73537",
                            "@Partido": "PT        ",
                            "@UF": "SP",
                            "@Voto": "Não            "
                        },
                        {
                            "@Nome": "Carlos Apolinário",
                            "@ideCadastro": "73438",
                            "@Partido": "PMDB      ",
                            "@UF": "SP",
                            "@Voto": "Não            "
                        },
                        {
                            "@Nome": "José Coimbra",
                            "@ideCadastro": "73538",
                            "@Partido": "PTB       ",
                            "@UF": "SP",
                            "@Voto": "Não            "
                        },
                        {
                            "@Nome": "Moreira Franco",
                            "@ideCadastro": "74863",
                            "@Partido": "PMDB      ",
                            "@UF": "RJ",
                            "@Voto": "Não            "
                        },
                        {
                            "@Nome": "Noel de Oliveira",
                            "@ideCadastro": "73418",
                            "@Partido": "PMDB      ",
                            "@UF": "RJ",
                            "@Voto": "Não            "
                        },
                        {
                            "@Nome": "José Pinotti",
                            "@ideCadastro": "73542",
                            "@Partido": "PMDB      ",
                            "@UF": "SP",
                            "@Voto": "Não            "
                        },
                        {
                            "@Nome": "Jurandyr Paixão",
                            "@ideCadastro": "73543",
                            "@Partido": "PMDB      ",
                            "@UF": "SP",
                            "@Voto": "Não            "
                        },
                        {
                            "@Nome": "Luiz Carlos Santos ",
                            "@ideCadastro": "73546",
                            "@Partido": "PMDB      ",
                            "@UF": "SP",
                            "@Voto": "Não            "
                        },
                        {
                            "@Nome": "Maurício Najar",
                            "@ideCadastro": "73551",
                            "@Partido": "PFL       ",
                            "@UF": "SP",
                            "@Voto": "Não            "
                        },
                        {
                            "@Nome": "Michel Temer",
                            "@ideCadastro": "73552",
                            "@Partido": "PMDB      ",
                            "@UF": "SP",
                            "@Voto": "Não            "
                        },
                        {
                            "@Nome": "Regis de Oliveira",
                            "@ideCadastro": "73556",
                            "@Partido": "PSDB      ",
                            "@UF": "SP",
                            "@Voto": "Não            "
                        },
                        {
                            "@Nome": "Ricardo Izar",
                            "@ideCadastro": "73557",
                            "@Partido": "PPR       ",
                            "@UF": "SP",
                            "@Voto": "Não            "
                        },
                        {
                            "@Nome": "Silvio Torres",
                            "@ideCadastro": "73560",
                            "@Partido": "PSDB      ",
                            "@UF": "SP",
                            "@Voto": "Não            "
                        },
                        {
                            "@Nome": "Tuga Angerami",
                            "@ideCadastro": "73562",
                            "@Partido": "PSDB      ",
                            "@UF": "SP",
                            "@Voto": "Sim            "
                        },
                        {
                            "@Nome": "Carlos Nelson",
                            "@ideCadastro": "73439",
                            "@Partido": "PMDB      ",
                            "@UF": "SP",
                            "@Voto": "Não            "
                        },
                        {
                            "@Nome": "Celso Daniel",
                            "@ideCadastro": "73440",
                            "@Partido": "PT        ",
                            "@UF": "SP",
                            "@Voto": "Não            "
                        },
                        {
                            "@Nome": "Celso Russomanno",
                            "@ideCadastro": "73441",
                            "@Partido": "PSDB      ",
                            "@UF": "SP",
                            "@Voto": "Sim            "
                        },
                        {
                            "@Nome": "Corauci Sobrinho",
                            "@ideCadastro": "73442",
                            "@Partido": "PFL       ",
                            "@UF": "SP",
                            "@Voto": "Não            "
                        },
                        {
                            "@Nome": "José Genoíno",
                            "@ideCadastro": "73540",
                            "@Partido": "PT        ",
                            "@UF": "SP",
                            "@Voto": "Não            "
                        },
                        {
                            "@Nome": "José Machado ",
                            "@ideCadastro": "73541",
                            "@Partido": "PT        ",
                            "@UF": "SP",
                            "@Voto": "Não            "
                        },
                        {
                            "@Nome": "Saulo Queiroz",
                            "@ideCadastro": "73763",
                            "@Partido": "PFL       ",
                            "@UF": "MS",
                            "@Voto": "Não            "
                        },
                        {
                            "@Nome": "Welson Gasparini",
                            "@ideCadastro": "73644",
                            "@Partido": "PPR       ",
                            "@UF": "SP",
                            "@Voto": "Sim            "
                        },
                        {
                            "@Nome": "Paulo Cordeiro",
                            "@ideCadastro": "73785",
                            "@Partido": "PTB       ",
                            "@UF": "PR",
                            "@Voto": "Não            "
                        },
                        {
                            "@Nome": "Abelardo Lupion",
                            "@ideCadastro": "73764",
                            "@Partido": "PFL       ",
                            "@UF": "PR",
                            "@Voto": "Não            "
                        },
                        {
                            "@Nome": "Renato Johnsson",
                            "@ideCadastro": "73787",
                            "@Partido": "PP        ",
                            "@UF": "PR",
                            "@Voto": "Não            "
                        },
                        {
                            "@Nome": "Ricardo Barros",
                            "@ideCadastro": "73788",
                            "@Partido": "PFL       ",
                            "@UF": "PR",
                            "@Voto": "Não            "
                        },
                        {
                            "@Nome": "Barbosa Neto ",
                            "@ideCadastro": "73663",
                            "@Partido": "PMDB      ",
                            "@UF": "GO",
                            "@Voto": "Não            "
                        },
                        {
                            "@Nome": "Maria Valadão",
                            "@ideCadastro": "73669",
                            "@Partido": "PPR       ",
                            "@UF": "GO",
                            "@Voto": "Sim            "
                        },
                        {
                            "@Nome": "Orcino Gonçalves ",
                            "@ideCadastro": "73670",
                            "@Partido": "PMDB      ",
                            "@UF": "GO",
                            "@Voto": "Não            "
                        },
                        {
                            "@Nome": "Pedro Wilson",
                            "@ideCadastro": "73673",
                            "@Partido": "PT        ",
                            "@UF": "GO",
                            "@Voto": "Não            "
                        },
                        {
                            "@Nome": "Rubens Cosac",
                            "@ideCadastro": "73675",
                            "@Partido": "PMDB      ",
                            "@UF": "GO",
                            "@Voto": "Sim            "
                        },
                        {
                            "@Nome": "Sandro Mabel",
                            "@ideCadastro": "73676",
                            "@Partido": "PMDB      ",
                            "@UF": "GO",
                            "@Voto": "Não            "
                        },
                        {
                            "@Nome": "Vilmar Rocha",
                            "@ideCadastro": "73677",
                            "@Partido": "PFL       ",
                            "@UF": "GO",
                            "@Voto": "Não            "
                        },
                        {
                            "@Nome": "André Puccinelli",
                            "@ideCadastro": "73679",
                            "@Partido": "PMDB      ",
                            "@UF": "MS",
                            "@Voto": "Não            "
                        },
                        {
                            "@Nome": "Marilu Guimarães ",
                            "@ideCadastro": "73759",
                            "@Partido": "PFL       ",
                            "@UF": "MS",
                            "@Voto": "Não            "
                        },
                        {
                            "@Nome": "Nelson Trad",
                            "@ideCadastro": "73761",
                            "@Partido": "PTB       ",
                            "@UF": "MS",
                            "@Voto": "Sim            "
                        },
                        {
                            "@Nome": "Adylson Motta",
                            "@ideCadastro": "73887",
                            "@Partido": "PPR       ",
                            "@UF": "RS",
                            "@Voto": "Sim            "
                        },
                        {
                            "@Nome": "Augusto Nardes",
                            "@ideCadastro": "73889",
                            "@Partido": "PPR       ",
                            "@UF": "RS",
                            "@Voto": "Abstenção      "
                        },
                        {
                            "@Nome": "Elias Abrahão",
                            "@ideCadastro": "73769",
                            "@Partido": "PMDB      ",
                            "@UF": "PR",
                            "@Voto": "Não            "
                        },
                        {
                            "@Nome": "Hermes Parcianello ",
                            "@ideCadastro": "73772",
                            "@Partido": "PMDB      ",
                            "@UF": "PR",
                            "@Voto": "Não            "
                        },
                        {
                            "@Nome": "Homero Oguidó",
                            "@ideCadastro": "73773",
                            "@Partido": "PMDB      ",
                            "@UF": "PR",
                            "@Voto": "Não            "
                        },
                        {
                            "@Nome": "José Borba",
                            "@ideCadastro": "73775",
                            "@Partido": "PTB       ",
                            "@UF": "PR",
                            "@Voto": "Não            "
                        },
                        {
                            "@Nome": "Maurício Requião",
                            "@ideCadastro": "73779",
                            "@Partido": "PMDB      ",
                            "@UF": "PR",
                            "@Voto": "Não            "
                        },
                        {
                            "@Nome": "Max Rosenmann",
                            "@ideCadastro": "73780",
                            "@Partido": "S.Part.   ",
                            "@UF": "PR",
                            "@Voto": "Não            "
                        },
                        {
                            "@Nome": "Odílio Balbinotti ",
                            "@ideCadastro": "73782",
                            "@Partido": "S.Part.   ",
                            "@UF": "PR",
                            "@Voto": "Não            "
                        },
                        {
                            "@Nome": "Padre Roque",
                            "@ideCadastro": "73783",
                            "@Partido": "PT        ",
                            "@UF": "PR",
                            "@Voto": "Não            "
                        },
                        {
                            "@Nome": "Adão Pretto ",
                            "@ideCadastro": "73886",
                            "@Partido": "PT        ",
                            "@UF": "RS",
                            "@Voto": "Não            "
                        },
                        {
                            "@Nome": "Paulo Paim",
                            "@ideCadastro": "73910",
                            "@Partido": "PT        ",
                            "@UF": "RS",
                            "@Voto": "Não            "
                        },
                        {
                            "@Nome": "Paulo Ritzel",
                            "@ideCadastro": "73911",
                            "@Partido": "PMDB      ",
                            "@UF": "RS",
                            "@Voto": "Não            "
                        },
                        {
                            "@Nome": "Vilson Santini",
                            "@ideCadastro": "73791",
                            "@Partido": "PTB       ",
                            "@UF": "PR",
                            "@Voto": "Abstenção      "
                        },
                        {
                            "@Nome": "Werner Wanderer",
                            "@ideCadastro": "73792",
                            "@Partido": "PFL       ",
                            "@UF": "PR",
                            "@Voto": "Não            "
                        },
                        {
                            "@Nome": "Edinho Bez",
                            "@ideCadastro": "73793",
                            "@Partido": "PMDB      ",
                            "@UF": "SC",
                            "@Voto": "Não            "
                        },
                        {
                            "@Nome": "Edison Andrino",
                            "@ideCadastro": "73794",
                            "@Partido": "PMDB      ",
                            "@UF": "SC",
                            "@Voto": "Sim            "
                        },
                        {
                            "@Nome": "João Pizzolatti",
                            "@ideCadastro": "73874",
                            "@Partido": "PPR       ",
                            "@UF": "SC",
                            "@Voto": "Sim            "
                        },
                        {
                            "@Nome": "José Carlos Vieira",
                            "@ideCadastro": "73875",
                            "@Partido": "PFL       ",
                            "@UF": "SC",
                            "@Voto": "Não            "
                        },
                        {
                            "@Nome": "Mário Cavallazzi",
                            "@ideCadastro": "73879",
                            "@Partido": "PPR       ",
                            "@UF": "SC",
                            "@Voto": "Sim            "
                        },
                        {
                            "@Nome": "Milton Mendes",
                            "@ideCadastro": "73880",
                            "@Partido": "PT        ",
                            "@UF": "SC",
                            "@Voto": "Não            "
                        },
                        {
                            "@Nome": "Paulo Bornhausen",
                            "@ideCadastro": "73883",
                            "@Partido": "PFL       ",
                            "@UF": "SC",
                            "@Voto": "Não            "
                        },
                        {
                            "@Nome": "Paulo Gouvêa",
                            "@ideCadastro": "73884",
                            "@Partido": "PFL       ",
                            "@UF": "SC",
                            "@Voto": "Não            "
                        },
                        {
                            "@Nome": "Hugo Lagranha",
                            "@ideCadastro": "73898",
                            "@Partido": "PTB       ",
                            "@UF": "RS",
                            "@Voto": "Sim            "
                        },
                        {
                            "@Nome": "Jarbas Lima",
                            "@ideCadastro": "73900",
                            "@Partido": "PPR       ",
                            "@UF": "RS",
                            "@Voto": "Sim            "
                        },
                        {
                            "@Nome": "Jose Fortunati",
                            "@ideCadastro": "73901",
                            "@Partido": "PT        ",
                            "@UF": "RS",
                            "@Voto": "Não            "
                        },
                        {
                            "@Nome": "Luiz Mainardi",
                            "@ideCadastro": "73902",
                            "@Partido": "PT        ",
                            "@UF": "RS",
                            "@Voto": "Não            "
                        },
                        {
                            "@Nome": "Miguel Rossetto",
                            "@ideCadastro": "73905",
                            "@Partido": "PT        ",
                            "@UF": "RS",
                            "@Voto": "Não            "
                        },
                        {
                            "@Nome": "Nelson Marchezan",
                            "@ideCadastro": "73906",
                            "@Partido": "PPR       ",
                            "@UF": "RS",
                            "@Voto": "Não            "
                        },
                        {
                            "@Nome": "Osvaldo Biolchi",
                            "@ideCadastro": "73909",
                            "@Partido": "PTB       ",
                            "@UF": "RS",
                            "@Voto": "Não            "
                        },
                        {
                            "@Nome": "Ivo Mainardi",
                            "@ideCadastro": "74008",
                            "@Partido": "PMDB      ",
                            "@UF": "RS",
                            "@Voto": "Não            "
                        },
                        {
                            "@Nome": "Valdir Colatto",
                            "@ideCadastro": "74010",
                            "@Partido": "PMDB      ",
                            "@UF": "SC",
                            "@Voto": "Não            "
                        },
                        {
                            "@Nome": "Rivaldo Macari",
                            "@ideCadastro": "74012",
                            "@Partido": "PMDB      ",
                            "@UF": "SC",
                            "@Voto": "Não            "
                        },
                        {
                            "@Nome": "Costa Ferreira",
                            "@ideCadastro": "74016",
                            "@Partido": "PP        ",
                            "@UF": "MA",
                            "@Voto": "Sim            "
                        },
                        {
                            "@Nome": "Arnaldo Madeira",
                            "@ideCadastro": "73993",
                            "@Partido": "PSDB      ",
                            "@UF": "SP",
                            "@Voto": "Sim            "
                        },
                        {
                            "@Nome": "José Tude",
                            "@ideCadastro": "74006",
                            "@Partido": "PTB       ",
                            "@UF": "BA",
                            "@Voto": "Não            "
                        },
                        {
                            "@Nome": "Wilson Branco",
                            "@ideCadastro": "73995",
                            "@Partido": "PMDB      ",
                            "@UF": "RS",
                            "@Voto": "Sim            "
                        },
                        {
                            "@Nome": "Alexandre Ceranto",
                            "@ideCadastro": "73999",
                            "@Partido": "PFL       ",
                            "@UF": "PR",
                            "@Voto": "Não            "
                        },
                        {
                            "@Nome": "Chico da Princesa",
                            "@ideCadastro": "74000",
                            "@Partido": "PTB       ",
                            "@UF": "PR",
                            "@Voto": "Não            "
                        },
                        {
                            "@Nome": "Jaime Fernandes",
                            "@ideCadastro": "74001",
                            "@Partido": "PFL       ",
                            "@UF": "BA",
                            "@Voto": "Não            "
                        },
                        {
                            "@Nome": "Luis Roberto Ponte",
                            "@ideCadastro": "74002",
                            "@Partido": "PMDB      ",
                            "@UF": "RS",
                            "@Voto": "Não            "
                        },
                        {
                            "@Nome": "Carlos da Carbras",
                            "@ideCadastro": "74004",
                            "@Partido": "PFL       ",
                            "@UF": "AM",
                            "@Voto": "Não            "
                        },
                        {
                            "@Nome": "Nair Xavier Lobo",
                            "@ideCadastro": "74021",
                            "@Partido": "PMDB      ",
                            "@UF": "GO",
                            "@Voto": "Não            "
                        },
                        {
                            "@Nome": "Raimundo Bezerra",
                            "@ideCadastro": "74025",
                            "@Partido": "PMDB      ",
                            "@UF": "CE",
                            "@Voto": "Não            "
                        },
                        {
                            "@Nome": "Heraclito Fortes",
                            "@ideCadastro": "74315",
                            "@Partido": "PFL       ",
                            "@UF": "PI",
                            "@Voto": "Não            "
                        },
                        {
                            "@Nome": "João Henrique",
                            "@ideCadastro": "74316",
                            "@Partido": "PMDB      ",
                            "@UF": "PI",
                            "@Voto": "Não            "
                        },
                        {
                            "@Nome": "Augusto Viveiros",
                            "@ideCadastro": "74320",
                            "@Partido": "PFL       ",
                            "@UF": "RN",
                            "@Voto": "Não            "
                        },
                        {
                            "@Nome": "Roberto Rocha",
                            "@ideCadastro": "74209",
                            "@Partido": "PMDB      ",
                            "@UF": "MA",
                            "@Voto": "Não            "
                        },
                        {
                            "@Nome": "Aníbal Gomes",
                            "@ideCadastro": "74212",
                            "@Partido": "PMDB      ",
                            "@UF": "CE",
                            "@Voto": "Não            "
                        },
                        {
                            "@Nome": "Gonzaga Mota",
                            "@ideCadastro": "74294",
                            "@Partido": "PMDB      ",
                            "@UF": "CE",
                            "@Voto": "Não            "
                        },
                        {
                            "@Nome": "José Pimentel",
                            "@ideCadastro": "74298",
                            "@Partido": "PT        ",
                            "@UF": "CE",
                            "@Voto": "Não            "
                        },
                        {
                            "@Nome": "Zila Bezerra",
                            "@ideCadastro": "74185",
                            "@Partido": "PMDB      ",
                            "@UF": "AC",
                            "@Voto": "Não            "
                        },
                        {
                            "@Nome": "Antônio Jorge",
                            "@ideCadastro": "74186",
                            "@Partido": "PPR       ",
                            "@UF": "TO",
                            "@Voto": "Sim            "
                        },
                        {
                            "@Nome": "Dolores Nunes ",
                            "@ideCadastro": "74188",
                            "@Partido": "PP        ",
                            "@UF": "TO",
                            "@Voto": "Sim            "
                        },
                        {
                            "@Nome": "Freire Júnior",
                            "@ideCadastro": "74189",
                            "@Partido": "PMDB      ",
                            "@UF": "TO",
                            "@Voto": "Não            "
                        },
                        {
                            "@Nome": "Osvaldo Reis",
                            "@ideCadastro": "74191",
                            "@Partido": "PP        ",
                            "@UF": "TO",
                            "@Voto": "Sim            "
                        },
                        {
                            "@Nome": "Udson Bandeira",
                            "@ideCadastro": "74193",
                            "@Partido": "PMDB      ",
                            "@UF": "TO",
                            "@Voto": "Não            "
                        },
                        {
                            "@Nome": "Domingos Dutra",
                            "@ideCadastro": "74197",
                            "@Partido": "PT        ",
                            "@UF": "MA",
                            "@Voto": "Não            "
                        },
                        {
                            "@Nome": "Paulo Titan",
                            "@ideCadastro": "74083",
                            "@Partido": "PMDB      ",
                            "@UF": "PA",
                            "@Voto": "Não            "
                        },
                        {
                            "@Nome": "Vic Pires Franco",
                            "@ideCadastro": "74087",
                            "@Partido": "PFL       ",
                            "@UF": "PA",
                            "@Voto": "Sim            "
                        },
                        {
                            "@Nome": "Átila Lins",
                            "@ideCadastro": "74090",
                            "@Partido": "PFL       ",
                            "@UF": "AM",
                            "@Voto": "Não            "
                        },
                        {
                            "@Nome": "Luiz Fernando",
                            "@ideCadastro": "74094",
                            "@Partido": "PMDB      ",
                            "@UF": "AM",
                            "@Voto": "Não            "
                        },
                        {
                            "@Nome": "Confúcio Moura",
                            "@ideCadastro": "74097",
                            "@Partido": "PMDB      ",
                            "@UF": "RO",
                            "@Voto": "Não            "
                        },
                        {
                            "@Nome": "Ildemar Kussler",
                            "@ideCadastro": "74101",
                            "@Partido": "PSDB      ",
                            "@UF": "RO",
                            "@Voto": "Sim            "
                        },
                        {
                            "@Nome": "Marinha Raupp",
                            "@ideCadastro": "74177",
                            "@Partido": "PSDB      ",
                            "@UF": "RO",
                            "@Voto": "Sim            "
                        },
                        {
                            "@Nome": "Luis Barbosa",
                            "@ideCadastro": "73983",
                            "@Partido": "PTB       ",
                            "@UF": "RR",
                            "@Voto": "Não            "
                        },
                        {
                            "@Nome": "Salomão Cruz",
                            "@ideCadastro": "73986",
                            "@Partido": "PFL       ",
                            "@UF": "RR",
                            "@Voto": "Sim            "
                        },
                        {
                            "@Nome": "Eraldo Trindade",
                            "@ideCadastro": "74064",
                            "@Partido": "PPR       ",
                            "@UF": "AP",
                            "@Voto": "Não            "
                        },
                        {
                            "@Nome": "Fátima Pelaes",
                            "@ideCadastro": "74065",
                            "@Partido": "PFL       ",
                            "@UF": "AP",
                            "@Voto": "Não            "
                        },
                        {
                            "@Nome": "Murilo Pinheiro",
                            "@ideCadastro": "74067",
                            "@Partido": "PFL       ",
                            "@UF": "AP",
                            "@Voto": "Não            "
                        },
                        {
                            "@Nome": "Benedito Guimarães ",
                            "@ideCadastro": "74074",
                            "@Partido": "PPR       ",
                            "@UF": "PA",
                            "@Voto": "Sim            "
                        },
                        {
                            "@Nome": "Gerson Peres",
                            "@ideCadastro": "74076",
                            "@Partido": "PPR       ",
                            "@UF": "PA",
                            "@Voto": "Sim            "
                        }
                    ]
                }
            }
        }
    }
}