{
    "proposicao": {
        "Sigla": "PL",
        "Numero": "68",
        "Ano": "1991",
        "Votacoes": {
            "Votacao": {
                "@Resumo": "",
                "@Data": "8/2/1994",
                "@Hora": "13:25",
                "@ObjVotacao": "REQ. URGENCIA.",
                "@codSessao": "2659",
                "votos": {
                    "Deputado": [
                        {
                            "@Nome": "Marcelo Luz",
                            "@ideCadastro": "133880",
                            "@Partido": "PP        ",
                            "@UF": "RR",
                            "@Voto": "Sim            "
                        },
                        {
                            "@Nome": "Ruben Bento",
                            "@ideCadastro": "73807",
                            "@Partido": "PFL       ",
                            "@UF": "RR",
                            "@Voto": "Sim            "
                        },
                        {
                            "@Nome": "Lourival Freitas",
                            "@ideCadastro": "73822",
                            "@Partido": "PT        ",
                            "@UF": "AP",
                            "@Voto": "Sim            "
                        },
                        {
                            "@Nome": "Carlos Kayath",
                            "@ideCadastro": "73637",
                            "@Partido": "PTB       ",
                            "@UF": "PA",
                            "@Voto": "Não            "
                        },
                        {
                            "@Nome": "Gérson Peres",
                            "@ideCadastro": "74076",
                            "@Partido": "PPR       ",
                            "@UF": "PA",
                            "@Voto": "Sim            "
                        },
                        {
                            "@Nome": "Hermínio Calvinho",
                            "@ideCadastro": "73740",
                            "@Partido": "PMDB      ",
                            "@UF": "PA",
                            "@Voto": "Sim            "
                        },
                        {
                            "@Nome": "Socorro Gomes",
                            "@ideCadastro": "74085",
                            "@Partido": "PCdoB     ",
                            "@UF": "PA",
                            "@Voto": "Sim            "
                        },
                        {
                            "@Nome": "Paulo Rocha",
                            "@ideCadastro": "74082",
                            "@Partido": "PT        ",
                            "@UF": "PA",
                            "@Voto": "Sim            "
                        },
                        {
                            "@Nome": "Paulo Titan",
                            "@ideCadastro": "74083",
                            "@Partido": "PMDB      ",
                            "@UF": "PA",
                            "@Voto": "Sim            "
                        },
                        {
                            "@Nome": "Valdir Ganzer",
                            "@ideCadastro": "74348",
                            "@Partido": "PT        ",
                            "@UF": "PA",
                            "@Voto": "Sim            "
                        },
                        {
                            "@Nome": "Beth Azize",
                            "@ideCadastro": "133866",
                            "@Partido": "PDT       ",
                            "@UF": "AM",
                            "@Voto": "Sim            "
                        },
                        {
                            "@Nome": "José Dutra",
                            "@ideCadastro": "133867",
                            "@Partido": "PMDB      ",
                            "@UF": "AM",
                            "@Voto": "Sim            "
                        },
                        {
                            "@Nome": "Pauderney Avelino",
                            "@ideCadastro": "74095",
                            "@Partido": "PPR       ",
                            "@UF": "AM",
                            "@Voto": "Sim            "
                        },
                        {
                            "@Nome": "Maurício Calixto",
                            "@ideCadastro": "73839",
                            "@Partido": "PFL       ",
                            "@UF": "RO",
                            "@Voto": "Sim            "
                        },
                        {
                            "@Nome": "Reditário Cassol",
                            "@ideCadastro": "73851",
                            "@Partido": "PP        ",
                            "@UF": "RO",
                            "@Voto": "Sim            "
                        },
                        {
                            "@Nome": "Célia Mendes",
                            "@ideCadastro": "74180",
                            "@Partido": "PPR       ",
                            "@UF": "AC",
                            "@Voto": "Sim            "
                        },
                        {
                            "@Nome": "Ronivon Santiago",
                            "@ideCadastro": "74184",
                            "@Partido": "PPR       ",
                            "@UF": "AC",
                            "@Voto": "Sim            "
                        },
                        {
                            "@Nome": "Freire Júnior",
                            "@ideCadastro": "74189",
                            "@Partido": "PMDB      ",
                            "@UF": "TO",
                            "@Voto": "Sim            "
                        },
                        {
                            "@Nome": "Costa Ferreira",
                            "@ideCadastro": "74016",
                            "@Partido": "PP        ",
                            "@UF": "MA",
                            "@Voto": "Sim            "
                        },
                        {
                            "@Nome": "Daniel Silva",
                            "@ideCadastro": "73703",
                            "@Partido": "PPR       ",
                            "@UF": "MA",
                            "@Voto": "Sim            "
                        },
                        {
                            "@Nome": "Eduardo Matias",
                            "@ideCadastro": "73727",
                            "@Partido": "PP        ",
                            "@UF": "MA",
                            "@Voto": "Sim            "
                        },
                        {
                            "@Nome": "José Burnett",
                            "@ideCadastro": "133936",
                            "@Partido": "PPR       ",
                            "@UF": "MA",
                            "@Voto": "Não            "
                        },
                        {
                            "@Nome": "Sarney Filho",
                            "@ideCadastro": "74210",
                            "@Partido": "PFL       ",
                            "@UF": "MA",
                            "@Voto": "Sim            "
                        },
                        {
                            "@Nome": "Edson Silva",
                            "@ideCadastro": "74106",
                            "@Partido": "PDT       ",
                            "@UF": "CE",
                            "@Voto": "Sim            "
                        },
                        {
                            "@Nome": "Ernani Viana",
                            "@ideCadastro": "133927",
                            "@Partido": "PP        ",
                            "@UF": "CE",
                            "@Voto": "Sim            "
                        },
                        {
                            "@Nome": "Jackson Pereira",
                            "@ideCadastro": "74296",
                            "@Partido": "PSDB      ",
                            "@UF": "CE",
                            "@Voto": "Sim            "
                        },
                        {
                            "@Nome": "Sérgio Machado",
                            "@ideCadastro": "73755",
                            "@Partido": "PSDB      ",
                            "@UF": "CE",
                            "@Voto": "Sim            "
                        },
                        {
                            "@Nome": "Gonzaga Mota",
                            "@ideCadastro": "74294",
                            "@Partido": "PMDB      ",
                            "@UF": "CE",
                            "@Voto": "Sim            "
                        },
                        {
                            "@Nome": "Marco Penaforte",
                            "@ideCadastro": "73719",
                            "@Partido": "PSDB      ",
                            "@UF": "CE",
                            "@Voto": "Sim            "
                        },
                        {
                            "@Nome": "Moroni Torgan",
                            "@ideCadastro": "74457",
                            "@Partido": "PSDB      ",
                            "@UF": "CE",
                            "@Voto": "Sim            "
                        },
                        {
                            "@Nome": "Ubiratan Aguiar",
                            "@ideCadastro": "74307",
                            "@Partido": "PSDB      ",
                            "@UF": "CE",
                            "@Voto": "Sim            "
                        },
                        {
                            "@Nome": "Murilo Rezende",
                            "@ideCadastro": "133883",
                            "@Partido": "PMDB      ",
                            "@UF": "PI",
                            "@Voto": "Sim            "
                        },
                        {
                            "@Nome": "Henrique Eduardo Alves",
                            "@ideCadastro": "74324",
                            "@Partido": "PMDB      ",
                            "@UF": "RN",
                            "@Voto": "Sim            "
                        },
                        {
                            "@Nome": "João Faustino",
                            "@ideCadastro": "74128",
                            "@Partido": "PSDB      ",
                            "@UF": "RN",
                            "@Voto": "Sim            "
                        },
                        {
                            "@Nome": "Ivandro Cunha Lima",
                            "@ideCadastro": "74410",
                            "@Partido": "PMDB      ",
                            "@UF": "PB",
                            "@Voto": "Sim            "
                        },
                        {
                            "@Nome": "José Maranhão",
                            "@ideCadastro": "133975",
                            "@Partido": "PMDB      ",
                            "@UF": "PB",
                            "@Voto": "Sim            "
                        },
                        {
                            "@Nome": "Alvaro Ribeiro",
                            "@ideCadastro": "74247",
                            "@Partido": "PSB       ",
                            "@UF": "PE",
                            "@Voto": "Sim            "
                        },
                        {
                            "@Nome": "Antônio Geraldo",
                            "@ideCadastro": "74415",
                            "@Partido": "PFL       ",
                            "@UF": "PE",
                            "@Voto": "Sim            "
                        },
                        {
                            "@Nome": "Inocêncio Oliveira",
                            "@ideCadastro": "74421",
                            "@Partido": "PFL       ",
                            "@UF": "PE",
                            "@Voto": "Sim            "
                        },
                        {
                            "@Nome": "José Jorge",
                            "@ideCadastro": "74424",
                            "@Partido": "PFL       ",
                            "@UF": "PE",
                            "@Voto": "Sim            "
                        },
                        {
                            "@Nome": "Luiz Piauhylino",
                            "@ideCadastro": "74427",
                            "@Partido": "PSB       ",
                            "@UF": "PE",
                            "@Voto": "Sim            "
                        },
                        {
                            "@Nome": "Maurílio Ferreira Lima",
                            "@ideCadastro": "65904",
                            "@Partido": "PSDB      ",
                            "@UF": "PE",
                            "@Voto": "Sim            "
                        },
                        {
                            "@Nome": "Nilson Gibson",
                            "@ideCadastro": "74429",
                            "@Partido": "PMDB      ",
                            "@UF": "PE",
                            "@Voto": "Sim            "
                        },
                        {
                            "@Nome": "Renildo Calheiros",
                            "@ideCadastro": "73801",
                            "@Partido": "PCdoB     ",
                            "@UF": "PE",
                            "@Voto": "Sim            "
                        },
                        {
                            "@Nome": "Roberto França",
                            "@ideCadastro": "73804",
                            "@Partido": "PSB       ",
                            "@UF": "PE",
                            "@Voto": "Sim            "
                        },
                        {
                            "@Nome": "Roberto Freire",
                            "@ideCadastro": "73805",
                            "@Partido": "PPS       ",
                            "@UF": "PE",
                            "@Voto": "Sim            "
                        },
                        {
                            "@Nome": "Evaraldo de Oliveira",
                            "@ideCadastro": "73712",
                            "@Partido": "PFL       ",
                            "@UF": "SE",
                            "@Voto": "Sim            "
                        },
                        {
                            "@Nome": "José Teles",
                            "@ideCadastro": "74529",
                            "@Partido": "PPR       ",
                            "@UF": "SE",
                            "@Voto": "Sim            "
                        },
                        {
                            "@Nome": "Pedro Valadares",
                            "@ideCadastro": "74102",
                            "@Partido": "PP        ",
                            "@UF": "SE",
                            "@Voto": "Sim            "
                        },
                        {
                            "@Nome": "Ângelo Magalhães",
                            "@ideCadastro": "133978",
                            "@Partido": "PFL       ",
                            "@UF": "BA",
                            "@Voto": "Sim            "
                        },
                        {
                            "@Nome": "Benito Gama",
                            "@ideCadastro": "74535",
                            "@Partido": "PFL       ",
                            "@UF": "BA",
                            "@Voto": "Sim            "
                        },
                        {
                            "@Nome": "Beraldo Boaventura",
                            "@ideCadastro": "73814",
                            "@Partido": "PSDB      ",
                            "@UF": "BA",
                            "@Voto": "Sim            "
                        },
                        {
                            "@Nome": "Clóvis Assis",
                            "@ideCadastro": "73721",
                            "@Partido": "PSDB      ",
                            "@UF": "BA",
                            "@Voto": "Não            "
                        },
                        {
                            "@Nome": "Eraldo Tinoco",
                            "@ideCadastro": "74540",
                            "@Partido": "PFL       ",
                            "@UF": "BA",
                            "@Voto": "Sim            "
                        },
                        {
                            "@Nome": "Félix Mendonça",
                            "@ideCadastro": "74542",
                            "@Partido": "PTB       ",
                            "@UF": "BA",
                            "@Voto": "Abstenção      "
                        },
                        {
                            "@Nome": "Waldir Pires",
                            "@ideCadastro": "74576",
                            "@Partido": "PSDB      ",
                            "@UF": "BA",
                            "@Voto": "Sim            "
                        },
                        {
                            "@Nome": "Geddel Vieira Lima",
                            "@ideCadastro": "74544",
                            "@Partido": "PMDB      ",
                            "@UF": "BA",
                            "@Voto": "Sim            "
                        },
                        {
                            "@Nome": "João Almeida",
                            "@ideCadastro": "74549",
                            "@Partido": "PMDB      ",
                            "@UF": "BA",
                            "@Voto": "Sim            "
                        },
                        {
                            "@Nome": "Jorge Khoury",
                            "@ideCadastro": "74552",
                            "@Partido": "PFL       ",
                            "@UF": "BA",
                            "@Voto": "Sim            "
                        },
                        {
                            "@Nome": "José Carlos Aleluia",
                            "@ideCadastro": "74553",
                            "@Partido": "PFL       ",
                            "@UF": "BA",
                            "@Voto": "Sim            "
                        },
                        {
                            "@Nome": "Ribeiro Tavares",
                            "@ideCadastro": "73830",
                            "@Partido": "PL        ",
                            "@UF": "BA",
                            "@Voto": "Não            "
                        },
                        {
                            "@Nome": "Jutahy Júnior",
                            "@ideCadastro": "74570",
                            "@Partido": "PSDB      ",
                            "@UF": "BA",
                            "@Voto": "Sim            "
                        },
                        {
                            "@Nome": "Leur Lomanto",
                            "@ideCadastro": "74555",
                            "@Partido": "PFL       ",
                            "@UF": "BA",
                            "@Voto": "Sim            "
                        },
                        {
                            "@Nome": "Luís Eduardo",
                            "@ideCadastro": "74630",
                            "@Partido": "PFL       ",
                            "@UF": "BA",
                            "@Voto": "Sim            "
                        },
                        {
                            "@Nome": "Luiz Moreira",
                            "@ideCadastro": "74632",
                            "@Partido": "PFL       ",
                            "@UF": "BA",
                            "@Voto": "Sim            "
                        },
                        {
                            "@Nome": "Alcides Modesto",
                            "@ideCadastro": "74532",
                            "@Partido": "PT        ",
                            "@UF": "BA",
                            "@Voto": "Sim            "
                        },
                        {
                            "@Nome": "Marcos Medrado",
                            "@ideCadastro": "74634",
                            "@Partido": "PP        ",
                            "@UF": "BA",
                            "@Voto": "Não            "
                        },
                        {
                            "@Nome": "Nestor Duarte",
                            "@ideCadastro": "74636",
                            "@Partido": "PMDB      ",
                            "@UF": "BA",
                            "@Voto": "Sim            "
                        },
                        {
                            "@Nome": "Sérgio Gaudenzi",
                            "@ideCadastro": "133949",
                            "@Partido": "PSDB      ",
                            "@UF": "BA",
                            "@Voto": "Sim            "
                        },
                        {
                            "@Nome": "Uldurico Pinto",
                            "@ideCadastro": "73809",
                            "@Partido": "PSB       ",
                            "@UF": "BA",
                            "@Voto": "Sim            "
                        },
                        {
                            "@Nome": "Avelino Costa",
                            "@ideCadastro": "73634",
                            "@Partido": "PPR       ",
                            "@UF": "MG",
                            "@Voto": "Sim            "
                        },
                        {
                            "@Nome": "Fernando Diniz",
                            "@ideCadastro": "74658",
                            "@Partido": "PMDB      ",
                            "@UF": "MG",
                            "@Voto": "Sim            "
                        },
                        {
                            "@Nome": "Getúlio Neiva",
                            "@ideCadastro": "133920",
                            "@Partido": "PL        ",
                            "@UF": "MG",
                            "@Voto": "Não            "
                        },
                        {
                            "@Nome": "Humberto Souto",
                            "@ideCadastro": "74662",
                            "@Partido": "PFL       ",
                            "@UF": "MG",
                            "@Voto": "Não            "
                        },
                        {
                            "@Nome": "Ibrahim Abi-Ackel",
                            "@ideCadastro": "74663",
                            "@Partido": "PPR       ",
                            "@UF": "MG",
                            "@Voto": "Sim            "
                        },
                        {
                            "@Nome": "Irani Barbosa",
                            "@ideCadastro": "73741",
                            "@Partido": "PSD       ",
                            "@UF": "MG",
                            "@Voto": "Sim            "
                        },
                        {
                            "@Nome": "José Geraldo",
                            "@ideCadastro": "133981",
                            "@Partido": "PMDB      ",
                            "@UF": "MG",
                            "@Voto": "Abstenção      "
                        },
                        {
                            "@Nome": "Neif Jabur",
                            "@ideCadastro": "74219",
                            "@Partido": "PMDB      ",
                            "@UF": "MG",
                            "@Voto": "Sim            "
                        },
                        {
                            "@Nome": "José Santana de Vasconcellos",
                            "@ideCadastro": "74741",
                            "@Partido": "PFL       ",
                            "@UF": "MG",
                            "@Voto": "Sim            "
                        },
                        {
                            "@Nome": "Lael Varella",
                            "@ideCadastro": "74742",
                            "@Partido": "PFL       ",
                            "@UF": "MG",
                            "@Voto": "Sim            "
                        },
                        {
                            "@Nome": "Maurício Campos",
                            "@ideCadastro": "74748",
                            "@Partido": "PL        ",
                            "@UF": "MG",
                            "@Voto": "Não            "
                        },
                        {
                            "@Nome": "Nilmário Miranda",
                            "@ideCadastro": "74751",
                            "@Partido": "PT        ",
                            "@UF": "MG",
                            "@Voto": "Sim            "
                        },
                        {
                            "@Nome": "Paulino Cícero de Vasconcelos",
                            "@ideCadastro": "133923",
                            "@Partido": "PSDB      ",
                            "@UF": "MG",
                            "@Voto": "Sim            "
                        },
                        {
                            "@Nome": "Paulo Delgado",
                            "@ideCadastro": "74754",
                            "@Partido": "PT        ",
                            "@UF": "MG",
                            "@Voto": "Sim            "
                        },
                        {
                            "@Nome": "Paulo Heslander",
                            "@ideCadastro": "74755",
                            "@Partido": "PTB       ",
                            "@UF": "MG",
                            "@Voto": "Sim            "
                        },
                        {
                            "@Nome": "Raul Belém",
                            "@ideCadastro": "74757",
                            "@Partido": "PP        ",
                            "@UF": "MG",
                            "@Voto": "Não            "
                        },
                        {
                            "@Nome": "Sandra Starling",
                            "@ideCadastro": "74761",
                            "@Partido": "PT        ",
                            "@UF": "MG",
                            "@Voto": "Sim            "
                        },
                        {
                            "@Nome": "Sergio Naya",
                            "@ideCadastro": "74764",
                            "@Partido": "PP        ",
                            "@UF": "MG",
                            "@Voto": "Sim            "
                        },
                        {
                            "@Nome": "Vittorio Medioli",
                            "@ideCadastro": "74768",
                            "@Partido": "PSDB      ",
                            "@UF": "MG",
                            "@Voto": "Sim            "
                        },
                        {
                            "@Nome": "Zaire Rezende",
                            "@ideCadastro": "74769",
                            "@Partido": "PMDB      ",
                            "@UF": "MG",
                            "@Voto": "Sim            "
                        },
                        {
                            "@Nome": "Jones Santos Neves",
                            "@ideCadastro": "133974",
                            "@Partido": "PL        ",
                            "@UF": "ES",
                            "@Voto": "Não            "
                        },
                        {
                            "@Nome": "Rose de Freitas",
                            "@ideCadastro": "73507",
                            "@Partido": "PSDB      ",
                            "@UF": "ES",
                            "@Voto": "Sim            "
                        },
                        {
                            "@Nome": "Sérgio Arouca",
                            "@ideCadastro": "73423",
                            "@Partido": "PPS       ",
                            "@UF": "RJ",
                            "@Voto": "Sim            "
                        },
                        {
                            "@Nome": "Arolde de Oliveira",
                            "@ideCadastro": "74833",
                            "@Partido": "PFL       ",
                            "@UF": "RJ",
                            "@Voto": "Sim            "
                        },
                        {
                            "@Nome": "Carlos Lupi",
                            "@ideCadastro": "73638",
                            "@Partido": "PDT       ",
                            "@UF": "RJ",
                            "@Voto": "Sim            "
                        },
                        {
                            "@Nome": "Flávio Palmier da Veiga",
                            "@ideCadastro": "74223",
                            "@Partido": "PSDB      ",
                            "@UF": "RJ",
                            "@Voto": "Sim            "
                        },
                        {
                            "@Nome": "Jair Bolsonaro",
                            "@ideCadastro": "74847",
                            "@Partido": "PPR       ",
                            "@UF": "RJ",
                            "@Voto": "Sim            "
                        },
                        {
                            "@Nome": "Jamil Haddad",
                            "@ideCadastro": "74338",
                            "@Partido": "PSB       ",
                            "@UF": "RJ",
                            "@Voto": "Sim            "
                        },
                        {
                            "@Nome": "Cidinha Campos",
                            "@ideCadastro": "74836",
                            "@Partido": "PDT       ",
                            "@UF": "RJ",
                            "@Voto": "Sim            "
                        },
                        {
                            "@Nome": "Nelson Bornier",
                            "@ideCadastro": "73416",
                            "@Partido": "PL        ",
                            "@UF": "RJ",
                            "@Voto": "Não            "
                        },
                        {
                            "@Nome": "Roberto Jefferson",
                            "@ideCadastro": "73420",
                            "@Partido": "PTB       ",
                            "@UF": "RJ",
                            "@Voto": "Não            "
                        },
                        {
                            "@Nome": "Sandra Cavalcanti",
                            "@ideCadastro": "133986",
                            "@Partido": "PPR       ",
                            "@UF": "RJ",
                            "@Voto": "Sim            "
                        },
                        {
                            "@Nome": "Alberto Goldman",
                            "@ideCadastro": "73427",
                            "@Partido": "PMDB      ",
                            "@UF": "SP",
                            "@Voto": "Sim            "
                        },
                        {
                            "@Nome": "Ernesto Gradella",
                            "@ideCadastro": "73729",
                            "@Partido": "PSTU      ",
                            "@UF": "SP",
                            "@Voto": "Não            "
                        },
                        {
                            "@Nome": "Euclydes Mello",
                            "@ideCadastro": "73824",
                            "@Partido": "PRN       ",
                            "@UF": "SP",
                            "@Voto": "Sim            "
                        },
                        {
                            "@Nome": "Florestan Fernandes",
                            "@ideCadastro": "133873",
                            "@Partido": "PT        ",
                            "@UF": "SP",
                            "@Voto": "Sim            "
                        },
                        {
                            "@Nome": "Gastone Righi",
                            "@ideCadastro": "133964",
                            "@Partido": "PTB       ",
                            "@UF": "SP",
                            "@Voto": "Não            "
                        },
                        {
                            "@Nome": "Geraldo Alckmin Filho",
                            "@ideCadastro": "65480",
                            "@Partido": "PSDB      ",
                            "@UF": "SP",
                            "@Voto": "Sim            "
                        },
                        {
                            "@Nome": "Maluly Netto",
                            "@ideCadastro": "73547",
                            "@Partido": "PFL       ",
                            "@UF": "SP",
                            "@Voto": "Sim            "
                        },
                        {
                            "@Nome": "José Cicote",
                            "@ideCadastro": "73751",
                            "@Partido": "PT        ",
                            "@UF": "SP",
                            "@Voto": "Sim            "
                        },
                        {
                            "@Nome": "Tuga Angerami",
                            "@ideCadastro": "73562",
                            "@Partido": "PSDB      ",
                            "@UF": "SP",
                            "@Voto": "Sim            "
                        },
                        {
                            "@Nome": "Liberato Caboclo",
                            "@ideCadastro": "73754",
                            "@Partido": "PDT       ",
                            "@UF": "SP",
                            "@Voto": "Sim            "
                        },
                        {
                            "@Nome": "Marcelino Romano Machado",
                            "@ideCadastro": "133887",
                            "@Partido": "PPR       ",
                            "@UF": "SP",
                            "@Voto": "Sim            "
                        },
                        {
                            "@Nome": "Maurici Mariano",
                            "@ideCadastro": "133884",
                            "@Partido": "PMDB      ",
                            "@UF": "SP",
                            "@Voto": "Sim            "
                        },
                        {
                            "@Nome": "Nelson Marquezelli",
                            "@ideCadastro": "73553",
                            "@Partido": "PTB       ",
                            "@UF": "SP",
                            "@Voto": "Não            "
                        },
                        {
                            "@Nome": "Oswaldo Stecca",
                            "@ideCadastro": "73843",
                            "@Partido": "PMDB      ",
                            "@UF": "SP",
                            "@Voto": "Sim            "
                        },
                        {
                            "@Nome": "Robson Tuma",
                            "@ideCadastro": "73558",
                            "@Partido": "PL        ",
                            "@UF": "SP",
                            "@Voto": "Não            "
                        },
                        {
                            "@Nome": "Wagner Rossi",
                            "@ideCadastro": "73567",
                            "@Partido": "PMDB      ",
                            "@UF": "SP",
                            "@Voto": "Sim            "
                        },
                        {
                            "@Nome": "Augustinho Freitas",
                            "@ideCadastro": "73647",
                            "@Partido": "PP        ",
                            "@UF": "MT",
                            "@Voto": "Sim            "
                        },
                        {
                            "@Nome": "Oscar Travassos",
                            "@ideCadastro": "73821",
                            "@Partido": "PL        ",
                            "@UF": "MT",
                            "@Voto": "Sim            "
                        },
                        {
                            "@Nome": "Benedito Domingos",
                            "@ideCadastro": "73656",
                            "@Partido": "PP        ",
                            "@UF": "DF",
                            "@Voto": "Sim            "
                        },
                        {
                            "@Nome": "Sigmaringa Seixas",
                            "@ideCadastro": "73718",
                            "@Partido": "PSDB      ",
                            "@UF": "DF",
                            "@Voto": "Sim            "
                        },
                        {
                            "@Nome": "Osório Adriano",
                            "@ideCadastro": "73660",
                            "@Partido": "PFL       ",
                            "@UF": "DF",
                            "@Voto": "Sim            "
                        },
                        {
                            "@Nome": "Paulo Octávio",
                            "@ideCadastro": "74804",
                            "@Partido": "PRN       ",
                            "@UF": "DF",
                            "@Voto": "Não            "
                        },
                        {
                            "@Nome": "Maria Valadão",
                            "@ideCadastro": "73669",
                            "@Partido": "PPR       ",
                            "@UF": "GO",
                            "@Voto": "Sim            "
                        },
                        {
                            "@Nome": "Paulo Mandarino",
                            "@ideCadastro": "73849",
                            "@Partido": "PPR       ",
                            "@UF": "GO",
                            "@Voto": "Abstenção      "
                        },
                        {
                            "@Nome": "Virmondes Cruvinel",
                            "@ideCadastro": "74019",
                            "@Partido": "PMDB      ",
                            "@UF": "GO",
                            "@Voto": "Sim            "
                        },
                        {
                            "@Nome": "Elisio Curvo",
                            "@ideCadastro": "74126",
                            "@Partido": "PTB       ",
                            "@UF": "MS",
                            "@Voto": "Não            "
                        },
                        {
                            "@Nome": "Marilu Guimarães",
                            "@ideCadastro": "73759",
                            "@Partido": "PFL       ",
                            "@UF": "MS",
                            "@Voto": "Sim            "
                        },
                        {
                            "@Nome": "Nelson Trad",
                            "@ideCadastro": "73761",
                            "@Partido": "PTB       ",
                            "@UF": "MS",
                            "@Voto": "Sim            "
                        },
                        {
                            "@Nome": "Valter Pereira",
                            "@ideCadastro": "133860",
                            "@Partido": "PMDB      ",
                            "@UF": "MS",
                            "@Voto": "Sim            "
                        },
                        {
                            "@Nome": "Antônio Barbara",
                            "@ideCadastro": "73631",
                            "@Partido": "PMDB      ",
                            "@UF": "PR",
                            "@Voto": "Sim            "
                        },
                        {
                            "@Nome": "Edésio Passos",
                            "@ideCadastro": "73724",
                            "@Partido": "PT        ",
                            "@UF": "PR",
                            "@Voto": "Sim            "
                        },
                        {
                            "@Nome": "Edi Siliprandi",
                            "@ideCadastro": "73705",
                            "@Partido": "PSD       ",
                            "@UF": "PR",
                            "@Voto": "Sim            "
                        },
                        {
                            "@Nome": "Elio Dalla-Vecchia",
                            "@ideCadastro": "73706",
                            "@Partido": "PDT       ",
                            "@UF": "PR",
                            "@Voto": "Sim            "
                        },
                        {
                            "@Nome": "Ivanio Guerra",
                            "@ideCadastro": "73570",
                            "@Partido": "PFL       ",
                            "@UF": "PR",
                            "@Voto": "Sim            "
                        },
                        {
                            "@Nome": "Luiz Carlos Hauly",
                            "@ideCadastro": "73778",
                            "@Partido": "PP        ",
                            "@UF": "PR",
                            "@Voto": "Não            "
                        },
                        {
                            "@Nome": "Werner Wanderer",
                            "@ideCadastro": "73792",
                            "@Partido": "PFL       ",
                            "@UF": "PR",
                            "@Voto": "Sim            "
                        },
                        {
                            "@Nome": "Dércio Knop",
                            "@ideCadastro": "74215",
                            "@Partido": "PDT       ",
                            "@UF": "SC",
                            "@Voto": "Sim            "
                        },
                        {
                            "@Nome": "Neuto de Conto",
                            "@ideCadastro": "73881",
                            "@Partido": "PMDB      ",
                            "@UF": "SC",
                            "@Voto": "Sim            "
                        },
                        {
                            "@Nome": "Paulo Duarte",
                            "@ideCadastro": "73846",
                            "@Partido": "PPR       ",
                            "@UF": "SC",
                            "@Voto": "Sim            "
                        },
                        {
                            "@Nome": "Ruberval Pilotto",
                            "@ideCadastro": "133912",
                            "@Partido": "PPR       ",
                            "@UF": "SC",
                            "@Voto": "Sim            "
                        },
                        {
                            "@Nome": "Fetter Júnior",
                            "@ideCadastro": "73896",
                            "@Partido": "PPR       ",
                            "@UF": "RS",
                            "@Voto": "Sim            "
                        },
                        {
                            "@Nome": "Adroaldo Streck",
                            "@ideCadastro": "73996",
                            "@Partido": "PSDB      ",
                            "@UF": "RS",
                            "@Voto": "Não            "
                        },
                        {
                            "@Nome": "Adylson Motta",
                            "@ideCadastro": "73887",
                            "@Partido": "PPR       ",
                            "@UF": "RS",
                            "@Voto": "Abstenção      "
                        },
                        {
                            "@Nome": "Arno Magarinos",
                            "@ideCadastro": "133996",
                            "@Partido": "PPR       ",
                            "@UF": "RS",
                            "@Voto": "Sim            "
                        },
                        {
                            "@Nome": "Eden Pedroso",
                            "@ideCadastro": "133952",
                            "@Partido": "PT        ",
                            "@UF": "RS",
                            "@Voto": "Sim            "
                        },
                        {
                            "@Nome": "Germano Rigotto",
                            "@ideCadastro": "73897",
                            "@Partido": "PMDB      ",
                            "@UF": "RS",
                            "@Voto": "Sim            "
                        },
                        {
                            "@Nome": "Mendes Ribeiro",
                            "@ideCadastro": "133859",
                            "@Partido": "PMDB      ",
                            "@UF": "RS",
                            "@Voto": "Sim            "
                        },
                        {
                            "@Nome": "José Fortunati",
                            "@ideCadastro": "73901",
                            "@Partido": "PT        ",
                            "@UF": "RS",
                            "@Voto": "Sim            "
                        },
                        {
                            "@Nome": "Odacir Klein",
                            "@ideCadastro": "73908",
                            "@Partido": "PMDB      ",
                            "@UF": "RS",
                            "@Voto": "Sim            "
                        },
                        {
                            "@Nome": "Paulo Paim",
                            "@ideCadastro": "73910",
                            "@Partido": "PT        ",
                            "@UF": "RS",
                            "@Voto": "Sim            "
                        },
                        {
                            "@Nome": "Eliel Rodrigues",
                            "@ideCadastro": "133844",
                            "@Partido": "PMDB      ",
                            "@UF": "PA",
                            "@Voto": "Sim            "
                        },
                        {
                            "@Nome": "Roberto Rollemberg",
                            "@ideCadastro": "133992",
                            "@Partido": "PMDB      ",
                            "@UF": "SP",
                            "@Voto": "Sim            "
                        },
                        {
                            "@Nome": "Jairo Carneiro",
                            "@ideCadastro": "74547",
                            "@Partido": "PFL       ",
                            "@UF": "BA",
                            "@Voto": "Sim            "
                        },
                        {
                            "@Nome": "José Ulisses de Oliveira",
                            "@ideCadastro": "133962",
                            "@Partido": "PTB       ",
                            "@UF": "MG",
                            "@Voto": "Sim            "
                        },
                        {
                            "@Nome": "Paulo Ramos",
                            "@ideCadastro": "133968",
                            "@Partido": "PDT       ",
                            "@UF": "RJ",
                            "@Voto": "Sim            "
                        },
                        {
                            "@Nome": "Edison Andrino",
                            "@ideCadastro": "73794",
                            "@Partido": "PMDB      ",
                            "@UF": "SC",
                            "@Voto": "Sim            "
                        },
                        {
                            "@Nome": "Valdir Colatto",
                            "@ideCadastro": "74010",
                            "@Partido": "PMDB      ",
                            "@UF": "SC",
                            "@Voto": "Sim            "
                        },
                        {
                            "@Nome": "Luiz Máximo",
                            "@ideCadastro": "74135",
                            "@Partido": "PSDB      ",
                            "@UF": "SP",
                            "@Voto": "Sim            "
                        },
                        {
                            "@Nome": "José Abrão",
                            "@ideCadastro": "73711",
                            "@Partido": "PSDB      ",
                            "@UF": "SP",
                            "@Voto": "Sim            "
                        },
                        {
                            "@Nome": "José Anibal",
                            "@ideCadastro": "73536",
                            "@Partido": "PSDB      ",
                            "@UF": "SP",
                            "@Voto": "Sim            "
                        },
                        {
                            "@Nome": "João Thomé",
                            "@ideCadastro": "74092",
                            "@Partido": "PMDB      ",
                            "@UF": "AM",
                            "@Voto": "Sim            "
                        },
                        {
                            "@Nome": "Moacir Micheletto",
                            "@ideCadastro": "74238",
                            "@Partido": "PMDB      ",
                            "@UF": "PR",
                            "@Voto": "Sim            "
                        },
                        {
                            "@Nome": "Helvécio Castello",
                            "@ideCadastro": "73953",
                            "@Partido": "PT        ",
                            "@UF": "ES",
                            "@Voto": "Sim            "
                        },
                        {
                            "@Nome": "Maurício Najar",
                            "@ideCadastro": "73551",
                            "@Partido": "PFL       ",
                            "@UF": "SP",
                            "@Voto": "Sim            "
                        },
                        {
                            "@Nome": "Chafic Farhat",
                            "@ideCadastro": "73955",
                            "@Partido": "PPR       ",
                            "@UF": "SP",
                            "@Voto": "Sim            "
                        },
                        {
                            "@Nome": "Armando Viola",
                            "@ideCadastro": "73698",
                            "@Partido": "PMDB      ",
                            "@UF": "ES",
                            "@Voto": "Sim            "
                        },
                        {
                            "@Nome": "Ricardo Correa",
                            "@ideCadastro": "73956",
                            "@Partido": "PL        ",
                            "@UF": "MT",
                            "@Voto": "Sim            "
                        },
                        {
                            "@Nome": "Aparício Carvalho",
                            "@ideCadastro": "73958",
                            "@Partido": "PSDB      ",
                            "@UF": "RO",
                            "@Voto": "Sim            "
                        }
                    ]
                }
            }
        }
    }
}