{
    "proposicao": {
        "Sigla": "PL",
        "Numero": "5051",
        "Ano": "1990",
        "Votacoes": {
            "Votacao": {
                "@Resumo": "",
                "@Data": "21/10/1992",
                "@Hora": "17:30",
                "@ObjVotacao": " RECURSO P/ PLENARIO",
                "@codSessao": "2498",
                "votos": {
                    "Deputado": [
                        {
                            "@Nome": "Alceste Almeida",
                            "@ideCadastro": "73979",
                            "@Partido": "PTB       ",
                            "@UF": "RR",
                            "@Voto": "Sim            "
                        },
                        {
                            "@Nome": "Júlio Cabral",
                            "@ideCadastro": "73630",
                            "@Partido": "PTR       ",
                            "@UF": "RR",
                            "@Voto": "Sim            "
                        },
                        {
                            "@Nome": "Marcelo Luz",
                            "@ideCadastro": "133880",
                            "@Partido": "PTR       ",
                            "@UF": "RR",
                            "@Voto": "Sim            "
                        },
                        {
                            "@Nome": "Teresa Jucá",
                            "@ideCadastro": "160608",
                            "@Partido": "PDS       ",
                            "@UF": "RR",
                            "@Voto": "Sim            "
                        },
                        {
                            "@Nome": "Ruben Bento",
                            "@ideCadastro": "73807",
                            "@Partido": "PFL       ",
                            "@UF": "RR",
                            "@Voto": "Sim            "
                        },
                        {
                            "@Nome": "Eraldo Trindade",
                            "@ideCadastro": "74064",
                            "@Partido": "PPR       ",
                            "@UF": "AP",
                            "@Voto": "Sim            "
                        },
                        {
                            "@Nome": "Murilo Pinheiro",
                            "@ideCadastro": "74067",
                            "@Partido": "PFL       ",
                            "@UF": "AP",
                            "@Voto": "Sim            "
                        },
                        {
                            "@Nome": "Sérgio Barcellos",
                            "@ideCadastro": "74069",
                            "@Partido": "PFL       ",
                            "@UF": "AP",
                            "@Voto": "Sim            "
                        },
                        {
                            "@Nome": "Alacid Nunes",
                            "@ideCadastro": "133939",
                            "@Partido": "PFL       ",
                            "@UF": "PA",
                            "@Voto": "Sim            "
                        },
                        {
                            "@Nome": "Domingos Juvenil",
                            "@ideCadastro": "133993",
                            "@Partido": "PMDB      ",
                            "@UF": "PA",
                            "@Voto": "Não            "
                        },
                        {
                            "@Nome": "Gérson Peres",
                            "@ideCadastro": "74076",
                            "@Partido": "PDS       ",
                            "@UF": "PA",
                            "@Voto": "Sim            "
                        },
                        {
                            "@Nome": "Giovanni Queiroz",
                            "@ideCadastro": "74077",
                            "@Partido": "PDT       ",
                            "@UF": "PA",
                            "@Voto": "Não            "
                        },
                        {
                            "@Nome": "Hermínio Calvinho",
                            "@ideCadastro": "73740",
                            "@Partido": "PMDB      ",
                            "@UF": "PA",
                            "@Voto": "Não            "
                        },
                        {
                            "@Nome": "Hilário Coimbra",
                            "@ideCadastro": "74078",
                            "@Partido": "PTB       ",
                            "@UF": "PA",
                            "@Voto": "Sim            "
                        },
                        {
                            "@Nome": "Mario Chermont",
                            "@ideCadastro": "133889",
                            "@Partido": "PTR       ",
                            "@UF": "PA",
                            "@Voto": "Sim            "
                        },
                        {
                            "@Nome": "Nicias Ribeiro",
                            "@ideCadastro": "74080",
                            "@Partido": "PMDB      ",
                            "@UF": "PA",
                            "@Voto": "Não            "
                        },
                        {
                            "@Nome": "Osvaldo Melo",
                            "@ideCadastro": "133955",
                            "@Partido": "PDS       ",
                            "@UF": "PA",
                            "@Voto": "Sim            "
                        },
                        {
                            "@Nome": "Paulo Rocha",
                            "@ideCadastro": "74082",
                            "@Partido": "PT        ",
                            "@UF": "PA",
                            "@Voto": "Não            "
                        },
                        {
                            "@Nome": "Átila Lins",
                            "@ideCadastro": "74090",
                            "@Partido": "PFL       ",
                            "@UF": "AM",
                            "@Voto": "Sim            "
                        },
                        {
                            "@Nome": "Ricardo Moraes",
                            "@ideCadastro": "73803",
                            "@Partido": "PT        ",
                            "@UF": "AM",
                            "@Voto": "Não            "
                        },
                        {
                            "@Nome": "Nobel Moura",
                            "@ideCadastro": "133956",
                            "@Partido": "PTR       ",
                            "@UF": "RO",
                            "@Voto": "Sim            "
                        },
                        {
                            "@Nome": "Carlos Camurca",
                            "@ideCadastro": "74096",
                            "@Partido": "PTR       ",
                            "@UF": "RO",
                            "@Voto": "Sim            "
                        },
                        {
                            "@Nome": "Maurício Calixto",
                            "@ideCadastro": "73839",
                            "@Partido": "PFL       ",
                            "@UF": "RO",
                            "@Voto": "Sim            "
                        },
                        {
                            "@Nome": "Raquel Cândido",
                            "@ideCadastro": "133864",
                            "@Partido": "PTB       ",
                            "@UF": "RO",
                            "@Voto": "Sim            "
                        },
                        {
                            "@Nome": "Reditário Cassol",
                            "@ideCadastro": "73851",
                            "@Partido": "PTR       ",
                            "@UF": "RO",
                            "@Voto": "Sim            "
                        },
                        {
                            "@Nome": "Adelaide Neri",
                            "@ideCadastro": "73823",
                            "@Partido": "PMDB      ",
                            "@UF": "AC",
                            "@Voto": "Não            "
                        },
                        {
                            "@Nome": "Célia Mendes",
                            "@ideCadastro": "74180",
                            "@Partido": "PDS       ",
                            "@UF": "AC",
                            "@Voto": "Sim            "
                        },
                        {
                            "@Nome": "João Tota",
                            "@ideCadastro": "74240",
                            "@Partido": "PDS       ",
                            "@UF": "AC",
                            "@Voto": "Abstenção      "
                        },
                        {
                            "@Nome": "Edmundo Galdino",
                            "@ideCadastro": "73827",
                            "@Partido": "PSDB      ",
                            "@UF": "TO",
                            "@Voto": "Sim            "
                        },
                        {
                            "@Nome": "Freire Júnior",
                            "@ideCadastro": "74189",
                            "@Partido": "PMDB      ",
                            "@UF": "TO",
                            "@Voto": "Não            "
                        },
                        {
                            "@Nome": "Leomar Quintanilha",
                            "@ideCadastro": "73716",
                            "@Partido": "PDC       ",
                            "@UF": "TO",
                            "@Voto": "Não            "
                        },
                        {
                            "@Nome": "Osvaldo Reis",
                            "@ideCadastro": "74191",
                            "@Partido": "PTR       ",
                            "@UF": "TO",
                            "@Voto": "Sim            "
                        },
                        {
                            "@Nome": "Paulo Mourão",
                            "@ideCadastro": "74192",
                            "@Partido": "PDS       ",
                            "@UF": "TO",
                            "@Voto": "Sim            "
                        },
                        {
                            "@Nome": "Costa Ferreira",
                            "@ideCadastro": "74016",
                            "@Partido": "PTR       ",
                            "@UF": "MA",
                            "@Voto": "Sim            "
                        },
                        {
                            "@Nome": "Cesar Bandeira",
                            "@ideCadastro": "74195",
                            "@Partido": "PFL       ",
                            "@UF": "MA",
                            "@Voto": "Sim            "
                        },
                        {
                            "@Nome": "Daniel Silva",
                            "@ideCadastro": "73703",
                            "@Partido": "PDS       ",
                            "@UF": "MA",
                            "@Voto": "Sim            "
                        },
                        {
                            "@Nome": "Nan Souza",
                            "@ideCadastro": "74013",
                            "@Partido": "PST       ",
                            "@UF": "MA",
                            "@Voto": "Sim            "
                        },
                        {
                            "@Nome": "Jayme Santana",
                            "@ideCadastro": "74201",
                            "@Partido": "PSDB      ",
                            "@UF": "MA",
                            "@Voto": "Sim            "
                        },
                        {
                            "@Nome": "João Rodolfo",
                            "@ideCadastro": "133935",
                            "@Partido": "PDS       ",
                            "@UF": "MA",
                            "@Voto": "Sim            "
                        },
                        {
                            "@Nome": "José Carlos Saboia",
                            "@ideCadastro": "74203",
                            "@Partido": "PSB       ",
                            "@UF": "MA",
                            "@Voto": "Não            "
                        },
                        {
                            "@Nome": "José Burnett",
                            "@ideCadastro": "133936",
                            "@Partido": "PPR       ",
                            "@UF": "MA",
                            "@Voto": "Abstenção      "
                        },
                        {
                            "@Nome": "José Reinaldo",
                            "@ideCadastro": "73714",
                            "@Partido": "PFL       ",
                            "@UF": "MA",
                            "@Voto": "Sim            "
                        },
                        {
                            "@Nome": "Sarney Filho",
                            "@ideCadastro": "74210",
                            "@Partido": "PFL       ",
                            "@UF": "MA",
                            "@Voto": "Sim            "
                        },
                        {
                            "@Nome": "Pedro Novais",
                            "@ideCadastro": "74207",
                            "@Partido": "PDC       ",
                            "@UF": "MA",
                            "@Voto": "Sim            "
                        },
                        {
                            "@Nome": "Roseana Sarney",
                            "@ideCadastro": "73806",
                            "@Partido": "PFL       ",
                            "@UF": "MA",
                            "@Voto": "Sim            "
                        },
                        {
                            "@Nome": "Aécio de Borba",
                            "@ideCadastro": "74244",
                            "@Partido": "PDS       ",
                            "@UF": "CE",
                            "@Voto": "Sim            "
                        },
                        {
                            "@Nome": "Antônio dos Santos",
                            "@ideCadastro": "74214",
                            "@Partido": "PFL       ",
                            "@UF": "CE",
                            "@Voto": "Sim            "
                        },
                        {
                            "@Nome": "Edson Silva",
                            "@ideCadastro": "74106",
                            "@Partido": "PDT       ",
                            "@UF": "CE",
                            "@Voto": "Não            "
                        },
                        {
                            "@Nome": "Ernani Viana",
                            "@ideCadastro": "133927",
                            "@Partido": "PSDB      ",
                            "@UF": "CE",
                            "@Voto": "Sim            "
                        },
                        {
                            "@Nome": "Pinheiro Landim",
                            "@ideCadastro": "74304",
                            "@Partido": "PMDB      ",
                            "@UF": "CE",
                            "@Voto": "Não            "
                        },
                        {
                            "@Nome": "Jackson Pereira",
                            "@ideCadastro": "74296",
                            "@Partido": "PSDB      ",
                            "@UF": "CE",
                            "@Voto": "Sim            "
                        },
                        {
                            "@Nome": "Sérgio Machado",
                            "@ideCadastro": "73755",
                            "@Partido": "PSDB      ",
                            "@UF": "CE",
                            "@Voto": "Sim            "
                        },
                        {
                            "@Nome": "Marco Penaforte",
                            "@ideCadastro": "73719",
                            "@Partido": "PSDB      ",
                            "@UF": "CE",
                            "@Voto": "Sim            "
                        },
                        {
                            "@Nome": "Maria Luiza Fontenele",
                            "@ideCadastro": "73796",
                            "@Partido": "PSB       ",
                            "@UF": "CE",
                            "@Voto": "Não            "
                        },
                        {
                            "@Nome": "Moroni Torgan",
                            "@ideCadastro": "74457",
                            "@Partido": "PSDB      ",
                            "@UF": "CE",
                            "@Voto": "Sim            "
                        },
                        {
                            "@Nome": "Orlando Bezerra",
                            "@ideCadastro": "133909",
                            "@Partido": "PFL       ",
                            "@UF": "CE",
                            "@Voto": "Sim            "
                        },
                        {
                            "@Nome": "Ubiratan Aguiar",
                            "@ideCadastro": "74307",
                            "@Partido": "PMDB      ",
                            "@UF": "CE",
                            "@Voto": "Não            "
                        },
                        {
                            "@Nome": "Vicente Fialho",
                            "@ideCadastro": "133938",
                            "@Partido": "PFL       ",
                            "@UF": "CE",
                            "@Voto": "Sim            "
                        },
                        {
                            "@Nome": "B. Sá",
                            "@ideCadastro": "74312",
                            "@Partido": "PTR       ",
                            "@UF": "PI",
                            "@Voto": "Sim            "
                        },
                        {
                            "@Nome": "Jesus Tajra",
                            "@ideCadastro": "133862",
                            "@Partido": "PFL       ",
                            "@UF": "PI",
                            "@Voto": "Sim            "
                        },
                        {
                            "@Nome": "João Henrique",
                            "@ideCadastro": "74316",
                            "@Partido": "PMDB      ",
                            "@UF": "PI",
                            "@Voto": "Não            "
                        },
                        {
                            "@Nome": "José Luiz Maia",
                            "@ideCadastro": "133914",
                            "@Partido": "PDS       ",
                            "@UF": "PI",
                            "@Voto": "Sim            "
                        },
                        {
                            "@Nome": "Mussa Demes",
                            "@ideCadastro": "74318",
                            "@Partido": "PFL       ",
                            "@UF": "PI",
                            "@Voto": "Sim            "
                        },
                        {
                            "@Nome": "Paulo Silva",
                            "@ideCadastro": "73816",
                            "@Partido": "PSDB      ",
                            "@UF": "PI",
                            "@Voto": "Sim            "
                        },
                        {
                            "@Nome": "Fernando Freire",
                            "@ideCadastro": "73732",
                            "@Partido": "PDS       ",
                            "@UF": "RN",
                            "@Voto": "Sim            "
                        },
                        {
                            "@Nome": "João Faustino",
                            "@ideCadastro": "74128",
                            "@Partido": "PSDB      ",
                            "@UF": "RN",
                            "@Voto": "Sim            "
                        },
                        {
                            "@Nome": "Efraim Morais",
                            "@ideCadastro": "74407",
                            "@Partido": "PFL       ",
                            "@UF": "PB",
                            "@Voto": "Sim            "
                        },
                        {
                            "@Nome": "Evaldo Gonçalves",
                            "@ideCadastro": "133858",
                            "@Partido": "PFL       ",
                            "@UF": "PB",
                            "@Voto": "Sim            "
                        },
                        {
                            "@Nome": "Francisco Evangelista",
                            "@ideCadastro": "133925",
                            "@Partido": "S.Part.   ",
                            "@UF": "PB",
                            "@Voto": "Sim            "
                        },
                        {
                            "@Nome": "Ivandro Cunha Lima",
                            "@ideCadastro": "74410",
                            "@Partido": "PMDB      ",
                            "@UF": "PB",
                            "@Voto": "Não            "
                        },
                        {
                            "@Nome": "José Luiz Clerot",
                            "@ideCadastro": "74412",
                            "@Partido": "PMDB      ",
                            "@UF": "PB",
                            "@Voto": "Sim            "
                        },
                        {
                            "@Nome": "Zuca Moreira",
                            "@ideCadastro": "73713",
                            "@Partido": "PMDB      ",
                            "@UF": "PB",
                            "@Voto": "Sim            "
                        },
                        {
                            "@Nome": "Rivaldo Medeiros",
                            "@ideCadastro": "133926",
                            "@Partido": "PFL       ",
                            "@UF": "PB",
                            "@Voto": "Sim            "
                        },
                        {
                            "@Nome": "Inocêncio Oliveira",
                            "@ideCadastro": "74421",
                            "@Partido": "PFL       ",
                            "@UF": "PE",
                            "@Voto": "Abstenção      "
                        },
                        {
                            "@Nome": "Maviael Cavalcanti",
                            "@ideCadastro": "73818",
                            "@Partido": "PFL       ",
                            "@UF": "PE",
                            "@Voto": "Abstenção      "
                        },
                        {
                            "@Nome": "Nilson Gibson",
                            "@ideCadastro": "74429",
                            "@Partido": "PMDB      ",
                            "@UF": "PE",
                            "@Voto": "Não            "
                        },
                        {
                            "@Nome": "Renildo Calheiros",
                            "@ideCadastro": "73801",
                            "@Partido": "PCdoB     ",
                            "@UF": "PE",
                            "@Voto": "Não            "
                        },
                        {
                            "@Nome": "Ricardo Fiúza",
                            "@ideCadastro": "74557",
                            "@Partido": "PFL       ",
                            "@UF": "PE",
                            "@Voto": "Sim            "
                        },
                        {
                            "@Nome": "Roberto França",
                            "@ideCadastro": "73804",
                            "@Partido": "PSB       ",
                            "@UF": "PE",
                            "@Voto": "Abstenção      "
                        },
                        {
                            "@Nome": "Roberto Freire",
                            "@ideCadastro": "73805",
                            "@Partido": "PCB       ",
                            "@UF": "PE",
                            "@Voto": "Não            "
                        },
                        {
                            "@Nome": "Roberto Magalhães",
                            "@ideCadastro": "74433",
                            "@Partido": "PFL       ",
                            "@UF": "PE",
                            "@Voto": "Sim            "
                        },
                        {
                            "@Nome": "Sérgio Guerra",
                            "@ideCadastro": "74435",
                            "@Partido": "PSB       ",
                            "@UF": "PE",
                            "@Voto": "Não            "
                        },
                        {
                            "@Nome": "Wilson Campos",
                            "@ideCadastro": "74438",
                            "@Partido": "PMDB      ",
                            "@UF": "PE",
                            "@Voto": "Sim            "
                        },
                        {
                            "@Nome": "Augusto Farias",
                            "@ideCadastro": "74441",
                            "@Partido": "PSC       ",
                            "@UF": "AL",
                            "@Voto": "Sim            "
                        },
                        {
                            "@Nome": "José Thomaz Nonô",
                            "@ideCadastro": "74520",
                            "@Partido": "PMDB      ",
                            "@UF": "AL",
                            "@Voto": "Sim            "
                        },
                        {
                            "@Nome": "Luiz Dantas",
                            "@ideCadastro": "74521",
                            "@Partido": "PSD       ",
                            "@UF": "AL",
                            "@Voto": "Sim            "
                        },
                        {
                            "@Nome": "Olavo Calheiros",
                            "@ideCadastro": "74005",
                            "@Partido": "PMDB      ",
                            "@UF": "AL",
                            "@Voto": "Não            "
                        },
                        {
                            "@Nome": "Roberto Torres",
                            "@ideCadastro": "133913",
                            "@Partido": "PTB       ",
                            "@UF": "AL",
                            "@Voto": "Sim            "
                        },
                        {
                            "@Nome": "Vitório Malta",
                            "@ideCadastro": "73810",
                            "@Partido": "PDS       ",
                            "@UF": "AL",
                            "@Voto": "Sim            "
                        },
                        {
                            "@Nome": "Cleto Falcão",
                            "@ideCadastro": "73813",
                            "@Partido": "S.Part.   ",
                            "@UF": "AL",
                            "@Voto": "Não            "
                        },
                        {
                            "@Nome": "Benedito de Figueiredo",
                            "@ideCadastro": "133942",
                            "@Partido": "S.Part.   ",
                            "@UF": "SE",
                            "@Voto": "Não            "
                        },
                        {
                            "@Nome": "Djenal Gonçalves",
                            "@ideCadastro": "133856",
                            "@Partido": "PDS       ",
                            "@UF": "SE",
                            "@Voto": "Sim            "
                        },
                        {
                            "@Nome": "Jerônimo Reis",
                            "@ideCadastro": "74528",
                            "@Partido": "PMN       ",
                            "@UF": "SE",
                            "@Voto": "Sim            "
                        },
                        {
                            "@Nome": "José Teles",
                            "@ideCadastro": "74529",
                            "@Partido": "PDS       ",
                            "@UF": "SE",
                            "@Voto": "Sim            "
                        },
                        {
                            "@Nome": "Messias Gois",
                            "@ideCadastro": "74249",
                            "@Partido": "PFL       ",
                            "@UF": "SE",
                            "@Voto": "Sim            "
                        },
                        {
                            "@Nome": "Pedro Valadares",
                            "@ideCadastro": "74102",
                            "@Partido": "PST       ",
                            "@UF": "SE",
                            "@Voto": "Sim            "
                        },
                        {
                            "@Nome": "Ângelo Magalhães",
                            "@ideCadastro": "133978",
                            "@Partido": "PFL       ",
                            "@UF": "BA",
                            "@Voto": "Sim            "
                        },
                        {
                            "@Nome": "Beraldo Boaventura",
                            "@ideCadastro": "73814",
                            "@Partido": "PDT       ",
                            "@UF": "BA",
                            "@Voto": "Não            "
                        },
                        {
                            "@Nome": "Eraldo Tinoco",
                            "@ideCadastro": "74540",
                            "@Partido": "PFL       ",
                            "@UF": "BA",
                            "@Voto": "Sim            "
                        },
                        {
                            "@Nome": "Waldir Pires",
                            "@ideCadastro": "74576",
                            "@Partido": "PDT       ",
                            "@UF": "BA",
                            "@Voto": "Não            "
                        },
                        {
                            "@Nome": "Jairo Azi",
                            "@ideCadastro": "74546",
                            "@Partido": "PDC       ",
                            "@UF": "BA",
                            "@Voto": "Sim            "
                        },
                        {
                            "@Nome": "João Almeida",
                            "@ideCadastro": "74549",
                            "@Partido": "PMDB      ",
                            "@UF": "BA",
                            "@Voto": "Não            "
                        },
                        {
                            "@Nome": "José Falcão",
                            "@ideCadastro": "133941",
                            "@Partido": "PFL       ",
                            "@UF": "BA",
                            "@Voto": "Sim            "
                        },
                        {
                            "@Nome": "Ribeiro Tavares",
                            "@ideCadastro": "73830",
                            "@Partido": "PL        ",
                            "@UF": "BA",
                            "@Voto": "Sim            "
                        },
                        {
                            "@Nome": "Luís Eduardo",
                            "@ideCadastro": "74630",
                            "@Partido": "PFL       ",
                            "@UF": "BA",
                            "@Voto": "Sim            "
                        },
                        {
                            "@Nome": "Luiz Moreira",
                            "@ideCadastro": "74632",
                            "@Partido": "PTB       ",
                            "@UF": "BA",
                            "@Voto": "Sim            "
                        },
                        {
                            "@Nome": "Luiz Viana Neto",
                            "@ideCadastro": "133967",
                            "@Partido": "S.Part.   ",
                            "@UF": "BA",
                            "@Voto": "Sim            "
                        },
                        {
                            "@Nome": "Alcides Modesto",
                            "@ideCadastro": "74532",
                            "@Partido": "PT        ",
                            "@UF": "BA",
                            "@Voto": "Não            "
                        },
                        {
                            "@Nome": "Nestor Duarte",
                            "@ideCadastro": "74636",
                            "@Partido": "PMDB      ",
                            "@UF": "BA",
                            "@Voto": "Sim            "
                        },
                        {
                            "@Nome": "Pedro Irujo",
                            "@ideCadastro": "74637",
                            "@Partido": "PMDB      ",
                            "@UF": "BA",
                            "@Voto": "Não            "
                        },
                        {
                            "@Nome": "Sérgio Gaudenzi",
                            "@ideCadastro": "133949",
                            "@Partido": "PDT       ",
                            "@UF": "BA",
                            "@Voto": "Não            "
                        },
                        {
                            "@Nome": "Armando Costa",
                            "@ideCadastro": "74649",
                            "@Partido": "PMDB      ",
                            "@UF": "MG",
                            "@Voto": "Sim            "
                        },
                        {
                            "@Nome": "Avelino Costa",
                            "@ideCadastro": "73634",
                            "@Partido": "PL        ",
                            "@UF": "MG",
                            "@Voto": "Sim            "
                        },
                        {
                            "@Nome": "Edmar Moreira",
                            "@ideCadastro": "74580",
                            "@Partido": "PP        ",
                            "@UF": "MG",
                            "@Voto": "Sim            "
                        },
                        {
                            "@Nome": "Felipe Neri",
                            "@ideCadastro": "133918",
                            "@Partido": "PMDB      ",
                            "@UF": "MG",
                            "@Voto": "Sim            "
                        },
                        {
                            "@Nome": "Fernando Diniz",
                            "@ideCadastro": "74658",
                            "@Partido": "PMDB      ",
                            "@UF": "MG",
                            "@Voto": "Sim            "
                        },
                        {
                            "@Nome": "Genésio Bernardino",
                            "@ideCadastro": "74659",
                            "@Partido": "PMDB      ",
                            "@UF": "MG",
                            "@Voto": "Não            "
                        },
                        {
                            "@Nome": "Getúlio Neiva",
                            "@ideCadastro": "133920",
                            "@Partido": "PL        ",
                            "@UF": "MG",
                            "@Voto": "Sim            "
                        },
                        {
                            "@Nome": "Humberto Souto",
                            "@ideCadastro": "74662",
                            "@Partido": "PFL       ",
                            "@UF": "MG",
                            "@Voto": "Sim            "
                        },
                        {
                            "@Nome": "Ibrahim Abi-Ackel",
                            "@ideCadastro": "74663",
                            "@Partido": "PDS       ",
                            "@UF": "MG",
                            "@Voto": "Sim            "
                        },
                        {
                            "@Nome": "José Belato",
                            "@ideCadastro": "73749",
                            "@Partido": "PMDB      ",
                            "@UF": "MG",
                            "@Voto": "Sim            "
                        },
                        {
                            "@Nome": "José Aldo",
                            "@ideCadastro": "133848",
                            "@Partido": "PRS       ",
                            "@UF": "MG",
                            "@Voto": "Sim            "
                        },
                        {
                            "@Nome": "Elias Murad",
                            "@ideCadastro": "74656",
                            "@Partido": "PSDB      ",
                            "@UF": "MG",
                            "@Voto": "Sim            "
                        },
                        {
                            "@Nome": "José Geraldo",
                            "@ideCadastro": "133981",
                            "@Partido": "PMDB      ",
                            "@UF": "MG",
                            "@Voto": "Abstenção      "
                        },
                        {
                            "@Nome": "Neif Jabur",
                            "@ideCadastro": "74219",
                            "@Partido": "PMDB      ",
                            "@UF": "MG",
                            "@Voto": "Sim            "
                        },
                        {
                            "@Nome": "Leopoldo Bessone",
                            "@ideCadastro": "74743",
                            "@Partido": "PST       ",
                            "@UF": "MG",
                            "@Voto": "Sim            "
                        },
                        {
                            "@Nome": "Luiz Tadeu Leite",
                            "@ideCadastro": "133922",
                            "@Partido": "PMDB      ",
                            "@UF": "MG",
                            "@Voto": "Sim            "
                        },
                        {
                            "@Nome": "Marcos Lima",
                            "@ideCadastro": "74745",
                            "@Partido": "PMDB      ",
                            "@UF": "MG",
                            "@Voto": "Não            "
                        },
                        {
                            "@Nome": "Mario de Oliveira",
                            "@ideCadastro": "74747",
                            "@Partido": "PTR       ",
                            "@UF": "MG",
                            "@Voto": "Sim            "
                        },
                        {
                            "@Nome": "Nilmário Miranda",
                            "@ideCadastro": "74751",
                            "@Partido": "PT        ",
                            "@UF": "MG",
                            "@Voto": "Não            "
                        },
                        {
                            "@Nome": "Odelmo Leão",
                            "@ideCadastro": "74752",
                            "@Partido": "PP        ",
                            "@UF": "MG",
                            "@Voto": "Sim            "
                        },
                        {
                            "@Nome": "Osmânio Pereira",
                            "@ideCadastro": "74753",
                            "@Partido": "PSDB      ",
                            "@UF": "MG",
                            "@Voto": "Sim            "
                        },
                        {
                            "@Nome": "Paulo Delgado",
                            "@ideCadastro": "74754",
                            "@Partido": "PT        ",
                            "@UF": "MG",
                            "@Voto": "Não            "
                        },
                        {
                            "@Nome": "Paulo Heslander",
                            "@ideCadastro": "74755",
                            "@Partido": "PTB       ",
                            "@UF": "MG",
                            "@Voto": "Sim            "
                        },
                        {
                            "@Nome": "Romel Anísio",
                            "@ideCadastro": "74759",
                            "@Partido": "PP        ",
                            "@UF": "MG",
                            "@Voto": "Sim            "
                        },
                        {
                            "@Nome": "Samir Tannus",
                            "@ideCadastro": "133924",
                            "@Partido": "PDC       ",
                            "@UF": "MG",
                            "@Voto": "Sim            "
                        },
                        {
                            "@Nome": "Saulo Coelho",
                            "@ideCadastro": "73596",
                            "@Partido": "PSDB      ",
                            "@UF": "MG",
                            "@Voto": "Sim            "
                        },
                        {
                            "@Nome": "Sergio Naya",
                            "@ideCadastro": "74764",
                            "@Partido": "PMDB      ",
                            "@UF": "MG",
                            "@Voto": "Sim            "
                        },
                        {
                            "@Nome": "Tilden Santiago",
                            "@ideCadastro": "74767",
                            "@Partido": "PT        ",
                            "@UF": "MG",
                            "@Voto": "Não            "
                        },
                        {
                            "@Nome": "Vittorio Medioli",
                            "@ideCadastro": "74768",
                            "@Partido": "PSDB      ",
                            "@UF": "MG",
                            "@Voto": "Sim            "
                        },
                        {
                            "@Nome": "Wagner do Nascimento",
                            "@ideCadastro": "74132",
                            "@Partido": "PP        ",
                            "@UF": "MG",
                            "@Voto": "Sim            "
                        },
                        {
                            "@Nome": "Zaire Rezende",
                            "@ideCadastro": "74769",
                            "@Partido": "PMDB      ",
                            "@UF": "MG",
                            "@Voto": "Não            "
                        },
                        {
                            "@Nome": "Etevalda Grassi de Menezes",
                            "@ideCadastro": "74138",
                            "@Partido": "PMDB      ",
                            "@UF": "ES",
                            "@Voto": "Sim            "
                        },
                        {
                            "@Nome": "João Baptista Motta",
                            "@ideCadastro": "133891",
                            "@Partido": "PSDB      ",
                            "@UF": "ES",
                            "@Voto": "Sim            "
                        },
                        {
                            "@Nome": "Jones Santos Neves",
                            "@ideCadastro": "133974",
                            "@Partido": "PL        ",
                            "@UF": "ES",
                            "@Voto": "Sim            "
                        },
                        {
                            "@Nome": "Jorio de Barros",
                            "@ideCadastro": "133933",
                            "@Partido": "PMDB      ",
                            "@UF": "ES",
                            "@Voto": "Sim            "
                        },
                        {
                            "@Nome": "Paulo Hartung",
                            "@ideCadastro": "133934",
                            "@Partido": "PSDB      ",
                            "@UF": "ES",
                            "@Voto": "Não            "
                        },
                        {
                            "@Nome": "Roberto Valadão",
                            "@ideCadastro": "74826",
                            "@Partido": "PMDB      ",
                            "@UF": "ES",
                            "@Voto": "Não            "
                        },
                        {
                            "@Nome": "Aldir Cabral",
                            "@ideCadastro": "74828",
                            "@Partido": "PTB       ",
                            "@UF": "RJ",
                            "@Voto": "Sim            "
                        },
                        {
                            "@Nome": "Arolde de Oliveira",
                            "@ideCadastro": "74833",
                            "@Partido": "PFL       ",
                            "@UF": "RJ",
                            "@Voto": "Sim            "
                        },
                        {
                            "@Nome": "Carlos Alberto Campista",
                            "@ideCadastro": "74224",
                            "@Partido": "PDT       ",
                            "@UF": "RJ",
                            "@Voto": "Não            "
                        },
                        {
                            "@Nome": "Carlos Santana",
                            "@ideCadastro": "74835",
                            "@Partido": "PT        ",
                            "@UF": "RJ",
                            "@Voto": "Não            "
                        },
                        {
                            "@Nome": "Carlos Lupi",
                            "@ideCadastro": "73638",
                            "@Partido": "PDT       ",
                            "@UF": "RJ",
                            "@Voto": "Não            "
                        },
                        {
                            "@Nome": "Fábio Raunheitti",
                            "@ideCadastro": "65472",
                            "@Partido": "PTB       ",
                            "@UF": "RJ",
                            "@Voto": "Sim            "
                        },
                        {
                            "@Nome": "Amaral Netto",
                            "@ideCadastro": "74832",
                            "@Partido": "PDS       ",
                            "@UF": "RJ",
                            "@Voto": "Sim            "
                        },
                        {
                            "@Nome": "Jair Bolsonaro",
                            "@ideCadastro": "74847",
                            "@Partido": "PDC       ",
                            "@UF": "RJ",
                            "@Voto": "Sim            "
                        },
                        {
                            "@Nome": "João Mendes",
                            "@ideCadastro": "74849",
                            "@Partido": "PTB       ",
                            "@UF": "RJ",
                            "@Voto": "Não            "
                        },
                        {
                            "@Nome": "José Egydio",
                            "@ideCadastro": "74853",
                            "@Partido": "PL        ",
                            "@UF": "RJ",
                            "@Voto": "Sim            "
                        },
                        {
                            "@Nome": "Cidinha Campos",
                            "@ideCadastro": "74836",
                            "@Partido": "PDT       ",
                            "@UF": "RJ",
                            "@Voto": "Não            "
                        },
                        {
                            "@Nome": "Laprovita Vieira",
                            "@ideCadastro": "74855",
                            "@Partido": "PMDB      ",
                            "@UF": "RJ",
                            "@Voto": "Sim            "
                        },
                        {
                            "@Nome": "Artur da Tavola",
                            "@ideCadastro": "73503",
                            "@Partido": "PSDB      ",
                            "@UF": "RJ",
                            "@Voto": "Sim            "
                        },
                        {
                            "@Nome": "Paulo Portugal",
                            "@ideCadastro": "133947",
                            "@Partido": "PDT       ",
                            "@UF": "RJ",
                            "@Voto": "Não            "
                        },
                        {
                            "@Nome": "Regina Gordilho",
                            "@ideCadastro": "73800",
                            "@Partido": "PRONA     ",
                            "@UF": "RJ",
                            "@Voto": "Sim            "
                        },
                        {
                            "@Nome": "Rubem Medina",
                            "@ideCadastro": "73422",
                            "@Partido": "PFL       ",
                            "@UF": "RJ",
                            "@Voto": "Sim            "
                        },
                        {
                            "@Nome": "Sidney de Miguel",
                            "@ideCadastro": "73856",
                            "@Partido": "PV        ",
                            "@UF": "RJ",
                            "@Voto": "Não            "
                        },
                        {
                            "@Nome": "Simão Sessim",
                            "@ideCadastro": "73424",
                            "@Partido": "PPR       ",
                            "@UF": "RJ",
                            "@Voto": "Sim            "
                        },
                        {
                            "@Nome": "Vivaldo Barbosa",
                            "@ideCadastro": "74694",
                            "@Partido": "PDT       ",
                            "@UF": "RJ",
                            "@Voto": "Não            "
                        },
                        {
                            "@Nome": "Vladimir Palmeira",
                            "@ideCadastro": "133985",
                            "@Partido": "PT        ",
                            "@UF": "RJ",
                            "@Voto": "Não            "
                        },
                        {
                            "@Nome": "Wanda Reis",
                            "@ideCadastro": "73862",
                            "@Partido": "PMDB      ",
                            "@UF": "RJ",
                            "@Voto": "Abstenção      "
                        },
                        {
                            "@Nome": "Alberto Haddad",
                            "@ideCadastro": "73695",
                            "@Partido": "PTR       ",
                            "@UF": "SP",
                            "@Voto": "Sim            "
                        },
                        {
                            "@Nome": "Aloizio Mercadante",
                            "@ideCadastro": "74697",
                            "@Partido": "PT        ",
                            "@UF": "SP",
                            "@Voto": "Não            "
                        },
                        {
                            "@Nome": "André Benassi",
                            "@ideCadastro": "74698",
                            "@Partido": "PSDB      ",
                            "@UF": "SP",
                            "@Voto": "Sim            "
                        },
                        {
                            "@Nome": "Cunha Bueno",
                            "@ideCadastro": "73443",
                            "@Partido": "PDS       ",
                            "@UF": "SP",
                            "@Voto": "Sim            "
                        },
                        {
                            "@Nome": "Tidei de Lima",
                            "@ideCadastro": "133843",
                            "@Partido": "PMDB      ",
                            "@UF": "SP",
                            "@Voto": "Não            "
                        },
                        {
                            "@Nome": "Ary Kara",
                            "@ideCadastro": "73435",
                            "@Partido": "PMDB      ",
                            "@UF": "SP",
                            "@Voto": "Sim            "
                        },
                        {
                            "@Nome": "Diogo Nomura",
                            "@ideCadastro": "133885",
                            "@Partido": "PL        ",
                            "@UF": "SP",
                            "@Voto": "Sim            "
                        },
                        {
                            "@Nome": "Eduardo Jorge",
                            "@ideCadastro": "73448",
                            "@Partido": "PT        ",
                            "@UF": "SP",
                            "@Voto": "Não            "
                        },
                        {
                            "@Nome": "Ernesto Gradella",
                            "@ideCadastro": "73729",
                            "@Partido": "S.Part.   ",
                            "@UF": "SP",
                            "@Voto": "Não            "
                        },
                        {
                            "@Nome": "Vadão Gomes",
                            "@ideCadastro": "73564",
                            "@Partido": "PP        ",
                            "@UF": "SP",
                            "@Voto": "Sim            "
                        },
                        {
                            "@Nome": "Fábio Feldmann",
                            "@ideCadastro": "73449",
                            "@Partido": "PSDB      ",
                            "@UF": "SP",
                            "@Voto": "Sim            "
                        },
                        {
                            "@Nome": "Fábio Meirelles",
                            "@ideCadastro": "73730",
                            "@Partido": "PDS       ",
                            "@UF": "SP",
                            "@Voto": "Sim            "
                        },
                        {
                            "@Nome": "Florestan Fernandes",
                            "@ideCadastro": "133873",
                            "@Partido": "PT        ",
                            "@UF": "SP",
                            "@Voto": "Não            "
                        },
                        {
                            "@Nome": "Geraldo Alckmin Filho",
                            "@ideCadastro": "65480",
                            "@Partido": "PSDB      ",
                            "@UF": "SP",
                            "@Voto": "Sim            "
                        },
                        {
                            "@Nome": "Heitor Franco",
                            "@ideCadastro": "73739",
                            "@Partido": "PPR       ",
                            "@UF": "SP",
                            "@Voto": "Sim            "
                        },
                        {
                            "@Nome": "Hélio Rosas",
                            "@ideCadastro": "73530",
                            "@Partido": "PMDB      ",
                            "@UF": "SP",
                            "@Voto": "Sim            "
                        },
                        {
                            "@Nome": "Hélio Bicudo",
                            "@ideCadastro": "73453",
                            "@Partido": "PT        ",
                            "@UF": "SP",
                            "@Voto": "Não            "
                        },
                        {
                            "@Nome": "Irma Passoni",
                            "@ideCadastro": "133915",
                            "@Partido": "PT        ",
                            "@UF": "SP",
                            "@Voto": "Não            "
                        },
                        {
                            "@Nome": "Jorge Tadeu Mudalen",
                            "@ideCadastro": "73535",
                            "@Partido": "PMDB      ",
                            "@UF": "SP",
                            "@Voto": "Sim            "
                        },
                        {
                            "@Nome": "Aldo Rebelo",
                            "@ideCadastro": "73428",
                            "@Partido": "PCdoB     ",
                            "@UF": "SP",
                            "@Voto": "Não            "
                        },
                        {
                            "@Nome": "José Cicote",
                            "@ideCadastro": "73751",
                            "@Partido": "PT        ",
                            "@UF": "SP",
                            "@Voto": "Não            "
                        },
                        {
                            "@Nome": "José Genoíno",
                            "@ideCadastro": "73540",
                            "@Partido": "PT        ",
                            "@UF": "SP",
                            "@Voto": "Não            "
                        },
                        {
                            "@Nome": "Tuga Angerami",
                            "@ideCadastro": "73562",
                            "@Partido": "PSDB      ",
                            "@UF": "SP",
                            "@Voto": "Sim            "
                        },
                        {
                            "@Nome": "José Maria Eymael",
                            "@ideCadastro": "133839",
                            "@Partido": "PDC       ",
                            "@UF": "SP",
                            "@Voto": "Sim            "
                        },
                        {
                            "@Nome": "Mendes Botelho",
                            "@ideCadastro": "133965",
                            "@Partido": "PTB       ",
                            "@UF": "SP",
                            "@Voto": "Sim            "
                        },
                        {
                            "@Nome": "Magalhães Teixeira",
                            "@ideCadastro": "133879",
                            "@Partido": "PSDB      ",
                            "@UF": "SP",
                            "@Voto": "Abstenção      "
                        },
                        {
                            "@Nome": "José Serra",
                            "@ideCadastro": "65495",
                            "@Partido": "PSDB      ",
                            "@UF": "SP",
                            "@Voto": "Sim            "
                        },
                        {
                            "@Nome": "Koyu Iha",
                            "@ideCadastro": "73544",
                            "@Partido": "PSDB      ",
                            "@UF": "SP",
                            "@Voto": "Sim            "
                        },
                        {
                            "@Nome": "Luiz Carlos Santos",
                            "@ideCadastro": "73546",
                            "@Partido": "PMDB      ",
                            "@UF": "SP",
                            "@Voto": "Não            "
                        },
                        {
                            "@Nome": "Manoel Moreira",
                            "@ideCadastro": "73495",
                            "@Partido": "PMDB      ",
                            "@UF": "SP",
                            "@Voto": "Não            "
                        },
                        {
                            "@Nome": "Marcelino Romano Machado",
                            "@ideCadastro": "133887",
                            "@Partido": "PDS       ",
                            "@UF": "SP",
                            "@Voto": "Sim            "
                        },
                        {
                            "@Nome": "Marcelo Barbieri",
                            "@ideCadastro": "73548",
                            "@Partido": "PMDB      ",
                            "@UF": "SP",
                            "@Voto": "Sim            "
                        },
                        {
                            "@Nome": "Maurici Mariano",
                            "@ideCadastro": "133884",
                            "@Partido": "PMDB      ",
                            "@UF": "SP",
                            "@Voto": "Sim            "
                        },
                        {
                            "@Nome": "Nelson Marquezelli",
                            "@ideCadastro": "73553",
                            "@Partido": "PTB       ",
                            "@UF": "SP",
                            "@Voto": "Sim            "
                        },
                        {
                            "@Nome": "Pedro Pavão",
                            "@ideCadastro": "73850",
                            "@Partido": "PDS       ",
                            "@UF": "SP",
                            "@Voto": "Sim            "
                        },
                        {
                            "@Nome": "Ricardo Izar",
                            "@ideCadastro": "73557",
                            "@Partido": "PL        ",
                            "@UF": "SP",
                            "@Voto": "Sim            "
                        },
                        {
                            "@Nome": "Cardoso Alves",
                            "@ideCadastro": "133910",
                            "@Partido": "PTB       ",
                            "@UF": "SP",
                            "@Voto": "Sim            "
                        },
                        {
                            "@Nome": "Robson Tuma",
                            "@ideCadastro": "73558",
                            "@Partido": "PL        ",
                            "@UF": "SP",
                            "@Voto": "Sim            "
                        },
                        {
                            "@Nome": "Solon Borges dos Reis",
                            "@ideCadastro": "133966",
                            "@Partido": "PTB       ",
                            "@UF": "SP",
                            "@Voto": "Sim            "
                        },
                        {
                            "@Nome": "Walter Nory",
                            "@ideCadastro": "73812",
                            "@Partido": "PMDB      ",
                            "@UF": "SP",
                            "@Voto": "Sim            "
                        },
                        {
                            "@Nome": "Jonas Pinheiro",
                            "@ideCadastro": "73710",
                            "@Partido": "PFL       ",
                            "@UF": "MT",
                            "@Voto": "Sim            "
                        },
                        {
                            "@Nome": "Rodrigues Palma",
                            "@ideCadastro": "73650",
                            "@Partido": "PTB       ",
                            "@UF": "MT",
                            "@Voto": "Sim            "
                        },
                        {
                            "@Nome": "Chico Vigilante",
                            "@ideCadastro": "73657",
                            "@Partido": "PT        ",
                            "@UF": "DF",
                            "@Voto": "Não            "
                        },
                        {
                            "@Nome": "Sigmaringa Seixas",
                            "@ideCadastro": "73718",
                            "@Partido": "PSDB      ",
                            "@UF": "DF",
                            "@Voto": "Não            "
                        },
                        {
                            "@Nome": "Maria Laura",
                            "@ideCadastro": "73659",
                            "@Partido": "PT        ",
                            "@UF": "DF",
                            "@Voto": "Não            "
                        },
                        {
                            "@Nome": "Osório Adriano",
                            "@ideCadastro": "73660",
                            "@Partido": "PFL       ",
                            "@UF": "DF",
                            "@Voto": "Sim            "
                        },
                        {
                            "@Nome": "Antônio Faleiros",
                            "@ideCadastro": "66490",
                            "@Partido": "PSDB      ",
                            "@UF": "GO",
                            "@Voto": "Não            "
                        },
                        {
                            "@Nome": "Délio Braz",
                            "@ideCadastro": "133989",
                            "@Partido": "PFL       ",
                            "@UF": "GO",
                            "@Voto": "Sim            "
                        },
                        {
                            "@Nome": "João Natal",
                            "@ideCadastro": "73664",
                            "@Partido": "PMDB      ",
                            "@UF": "GO",
                            "@Voto": "Sim            "
                        },
                        {
                            "@Nome": "Maria Valadão",
                            "@ideCadastro": "73669",
                            "@Partido": "PDS       ",
                            "@UF": "GO",
                            "@Voto": "Sim            "
                        },
                        {
                            "@Nome": "Mauro Borges",
                            "@ideCadastro": "1535",
                            "@Partido": "PDC       ",
                            "@UF": "GO",
                            "@Voto": "Sim            "
                        },
                        {
                            "@Nome": "Mauro Miranda",
                            "@ideCadastro": "73797",
                            "@Partido": "PMDB      ",
                            "@UF": "GO",
                            "@Voto": "Não            "
                        },
                        {
                            "@Nome": "Paulo Mandarino",
                            "@ideCadastro": "73849",
                            "@Partido": "PDC       ",
                            "@UF": "GO",
                            "@Voto": "Sim            "
                        },
                        {
                            "@Nome": "Ronaldo Caiado",
                            "@ideCadastro": "74813",
                            "@Partido": "PFL       ",
                            "@UF": "GO",
                            "@Voto": "Sim            "
                        },
                        {
                            "@Nome": "George Takimoto",
                            "@ideCadastro": "133929",
                            "@Partido": "PFL       ",
                            "@UF": "MS",
                            "@Voto": "Sim            "
                        },
                        {
                            "@Nome": "Antônio Barbara",
                            "@ideCadastro": "73631",
                            "@Partido": "PMDB      ",
                            "@UF": "PR",
                            "@Voto": "Sim            "
                        },
                        {
                            "@Nome": "Romero Filho",
                            "@ideCadastro": "133945",
                            "@Partido": "PST       ",
                            "@UF": "PR",
                            "@Voto": "Sim            "
                        },
                        {
                            "@Nome": "Basílio Villani",
                            "@ideCadastro": "73767",
                            "@Partido": "PDS       ",
                            "@UF": "PR",
                            "@Voto": "Sim            "
                        },
                        {
                            "@Nome": "Carlos Scarpelini",
                            "@ideCadastro": "73640",
                            "@Partido": "PST       ",
                            "@UF": "PR",
                            "@Voto": "Sim            "
                        },
                        {
                            "@Nome": "Delcino Tavares",
                            "@ideCadastro": "73722",
                            "@Partido": "PST       ",
                            "@UF": "PR",
                            "@Voto": "Sim            "
                        },
                        {
                            "@Nome": "Edésio Passos",
                            "@ideCadastro": "73724",
                            "@Partido": "PT        ",
                            "@UF": "PR",
                            "@Voto": "Não            "
                        },
                        {
                            "@Nome": "Edi Siliprandi",
                            "@ideCadastro": "73705",
                            "@Partido": "PDT       ",
                            "@UF": "PR",
                            "@Voto": "Não            "
                        },
                        {
                            "@Nome": "Elio Dalla-Vecchia",
                            "@ideCadastro": "73706",
                            "@Partido": "PDT       ",
                            "@UF": "PR",
                            "@Voto": "Não            "
                        },
                        {
                            "@Nome": "Antônio Ueno",
                            "@ideCadastro": "73766",
                            "@Partido": "PFL       ",
                            "@UF": "PR",
                            "@Voto": "Sim            "
                        },
                        {
                            "@Nome": "Ivanio Guerra",
                            "@ideCadastro": "73570",
                            "@Partido": "PFL       ",
                            "@UF": "PR",
                            "@Voto": "Sim            "
                        },
                        {
                            "@Nome": "Luciano Pizzatto",
                            "@ideCadastro": "73777",
                            "@Partido": "PFL       ",
                            "@UF": "PR",
                            "@Voto": "Sim            "
                        },
                        {
                            "@Nome": "Matheus Iensen",
                            "@ideCadastro": "",
                            "@Partido": "PTB       ",
                            "@UF": "PR",
                            "@Voto": "Sim            "
                        },
                        {
                            "@Nome": "Otto Cunha",
                            "@ideCadastro": "133943",
                            "@Partido": "PPR       ",
                            "@UF": "PR",
                            "@Voto": "Sim            "
                        },
                        {
                            "@Nome": "Paulo Bernardo",
                            "@ideCadastro": "73784",
                            "@Partido": "PT        ",
                            "@UF": "PR",
                            "@Voto": "Não            "
                        },
                        {
                            "@Nome": "Munhoz da Rocha",
                            "@ideCadastro": "73847",
                            "@Partido": "PSDB      ",
                            "@UF": "PR",
                            "@Voto": "Sim            "
                        },
                        {
                            "@Nome": "Pedro Tonelli",
                            "@ideCadastro": "73799",
                            "@Partido": "PT        ",
                            "@UF": "PR",
                            "@Voto": "Não            "
                        },
                        {
                            "@Nome": "Reinhold Stephanes",
                            "@ideCadastro": "73786",
                            "@Partido": "PFL       ",
                            "@UF": "PR",
                            "@Voto": "Sim            "
                        },
                        {
                            "@Nome": "Rubens Bueno",
                            "@ideCadastro": "73466",
                            "@Partido": "PSDB      ",
                            "@UF": "PR",
                            "@Voto": "Sim            "
                        },
                        {
                            "@Nome": "Ângela Amin",
                            "@ideCadastro": "73696",
                            "@Partido": "PDS       ",
                            "@UF": "SC",
                            "@Voto": "Sim            "
                        },
                        {
                            "@Nome": "Cesar Souza",
                            "@ideCadastro": "73720",
                            "@Partido": "PFL       ",
                            "@UF": "SC",
                            "@Voto": "Sim            "
                        },
                        {
                            "@Nome": "Dércio Knop",
                            "@ideCadastro": "74215",
                            "@Partido": "PDT       ",
                            "@UF": "SC",
                            "@Voto": "Abstenção      "
                        },
                        {
                            "@Nome": "Hugo Biehl",
                            "@ideCadastro": "73795",
                            "@Partido": "PDS       ",
                            "@UF": "SC",
                            "@Voto": "Sim            "
                        },
                        {
                            "@Nome": "Jarvis Gaidzinski",
                            "@ideCadastro": "133954",
                            "@Partido": "PL        ",
                            "@UF": "SC",
                            "@Voto": "Sim            "
                        },
                        {
                            "@Nome": "Nelson Morro",
                            "@ideCadastro": "133882",
                            "@Partido": "PFL       ",
                            "@UF": "SC",
                            "@Voto": "Sim            "
                        },
                        {
                            "@Nome": "Neuto de Conto",
                            "@ideCadastro": "73881",
                            "@Partido": "PMDB      ",
                            "@UF": "SC",
                            "@Voto": "Não            "
                        },
                        {
                            "@Nome": "Vasco Furlan",
                            "@ideCadastro": "133960",
                            "@Partido": "PDS       ",
                            "@UF": "SC",
                            "@Voto": "Sim            "
                        },
                        {
                            "@Nome": "Fetter Júnior",
                            "@ideCadastro": "73896",
                            "@Partido": "PDS       ",
                            "@UF": "RS",
                            "@Voto": "Sim            "
                        },
                        {
                            "@Nome": "Adroaldo Streck",
                            "@ideCadastro": "73996",
                            "@Partido": "PSDB      ",
                            "@UF": "RS",
                            "@Voto": "Abstenção      "
                        },
                        {
                            "@Nome": "Adylson Motta",
                            "@ideCadastro": "73887",
                            "@Partido": "PDS       ",
                            "@UF": "RS",
                            "@Voto": "Sim            "
                        },
                        {
                            "@Nome": "Amaury Muller",
                            "@ideCadastro": "133852",
                            "@Partido": "PDT       ",
                            "@UF": "RS",
                            "@Voto": "Não            "
                        },
                        {
                            "@Nome": "Arno Magarinos",
                            "@ideCadastro": "133996",
                            "@Partido": "PPR       ",
                            "@UF": "RS",
                            "@Voto": "Sim            "
                        },
                        {
                            "@Nome": "Celso Bernardi",
                            "@ideCadastro": "133997",
                            "@Partido": "PDS       ",
                            "@UF": "RS",
                            "@Voto": "Sim            "
                        },
                        {
                            "@Nome": "Carrion Júnior",
                            "@ideCadastro": "133877",
                            "@Partido": "PDT       ",
                            "@UF": "RS",
                            "@Voto": "Não            "
                        },
                        {
                            "@Nome": "Germano Rigotto",
                            "@ideCadastro": "73897",
                            "@Partido": "PMDB      ",
                            "@UF": "RS",
                            "@Voto": "Não            "
                        },
                        {
                            "@Nome": "João de Deus Antunes",
                            "@ideCadastro": "133863",
                            "@Partido": "PDS       ",
                            "@UF": "RS",
                            "@Voto": "Sim            "
                        },
                        {
                            "@Nome": "Mendes Ribeiro",
                            "@ideCadastro": "133859",
                            "@Partido": "PMDB      ",
                            "@UF": "RS",
                            "@Voto": "Não            "
                        },
                        {
                            "@Nome": "José Fortunati",
                            "@ideCadastro": "73901",
                            "@Partido": "PT        ",
                            "@UF": "RS",
                            "@Voto": "Não            "
                        },
                        {
                            "@Nome": "Luis Roberto Ponte",
                            "@ideCadastro": "74002",
                            "@Partido": "PMDB      ",
                            "@UF": "RS",
                            "@Voto": "Não            "
                        },
                        {
                            "@Nome": "Nelson Jobim",
                            "@ideCadastro": "73798",
                            "@Partido": "PMDB      ",
                            "@UF": "RS",
                            "@Voto": "Não            "
                        },
                        {
                            "@Nome": "Odacir Klein",
                            "@ideCadastro": "73908",
                            "@Partido": "PMDB      ",
                            "@UF": "RS",
                            "@Voto": "Não            "
                        },
                        {
                            "@Nome": "Osvaldo Bender",
                            "@ideCadastro": "133845",
                            "@Partido": "PDS       ",
                            "@UF": "RS",
                            "@Voto": "Sim            "
                        },
                        {
                            "@Nome": "Paulo Paim",
                            "@ideCadastro": "73910",
                            "@Partido": "PT        ",
                            "@UF": "RS",
                            "@Voto": "Não            "
                        },
                        {
                            "@Nome": "Victor Faccioni",
                            "@ideCadastro": "133855",
                            "@Partido": "PDS       ",
                            "@UF": "RS",
                            "@Voto": "Sim            "
                        },
                        {
                            "@Nome": "Wilson Muller",
                            "@ideCadastro": "73863",
                            "@Partido": "PDT       ",
                            "@UF": "RS",
                            "@Voto": "Não            "
                        },
                        {
                            "@Nome": "Eurides Brito",
                            "@ideCadastro": "133892",
                            "@Partido": "PTR       ",
                            "@UF": "DF",
                            "@Voto": "Sim            "
                        },
                        {
                            "@Nome": "José Moura",
                            "@ideCadastro": "133977",
                            "@Partido": "PSC       ",
                            "@UF": "PE",
                            "@Voto": "Sim            "
                        },
                        {
                            "@Nome": "Jorge Uequed",
                            "@ideCadastro": "133854",
                            "@Partido": "PSDB      ",
                            "@UF": "RS",
                            "@Voto": "Sim            "
                        },
                        {
                            "@Nome": "Antônio de Jesus",
                            "@ideCadastro": "133868",
                            "@Partido": "PMDB      ",
                            "@UF": "GO",
                            "@Voto": "Sim            "
                        },
                        {
                            "@Nome": "Eliel Rodrigues",
                            "@ideCadastro": "133844",
                            "@Partido": "PMDB      ",
                            "@UF": "PA",
                            "@Voto": "Sim            "
                        },
                        {
                            "@Nome": "Laerte Bastos",
                            "@ideCadastro": "73869",
                            "@Partido": "PDT       ",
                            "@UF": "RJ",
                            "@Voto": "Não            "
                        },
                        {
                            "@Nome": "Roberto Rollemberg",
                            "@ideCadastro": "133992",
                            "@Partido": "PMDB      ",
                            "@UF": "SP",
                            "@Voto": "Sim            "
                        },
                        {
                            "@Nome": "Jairo Carneiro",
                            "@ideCadastro": "74547",
                            "@Partido": "PFL       ",
                            "@UF": "BA",
                            "@Voto": "Sim            "
                        },
                        {
                            "@Nome": "Orlando Pacheco",
                            "@ideCadastro": "133874",
                            "@Partido": "PTN       ",
                            "@UF": "SC",
                            "@Voto": "Sim            "
                        },
                        {
                            "@Nome": "Pedro Tassis",
                            "@ideCadastro": "133849",
                            "@Partido": "PMDB      ",
                            "@UF": "MG",
                            "@Voto": "Sim            "
                        },
                        {
                            "@Nome": "José Ulisses de Oliveira",
                            "@ideCadastro": "133962",
                            "@Partido": "PRS       ",
                            "@UF": "MG",
                            "@Voto": "Sim            "
                        },
                        {
                            "@Nome": "Annibal Teixeira",
                            "@ideCadastro": "133894",
                            "@Partido": "PTB       ",
                            "@UF": "MG",
                            "@Voto": "Sim            "
                        },
                        {
                            "@Nome": "Paulo Ramos",
                            "@ideCadastro": "133968",
                            "@Partido": "PDT       ",
                            "@UF": "RJ",
                            "@Voto": "Não            "
                        },
                        {
                            "@Nome": "Ubaldo Dantas",
                            "@ideCadastro": "133903",
                            "@Partido": "PSDB      ",
                            "@UF": "BA",
                            "@Voto": "Sim            "
                        },
                        {
                            "@Nome": "Cyro Garcia",
                            "@ideCadastro": "133900",
                            "@Partido": "PT        ",
                            "@UF": "RJ",
                            "@Voto": "Não            "
                        },
                        {
                            "@Nome": "Hilário Braun",
                            "@ideCadastro": "73708",
                            "@Partido": "PMDB      ",
                            "@UF": "RS",
                            "@Voto": "Não            "
                        },
                        {
                            "@Nome": "Alvaro Pereira",
                            "@ideCadastro": "73950",
                            "@Partido": "PSDB      ",
                            "@UF": "MG",
                            "@Voto": "Sim            "
                        },
                        {
                            "@Nome": "Raul Pont",
                            "@ideCadastro": "133953",
                            "@Partido": "PT        ",
                            "@UF": "RS",
                            "@Voto": "Não            "
                        }
                    ]
                }
            }
        }
    }
}