{
    "proposicao": {
        "Sigla": "PL",
        "Numero": "4605",
        "Ano": "1998",
        "Votacoes": {
            "Votacao": {
                "@Resumo": "",
                "@Data": "24/6/1998",
                "@Hora": "21:39",
                "@ObjVotacao": "REQUERIMENTO ADIAMENTO DA VOTACAO",
                "@codSessao": "2416",
                "votos": {
                    "Deputado": [
                        {
                            "@Nome": "Inocêncio Oliveira ",
                            "@ideCadastro": "74421",
                            "@Partido": "PFL       ",
                            "@UF": "PE",
                            "@Voto": "Não            "
                        },
                        {
                            "@Nome": "José Jorge",
                            "@ideCadastro": "74424",
                            "@Partido": "PFL       ",
                            "@UF": "PE",
                            "@Voto": "Não            "
                        },
                        {
                            "@Nome": "Benito Gama",
                            "@ideCadastro": "74535",
                            "@Partido": "PFL       ",
                            "@UF": "BA",
                            "@Voto": "Não            "
                        },
                        {
                            "@Nome": "Luiz Piauhylino",
                            "@ideCadastro": "74427",
                            "@Partido": "PSDB      ",
                            "@UF": "PE",
                            "@Voto": "Não            "
                        },
                        {
                            "@Nome": "João Leão",
                            "@ideCadastro": "74550",
                            "@Partido": "PSDB      ",
                            "@UF": "BA",
                            "@Voto": "Não            "
                        },
                        {
                            "@Nome": "Jorge Khoury",
                            "@ideCadastro": "74552",
                            "@Partido": "PFL       ",
                            "@UF": "BA",
                            "@Voto": "Não            "
                        },
                        {
                            "@Nome": "José Carlos Aleluia ",
                            "@ideCadastro": "74553",
                            "@Partido": "PFL       ",
                            "@UF": "BA",
                            "@Voto": "Não            "
                        },
                        {
                            "@Nome": "Roberto Santos",
                            "@ideCadastro": "74639",
                            "@Partido": "PSDB      ",
                            "@UF": "BA",
                            "@Voto": "Não            "
                        },
                        {
                            "@Nome": "Aécio Neves",
                            "@ideCadastro": "74646",
                            "@Partido": "PSDB      ",
                            "@UF": "MG",
                            "@Voto": "Não            "
                        },
                        {
                            "@Nome": "Antônio do Valle",
                            "@ideCadastro": "74647",
                            "@Partido": "PMDB      ",
                            "@UF": "MG",
                            "@Voto": "Não            "
                        },
                        {
                            "@Nome": "Danilo de Castro",
                            "@ideCadastro": "74654",
                            "@Partido": "PSDB      ",
                            "@UF": "MG",
                            "@Voto": "Não            "
                        },
                        {
                            "@Nome": "Eduardo Barbosa",
                            "@ideCadastro": "74655",
                            "@Partido": "PSDB      ",
                            "@UF": "MG",
                            "@Voto": "Não            "
                        },
                        {
                            "@Nome": "Romel Anízio",
                            "@ideCadastro": "74759",
                            "@Partido": "PPB       ",
                            "@UF": "MG",
                            "@Voto": "Não            "
                        },
                        {
                            "@Nome": "Odelmo Leão",
                            "@ideCadastro": "74752",
                            "@Partido": "PPB       ",
                            "@UF": "MG",
                            "@Voto": "Não            "
                        },
                        {
                            "@Nome": "Paulo Heslander",
                            "@ideCadastro": "74755",
                            "@Partido": "PTB       ",
                            "@UF": "MG",
                            "@Voto": "Não            "
                        },
                        {
                            "@Nome": "Roberto Brant ",
                            "@ideCadastro": "74758",
                            "@Partido": "PSDB      ",
                            "@UF": "MG",
                            "@Voto": "Não            "
                        },
                        {
                            "@Nome": "Feu Rosa",
                            "@ideCadastro": "74771",
                            "@Partido": "PSDB      ",
                            "@UF": "ES",
                            "@Voto": "Não            "
                        },
                        {
                            "@Nome": "Nilton Baiano",
                            "@ideCadastro": "74776",
                            "@Partido": "PPB       ",
                            "@UF": "ES",
                            "@Voto": "Não            "
                        },
                        {
                            "@Nome": "Rita Camata",
                            "@ideCadastro": "74777",
                            "@Partido": "PMDB      ",
                            "@UF": "ES",
                            "@Voto": "Abstenção      "
                        },
                        {
                            "@Nome": "Roberto Valadão",
                            "@ideCadastro": "74826",
                            "@Partido": "PMDB      ",
                            "@UF": "ES",
                            "@Voto": "Não            "
                        },
                        {
                            "@Nome": "Laprovita Vieira",
                            "@ideCadastro": "74855",
                            "@Partido": "PPB       ",
                            "@UF": "RJ",
                            "@Voto": "Não            "
                        },
                        {
                            "@Nome": "Laura Carneiro",
                            "@ideCadastro": "74856",
                            "@Partido": "PFL       ",
                            "@UF": "RJ",
                            "@Voto": "Não            "
                        },
                        {
                            "@Nome": "Aloysio Nunes Ferreira",
                            "@ideCadastro": "73430",
                            "@Partido": "PSDB      ",
                            "@UF": "SP",
                            "@Voto": "Não            "
                        },
                        {
                            "@Nome": "Duilio Pisaneschi",
                            "@ideCadastro": "73446",
                            "@Partido": "PTB       ",
                            "@UF": "SP",
                            "@Voto": "Não            "
                        },
                        {
                            "@Nome": "José Pinotti",
                            "@ideCadastro": "73542",
                            "@Partido": "PSB       ",
                            "@UF": "SP",
                            "@Voto": "Sim            "
                        },
                        {
                            "@Nome": "Michel Temer",
                            "@ideCadastro": "73552",
                            "@Partido": "PMDB      ",
                            "@UF": "SP",
                            "@Voto": "Abstenção      "
                        },
                        {
                            "@Nome": "De Velasco",
                            "@ideCadastro": "73554",
                            "@Partido": "PRONA     ",
                            "@UF": "SP",
                            "@Voto": "Não            "
                        },
                        {
                            "@Nome": "Paulo Lima",
                            "@ideCadastro": "73555",
                            "@Partido": "PFL       ",
                            "@UF": "SP",
                            "@Voto": "Sim            "
                        },
                        {
                            "@Nome": "Silvio Torres",
                            "@ideCadastro": "73560",
                            "@Partido": "PSDB      ",
                            "@UF": "SP",
                            "@Voto": "Não            "
                        },
                        {
                            "@Nome": "Jofran Frejat",
                            "@ideCadastro": "73658",
                            "@Partido": "PPB       ",
                            "@UF": "DF",
                            "@Voto": "Não            "
                        },
                        {
                            "@Nome": "Saulo Queiroz",
                            "@ideCadastro": "73763",
                            "@Partido": "PFL       ",
                            "@UF": "MS",
                            "@Voto": "Não            "
                        },
                        {
                            "@Nome": "Jovair Arantes",
                            "@ideCadastro": "73666",
                            "@Partido": "PSDB      ",
                            "@UF": "GO",
                            "@Voto": "Não            "
                        },
                        {
                            "@Nome": "Maria Valadão",
                            "@ideCadastro": "73669",
                            "@Partido": "PTB       ",
                            "@UF": "GO",
                            "@Voto": "Abstenção      "
                        },
                        {
                            "@Nome": "Marisa Serrano",
                            "@ideCadastro": "73760",
                            "@Partido": "PSDB      ",
                            "@UF": "MS",
                            "@Voto": "Não            "
                        },
                        {
                            "@Nome": "Adylson Motta",
                            "@ideCadastro": "73887",
                            "@Partido": "PPB       ",
                            "@UF": "RS",
                            "@Voto": "Não            "
                        },
                        {
                            "@Nome": "Augusto Nardes",
                            "@ideCadastro": "73889",
                            "@Partido": "PPB       ",
                            "@UF": "RS",
                            "@Voto": "Não            "
                        },
                        {
                            "@Nome": "Basílio Villani",
                            "@ideCadastro": "73767",
                            "@Partido": "PSDB      ",
                            "@UF": "PR",
                            "@Voto": "Não            "
                        },
                        {
                            "@Nome": "Fernando Ribas Carli",
                            "@ideCadastro": "73770",
                            "@Partido": "PPB       ",
                            "@UF": "PR",
                            "@Voto": "Não            "
                        },
                        {
                            "@Nome": "Luiz Carlos Hauly",
                            "@ideCadastro": "73778",
                            "@Partido": "PSDB      ",
                            "@UF": "PR",
                            "@Voto": "Não            "
                        },
                        {
                            "@Nome": "Padre Roque",
                            "@ideCadastro": "73783",
                            "@Partido": "PT        ",
                            "@UF": "PR",
                            "@Voto": "Sim            "
                        },
                        {
                            "@Nome": "Valdomiro Meger",
                            "@ideCadastro": "73790",
                            "@Partido": "PFL       ",
                            "@UF": "PR",
                            "@Voto": "Não            "
                        },
                        {
                            "@Nome": "Mário Cavallazzi",
                            "@ideCadastro": "73879",
                            "@Partido": "PPB       ",
                            "@UF": "SC",
                            "@Voto": "Não            "
                        },
                        {
                            "@Nome": "Paulo Bornhausen",
                            "@ideCadastro": "73883",
                            "@Partido": "PFL       ",
                            "@UF": "SC",
                            "@Voto": "Não            "
                        },
                        {
                            "@Nome": "Paulo Gouvêa",
                            "@ideCadastro": "73884",
                            "@Partido": "PFL       ",
                            "@UF": "SC",
                            "@Voto": "Não            "
                        },
                        {
                            "@Nome": "Nelson Marchezan",
                            "@ideCadastro": "73906",
                            "@Partido": "PSDB      ",
                            "@UF": "RS",
                            "@Voto": "Não            "
                        },
                        {
                            "@Nome": "Arnaldo Madeira",
                            "@ideCadastro": "73993",
                            "@Partido": "PSDB      ",
                            "@UF": "SP",
                            "@Voto": "Sim            "
                        },
                        {
                            "@Nome": "Fetter Júnior ",
                            "@ideCadastro": "73896",
                            "@Partido": "PPB       ",
                            "@UF": "RS",
                            "@Voto": "Não            "
                        },
                        {
                            "@Nome": "Ariosto Holanda",
                            "@ideCadastro": "74103",
                            "@Partido": "PSDB      ",
                            "@UF": "CE",
                            "@Voto": "Não            "
                        },
                        {
                            "@Nome": "Wagner do Nascimento ",
                            "@ideCadastro": "74132",
                            "@Partido": "PPB       ",
                            "@UF": "MG",
                            "@Voto": "Não            "
                        },
                        {
                            "@Nome": "Asdrúbal Bentes",
                            "@ideCadastro": "74222",
                            "@Partido": "PMDB      ",
                            "@UF": "PA",
                            "@Voto": "Não            "
                        },
                        {
                            "@Nome": "Marcus Vicente",
                            "@ideCadastro": "74235",
                            "@Partido": "PSDB      ",
                            "@UF": "ES",
                            "@Voto": "Não            "
                        },
                        {
                            "@Nome": "Pimentel Gomes",
                            "@ideCadastro": "74303",
                            "@Partido": "PPS       ",
                            "@UF": "CE",
                            "@Voto": "Não            "
                        },
                        {
                            "@Nome": "Rommel Feijó",
                            "@ideCadastro": "74306",
                            "@Partido": "PSDB      ",
                            "@UF": "CE",
                            "@Voto": "Não            "
                        },
                        {
                            "@Nome": "Ubiratan Aguiar",
                            "@ideCadastro": "74307",
                            "@Partido": "PSDB      ",
                            "@UF": "CE",
                            "@Voto": "Não            "
                        },
                        {
                            "@Nome": "Augusto Viveiros",
                            "@ideCadastro": "74320",
                            "@Partido": "PFL       ",
                            "@UF": "RN",
                            "@Voto": "Não            "
                        },
                        {
                            "@Nome": "Zila Bezerra",
                            "@ideCadastro": "74185",
                            "@Partido": "PFL       ",
                            "@UF": "AC",
                            "@Voto": "Não            "
                        },
                        {
                            "@Nome": "Antônio Jorge",
                            "@ideCadastro": "74186",
                            "@Partido": "PFL       ",
                            "@UF": "TO",
                            "@Voto": "Não            "
                        },
                        {
                            "@Nome": "Nicias Ribeiro",
                            "@ideCadastro": "74080",
                            "@Partido": "PSDB      ",
                            "@UF": "PA",
                            "@Voto": "Não            "
                        },
                        {
                            "@Nome": "José Melo",
                            "@ideCadastro": "74093",
                            "@Partido": "PFL       ",
                            "@UF": "AM",
                            "@Voto": "Sim            "
                        },
                        {
                            "@Nome": "Emerson Olavo Pires",
                            "@ideCadastro": "74098",
                            "@Partido": "PSDB      ",
                            "@UF": "RO",
                            "@Voto": "Sim            "
                        },
                        {
                            "@Nome": "José Priante",
                            "@ideCadastro": "74079",
                            "@Partido": "PMDB      ",
                            "@UF": "PA",
                            "@Voto": "Não            "
                        },
                        {
                            "@Nome": "Antonio Feijão",
                            "@ideCadastro": "73987",
                            "@Partido": "PSDB      ",
                            "@UF": "AP",
                            "@Voto": "Não            "
                        },
                        {
                            "@Nome": "Eraldo Trindade",
                            "@ideCadastro": "74064",
                            "@Partido": "PPB       ",
                            "@UF": "AP",
                            "@Voto": "Não            "
                        },
                        {
                            "@Nome": "Sérgio Barcellos",
                            "@ideCadastro": "74069",
                            "@Partido": "PFL       ",
                            "@UF": "AP",
                            "@Voto": "Não            "
                        },
                        {
                            "@Nome": "Valdenor Guedes",
                            "@ideCadastro": "74070",
                            "@Partido": "PPB       ",
                            "@UF": "AP",
                            "@Voto": "Não            "
                        },
                        {
                            "@Nome": "Benedito Guimarães ",
                            "@ideCadastro": "74074",
                            "@Partido": "PPB       ",
                            "@UF": "PA",
                            "@Voto": "Não            "
                        },
                        {
                            "@Nome": "Alzira Éwerton",
                            "@ideCadastro": "74088",
                            "@Partido": "PSDB      ",
                            "@UF": "AM",
                            "@Voto": "Não            "
                        }
                    ]
                }
            }
        }
    }
}