{
    "proposicao": {
        "Sigla": "PL",
        "Numero": "91",
        "Ano": "1991",
        "Votacoes": {
            "Votacao": {
                "@Resumo": "",
                "@Data": "18/12/1991",
                "@Hora": "23:46",
                "@ObjVotacao": "DESTAQUE ADICAO EXPRESSAO ART. 1.",
                "@codSessao": "2102",
                "votos": {
                    "Deputado": [
                        {
                            "@Nome": "Alceste Almeida",
                            "@ideCadastro": "73979",
                            "@Partido": "PTB       ",
                            "@UF": "RR",
                            "@Voto": "Sim            "
                        },
                        {
                            "@Nome": "Francisco Rodrigues",
                            "@ideCadastro": "73981",
                            "@Partido": "PTB       ",
                            "@UF": "RR",
                            "@Voto": "Sim            "
                        },
                        {
                            "@Nome": "João Fagundes",
                            "@ideCadastro": "133881",
                            "@Partido": "PMDB      ",
                            "@UF": "RR",
                            "@Voto": "Sim            "
                        },
                        {
                            "@Nome": "Marcelo Luz",
                            "@ideCadastro": "133880",
                            "@Partido": "PTR       ",
                            "@UF": "RR",
                            "@Voto": "Sim            "
                        },
                        {
                            "@Nome": "Ruben Bento",
                            "@ideCadastro": "73807",
                            "@Partido": "PFL       ",
                            "@UF": "RR",
                            "@Voto": "Sim            "
                        },
                        {
                            "@Nome": "Aroldo Góes",
                            "@ideCadastro": "73699",
                            "@Partido": "PDT       ",
                            "@UF": "AP",
                            "@Voto": "Sim            "
                        },
                        {
                            "@Nome": "Valdenor Guedes",
                            "@ideCadastro": "74070",
                            "@Partido": "PTR       ",
                            "@UF": "AP",
                            "@Voto": "Sim            "
                        },
                        {
                            "@Nome": "Alacid Nunes",
                            "@ideCadastro": "133939",
                            "@Partido": "PFL       ",
                            "@UF": "PA",
                            "@Voto": "Sim            "
                        },
                        {
                            "@Nome": "Carlos Kayath",
                            "@ideCadastro": "73637",
                            "@Partido": "PTB       ",
                            "@UF": "PA",
                            "@Voto": "Sim            "
                        },
                        {
                            "@Nome": "Giovanni Queiroz",
                            "@ideCadastro": "74077",
                            "@Partido": "PDT       ",
                            "@UF": "PA",
                            "@Voto": "Sim            "
                        },
                        {
                            "@Nome": "Hermínio Calvinho",
                            "@ideCadastro": "73740",
                            "@Partido": "PMDB      ",
                            "@UF": "PA",
                            "@Voto": "Sim            "
                        },
                        {
                            "@Nome": "José Diogo",
                            "@ideCadastro": "133940",
                            "@Partido": "PDS       ",
                            "@UF": "PA",
                            "@Voto": "Sim            "
                        },
                        {
                            "@Nome": "Socorro Gomes",
                            "@ideCadastro": "74085",
                            "@Partido": "PCdoB     ",
                            "@UF": "PA",
                            "@Voto": "Sim            "
                        },
                        {
                            "@Nome": "Osvaldo Melo",
                            "@ideCadastro": "133955",
                            "@Partido": "PDS       ",
                            "@UF": "PA",
                            "@Voto": "Sim            "
                        },
                        {
                            "@Nome": "Paulo Rocha",
                            "@ideCadastro": "74082",
                            "@Partido": "PT        ",
                            "@UF": "PA",
                            "@Voto": "Sim            "
                        },
                        {
                            "@Nome": "Valdir Ganzer",
                            "@ideCadastro": "74348",
                            "@Partido": "PT        ",
                            "@UF": "PA",
                            "@Voto": "Sim            "
                        },
                        {
                            "@Nome": "Eduardo Braga",
                            "@ideCadastro": "133917",
                            "@Partido": "PDC       ",
                            "@UF": "AM",
                            "@Voto": "Sim            "
                        },
                        {
                            "@Nome": "José Dutra",
                            "@ideCadastro": "133867",
                            "@Partido": "PMDB      ",
                            "@UF": "AM",
                            "@Voto": "Sim            "
                        },
                        {
                            "@Nome": "Pauderney Avelino",
                            "@ideCadastro": "74095",
                            "@Partido": "PDC       ",
                            "@UF": "AM",
                            "@Voto": "Sim            "
                        },
                        {
                            "@Nome": "Nobel Moura",
                            "@ideCadastro": "133956",
                            "@Partido": "PTR       ",
                            "@UF": "RO",
                            "@Voto": "Não            "
                        },
                        {
                            "@Nome": "Adelaide Neri",
                            "@ideCadastro": "73823",
                            "@Partido": "PMDB      ",
                            "@UF": "AC",
                            "@Voto": "Sim            "
                        },
                        {
                            "@Nome": "João Maia",
                            "@ideCadastro": "141459",
                            "@Partido": "PTR       ",
                            "@UF": "AC",
                            "@Voto": "Sim            "
                        },
                        {
                            "@Nome": "Zilá Bezerra",
                            "@ideCadastro": "74185",
                            "@Partido": "PMDB      ",
                            "@UF": "AC",
                            "@Voto": "Sim            "
                        },
                        {
                            "@Nome": "Derval de Paiva",
                            "@ideCadastro": "73704",
                            "@Partido": "PMDB      ",
                            "@UF": "TO",
                            "@Voto": "Sim            "
                        },
                        {
                            "@Nome": "Freire Júnior",
                            "@ideCadastro": "74189",
                            "@Partido": "PMDB      ",
                            "@UF": "TO",
                            "@Voto": "Sim            "
                        },
                        {
                            "@Nome": "Osvaldo Reis",
                            "@ideCadastro": "74191",
                            "@Partido": "PTR       ",
                            "@UF": "TO",
                            "@Voto": "Sim            "
                        },
                        {
                            "@Nome": "Costa Ferreira",
                            "@ideCadastro": "74016",
                            "@Partido": "PTR       ",
                            "@UF": "MA",
                            "@Voto": "Sim            "
                        },
                        {
                            "@Nome": "Daniel Silva",
                            "@ideCadastro": "73703",
                            "@Partido": "PDS       ",
                            "@UF": "MA",
                            "@Voto": "Sim            "
                        },
                        {
                            "@Nome": "Nan Souza",
                            "@ideCadastro": "74013",
                            "@Partido": "PST       ",
                            "@UF": "MA",
                            "@Voto": "Sim            "
                        },
                        {
                            "@Nome": "Francisco Coelho",
                            "@ideCadastro": "74199",
                            "@Partido": "PDC       ",
                            "@UF": "MA",
                            "@Voto": "Sim            "
                        },
                        {
                            "@Nome": "Haroldo Sabóia",
                            "@ideCadastro": "68676",
                            "@Partido": "PT        ",
                            "@UF": "MA",
                            "@Voto": "Sim            "
                        },
                        {
                            "@Nome": "José Carlos Saboia",
                            "@ideCadastro": "74203",
                            "@Partido": "PSB       ",
                            "@UF": "MA",
                            "@Voto": "Sim            "
                        },
                        {
                            "@Nome": "José Burnett",
                            "@ideCadastro": "133936",
                            "@Partido": "PPR       ",
                            "@UF": "MA",
                            "@Voto": "Sim            "
                        },
                        {
                            "@Nome": "Pedro Novais",
                            "@ideCadastro": "74207",
                            "@Partido": "PDC       ",
                            "@UF": "MA",
                            "@Voto": "Sim            "
                        },
                        {
                            "@Nome": "Roseana Sarney",
                            "@ideCadastro": "73806",
                            "@Partido": "PFL       ",
                            "@UF": "MA",
                            "@Voto": "Sim            "
                        },
                        {
                            "@Nome": "Antônio dos Santos",
                            "@ideCadastro": "74214",
                            "@Partido": "PFL       ",
                            "@UF": "CE",
                            "@Voto": "Sim            "
                        },
                        {
                            "@Nome": "Carlos Benevides",
                            "@ideCadastro": "73702",
                            "@Partido": "PMDB      ",
                            "@UF": "CE",
                            "@Voto": "Sim            "
                        },
                        {
                            "@Nome": "Edson Silva",
                            "@ideCadastro": "74106",
                            "@Partido": "PDT       ",
                            "@UF": "CE",
                            "@Voto": "Sim            "
                        },
                        {
                            "@Nome": "Etevaldo Nogueira",
                            "@ideCadastro": "133840",
                            "@Partido": "PFL       ",
                            "@UF": "CE",
                            "@Voto": "Abstenção      "
                        },
                        {
                            "@Nome": "Pinheiro Landim",
                            "@ideCadastro": "74304",
                            "@Partido": "PMDB      ",
                            "@UF": "CE",
                            "@Voto": "Sim            "
                        },
                        {
                            "@Nome": "Jackson Pereira",
                            "@ideCadastro": "74296",
                            "@Partido": "PSDB      ",
                            "@UF": "CE",
                            "@Voto": "Sim            "
                        },
                        {
                            "@Nome": "Sérgio Machado",
                            "@ideCadastro": "73755",
                            "@Partido": "PSDB      ",
                            "@UF": "CE",
                            "@Voto": "Sim            "
                        },
                        {
                            "@Nome": "Marco Penaforte",
                            "@ideCadastro": "73719",
                            "@Partido": "PSDB      ",
                            "@UF": "CE",
                            "@Voto": "Sim            "
                        },
                        {
                            "@Nome": "Vicente Fialho",
                            "@ideCadastro": "133938",
                            "@Partido": "PFL       ",
                            "@UF": "CE",
                            "@Voto": "Sim            "
                        },
                        {
                            "@Nome": "B. Sá",
                            "@ideCadastro": "74312",
                            "@Partido": "PTR       ",
                            "@UF": "PI",
                            "@Voto": "Sim            "
                        },
                        {
                            "@Nome": "Ciro Nogueira",
                            "@ideCadastro": "74313",
                            "@Partido": "PFL       ",
                            "@UF": "PI",
                            "@Voto": "Sim            "
                        },
                        {
                            "@Nome": "Jesus Tajra",
                            "@ideCadastro": "133862",
                            "@Partido": "PFL       ",
                            "@UF": "PI",
                            "@Voto": "Sim            "
                        },
                        {
                            "@Nome": "João Henrique",
                            "@ideCadastro": "74316",
                            "@Partido": "PMDB      ",
                            "@UF": "PI",
                            "@Voto": "Sim            "
                        },
                        {
                            "@Nome": "Paes Landim",
                            "@ideCadastro": "74319",
                            "@Partido": "PFL       ",
                            "@UF": "PI",
                            "@Voto": "Sim            "
                        },
                        {
                            "@Nome": "José Luiz Maia",
                            "@ideCadastro": "133914",
                            "@Partido": "PDS       ",
                            "@UF": "PI",
                            "@Voto": "Sim            "
                        },
                        {
                            "@Nome": "Paulo Silva",
                            "@ideCadastro": "73816",
                            "@Partido": "PSDB      ",
                            "@UF": "PI",
                            "@Voto": "Sim            "
                        },
                        {
                            "@Nome": "Aluizio Alves",
                            "@ideCadastro": "133958",
                            "@Partido": "PMDB      ",
                            "@UF": "RN",
                            "@Voto": "Sim            "
                        },
                        {
                            "@Nome": "João Faustino",
                            "@ideCadastro": "74128",
                            "@Partido": "PSDB      ",
                            "@UF": "RN",
                            "@Voto": "Sim            "
                        },
                        {
                            "@Nome": "Adauto Pereira",
                            "@ideCadastro": "74328",
                            "@Partido": "PFL       ",
                            "@UF": "PB",
                            "@Voto": "Sim            "
                        },
                        {
                            "@Nome": "Efraim Morais",
                            "@ideCadastro": "74407",
                            "@Partido": "PFL       ",
                            "@UF": "PB",
                            "@Voto": "Sim            "
                        },
                        {
                            "@Nome": "Evaldo Gonçalves",
                            "@ideCadastro": "133858",
                            "@Partido": "PFL       ",
                            "@UF": "PB",
                            "@Voto": "Sim            "
                        },
                        {
                            "@Nome": "José Luiz Clerot",
                            "@ideCadastro": "74412",
                            "@Partido": "PMDB      ",
                            "@UF": "PB",
                            "@Voto": "Sim            "
                        },
                        {
                            "@Nome": "Alvaro Ribeiro",
                            "@ideCadastro": "74247",
                            "@Partido": "PSB       ",
                            "@UF": "PE",
                            "@Voto": "Sim            "
                        },
                        {
                            "@Nome": "Antônio Geraldo",
                            "@ideCadastro": "74415",
                            "@Partido": "PFL       ",
                            "@UF": "PE",
                            "@Voto": "Sim            "
                        },
                        {
                            "@Nome": "Gilson Machado",
                            "@ideCadastro": "133842",
                            "@Partido": "PFL       ",
                            "@UF": "PE",
                            "@Voto": "Sim            "
                        },
                        {
                            "@Nome": "Inocêncio Oliveira",
                            "@ideCadastro": "74421",
                            "@Partido": "PFL       ",
                            "@UF": "PE",
                            "@Voto": "Sim            "
                        },
                        {
                            "@Nome": "José Carlos Vasconcellos",
                            "@ideCadastro": "133976",
                            "@Partido": "PRN       ",
                            "@UF": "PE",
                            "@Voto": "Sim            "
                        },
                        {
                            "@Nome": "José Mendonça Bezerra",
                            "@ideCadastro": "74425",
                            "@Partido": "PFL       ",
                            "@UF": "PE",
                            "@Voto": "Sim            "
                        },
                        {
                            "@Nome": "Luiz Piauhylino",
                            "@ideCadastro": "74427",
                            "@Partido": "PSB       ",
                            "@UF": "PE",
                            "@Voto": "Sim            "
                        },
                        {
                            "@Nome": "Maurílio Ferreira Lima",
                            "@ideCadastro": "65904",
                            "@Partido": "PMDB      ",
                            "@UF": "PE",
                            "@Voto": "Sim            "
                        },
                        {
                            "@Nome": "Maviael Cavalcanti",
                            "@ideCadastro": "73818",
                            "@Partido": "PFL       ",
                            "@UF": "PE",
                            "@Voto": "Sim            "
                        },
                        {
                            "@Nome": "Miguel Arraes",
                            "@ideCadastro": "65511",
                            "@Partido": "PSB       ",
                            "@UF": "PE",
                            "@Voto": "Sim            "
                        },
                        {
                            "@Nome": "Nilson Gibson",
                            "@ideCadastro": "74429",
                            "@Partido": "PMDB      ",
                            "@UF": "PE",
                            "@Voto": "Sim            "
                        },
                        {
                            "@Nome": "Pedro Correa",
                            "@ideCadastro": "74431",
                            "@Partido": "PFL       ",
                            "@UF": "PE",
                            "@Voto": "Sim            "
                        },
                        {
                            "@Nome": "Renildo Calheiros",
                            "@ideCadastro": "73801",
                            "@Partido": "PCdoB     ",
                            "@UF": "PE",
                            "@Voto": "Sim            "
                        },
                        {
                            "@Nome": "Ricardo Fiúza",
                            "@ideCadastro": "74557",
                            "@Partido": "PFL       ",
                            "@UF": "PE",
                            "@Voto": "Sim            "
                        },
                        {
                            "@Nome": "Roberto Freire",
                            "@ideCadastro": "73805",
                            "@Partido": "PCB       ",
                            "@UF": "PE",
                            "@Voto": "Sim            "
                        },
                        {
                            "@Nome": "Salatiel Carvalho",
                            "@ideCadastro": "74434",
                            "@Partido": "PTR       ",
                            "@UF": "PE",
                            "@Voto": "Sim            "
                        },
                        {
                            "@Nome": "Sérgio Guerra",
                            "@ideCadastro": "74435",
                            "@Partido": "PSB       ",
                            "@UF": "PE",
                            "@Voto": "Sim            "
                        },
                        {
                            "@Nome": "Antônio Holanda",
                            "@ideCadastro": "73697",
                            "@Partido": "PSC       ",
                            "@UF": "AL",
                            "@Voto": "Sim            "
                        },
                        {
                            "@Nome": "Augusto Farias",
                            "@ideCadastro": "74441",
                            "@Partido": "PSC       ",
                            "@UF": "AL",
                            "@Voto": "Sim            "
                        },
                        {
                            "@Nome": "Roberto Torres",
                            "@ideCadastro": "133913",
                            "@Partido": "PTB       ",
                            "@UF": "AL",
                            "@Voto": "Sim            "
                        },
                        {
                            "@Nome": "Vitório Malta",
                            "@ideCadastro": "73810",
                            "@Partido": "PDS       ",
                            "@UF": "AL",
                            "@Voto": "Sim            "
                        },
                        {
                            "@Nome": "Benedito de Figueiredo",
                            "@ideCadastro": "133942",
                            "@Partido": "S.Part.   ",
                            "@UF": "SE",
                            "@Voto": "Sim            "
                        },
                        {
                            "@Nome": "Djenal Gonçalves",
                            "@ideCadastro": "133856",
                            "@Partido": "PDS       ",
                            "@UF": "SE",
                            "@Voto": "Sim            "
                        },
                        {
                            "@Nome": "Jerônimo Reis",
                            "@ideCadastro": "74528",
                            "@Partido": "PMN       ",
                            "@UF": "SE",
                            "@Voto": "Abstenção      "
                        },
                        {
                            "@Nome": "Cleonancio Fonseca",
                            "@ideCadastro": "74527",
                            "@Partido": "PPR       ",
                            "@UF": "SE",
                            "@Voto": "Sim            "
                        },
                        {
                            "@Nome": "Evaraldo de Oliveira",
                            "@ideCadastro": "73712",
                            "@Partido": "PFL       ",
                            "@UF": "SE",
                            "@Voto": "Sim            "
                        },
                        {
                            "@Nome": "José Teles",
                            "@ideCadastro": "74529",
                            "@Partido": "PDS       ",
                            "@UF": "SE",
                            "@Voto": "Sim            "
                        },
                        {
                            "@Nome": "Messias Gois",
                            "@ideCadastro": "74249",
                            "@Partido": "PFL       ",
                            "@UF": "SE",
                            "@Voto": "Sim            "
                        },
                        {
                            "@Nome": "Pedro Valadares",
                            "@ideCadastro": "74102",
                            "@Partido": "PST       ",
                            "@UF": "SE",
                            "@Voto": "Sim            "
                        },
                        {
                            "@Nome": "Benito Gama",
                            "@ideCadastro": "74535",
                            "@Partido": "PFL       ",
                            "@UF": "BA",
                            "@Voto": "Sim            "
                        },
                        {
                            "@Nome": "Beraldo Boaventura",
                            "@ideCadastro": "73814",
                            "@Partido": "PDT       ",
                            "@UF": "BA",
                            "@Voto": "Sim            "
                        },
                        {
                            "@Nome": "Clóvis Assis",
                            "@ideCadastro": "73721",
                            "@Partido": "PDT       ",
                            "@UF": "BA",
                            "@Voto": "Sim            "
                        },
                        {
                            "@Nome": "Eraldo Tinoco",
                            "@ideCadastro": "74540",
                            "@Partido": "PFL       ",
                            "@UF": "BA",
                            "@Voto": "Sim            "
                        },
                        {
                            "@Nome": "Waldir Pires",
                            "@ideCadastro": "74576",
                            "@Partido": "PDT       ",
                            "@UF": "BA",
                            "@Voto": "Sim            "
                        },
                        {
                            "@Nome": "Geddel Vieira Lima",
                            "@ideCadastro": "74544",
                            "@Partido": "PMDB      ",
                            "@UF": "BA",
                            "@Voto": "Sim            "
                        },
                        {
                            "@Nome": "Genebaldo Correia",
                            "@ideCadastro": "133979",
                            "@Partido": "PMDB      ",
                            "@UF": "BA",
                            "@Voto": "Sim            "
                        },
                        {
                            "@Nome": "Haroldo Lima",
                            "@ideCadastro": "74545",
                            "@Partido": "PCdoB     ",
                            "@UF": "BA",
                            "@Voto": "Sim            "
                        },
                        {
                            "@Nome": "Jabes Ribeiro",
                            "@ideCadastro": "73742",
                            "@Partido": "PSDB      ",
                            "@UF": "BA",
                            "@Voto": "Sim            "
                        },
                        {
                            "@Nome": "Jaques Wagner",
                            "@ideCadastro": "74548",
                            "@Partido": "PT        ",
                            "@UF": "BA",
                            "@Voto": "Sim            "
                        },
                        {
                            "@Nome": "João Almeida",
                            "@ideCadastro": "74549",
                            "@Partido": "PMDB      ",
                            "@UF": "BA",
                            "@Voto": "Sim            "
                        },
                        {
                            "@Nome": "João Carlos Bacelar",
                            "@ideCadastro": "74131",
                            "@Partido": "S.Part.   ",
                            "@UF": "BA",
                            "@Voto": "Sim            "
                        },
                        {
                            "@Nome": "Jorge Khoury",
                            "@ideCadastro": "74552",
                            "@Partido": "PFL       ",
                            "@UF": "BA",
                            "@Voto": "Sim            "
                        },
                        {
                            "@Nome": "José Carlos Aleluia",
                            "@ideCadastro": "74553",
                            "@Partido": "PFL       ",
                            "@UF": "BA",
                            "@Voto": "Sim            "
                        },
                        {
                            "@Nome": "José Falcão",
                            "@ideCadastro": "133941",
                            "@Partido": "PFL       ",
                            "@UF": "BA",
                            "@Voto": "Sim            "
                        },
                        {
                            "@Nome": "Ribeiro Tavares",
                            "@ideCadastro": "73830",
                            "@Partido": "PL        ",
                            "@UF": "BA",
                            "@Voto": "Sim            "
                        },
                        {
                            "@Nome": "Jutahy Júnior",
                            "@ideCadastro": "74570",
                            "@Partido": "PSDB      ",
                            "@UF": "BA",
                            "@Voto": "Sim            "
                        },
                        {
                            "@Nome": "Leur Lomanto",
                            "@ideCadastro": "74555",
                            "@Partido": "PFL       ",
                            "@UF": "BA",
                            "@Voto": "Sim            "
                        },
                        {
                            "@Nome": "Luís Eduardo",
                            "@ideCadastro": "74630",
                            "@Partido": "PFL       ",
                            "@UF": "BA",
                            "@Voto": "Sim            "
                        },
                        {
                            "@Nome": "Luiz Moreira",
                            "@ideCadastro": "74632",
                            "@Partido": "PTB       ",
                            "@UF": "BA",
                            "@Voto": "Sim            "
                        },
                        {
                            "@Nome": "Luiz Viana Neto",
                            "@ideCadastro": "133967",
                            "@Partido": "S.Part.   ",
                            "@UF": "BA",
                            "@Voto": "Sim            "
                        },
                        {
                            "@Nome": "Alcides Modesto",
                            "@ideCadastro": "74532",
                            "@Partido": "PT        ",
                            "@UF": "BA",
                            "@Voto": "Sim            "
                        },
                        {
                            "@Nome": "Manoel Castro",
                            "@ideCadastro": "74633",
                            "@Partido": "PFL       ",
                            "@UF": "BA",
                            "@Voto": "Sim            "
                        },
                        {
                            "@Nome": "Pedro Irujo",
                            "@ideCadastro": "74637",
                            "@Partido": "PMDB      ",
                            "@UF": "BA",
                            "@Voto": "Sim            "
                        },
                        {
                            "@Nome": "Sérgio Gaudenzi",
                            "@ideCadastro": "133949",
                            "@Partido": "PDT       ",
                            "@UF": "BA",
                            "@Voto": "Sim            "
                        },
                        {
                            "@Nome": "Uldurico Pinto",
                            "@ideCadastro": "73809",
                            "@Partido": "PSB       ",
                            "@UF": "BA",
                            "@Voto": "Sim            "
                        },
                        {
                            "@Nome": "Agostinho Valente",
                            "@ideCadastro": "73694",
                            "@Partido": "PT        ",
                            "@UF": "MG",
                            "@Voto": "Sim            "
                        },
                        {
                            "@Nome": "Aracely de Paula",
                            "@ideCadastro": "74648",
                            "@Partido": "PFL       ",
                            "@UF": "MG",
                            "@Voto": "Sim            "
                        },
                        {
                            "@Nome": "Armando Costa",
                            "@ideCadastro": "74649",
                            "@Partido": "PMDB      ",
                            "@UF": "MG",
                            "@Voto": "Sim            "
                        },
                        {
                            "@Nome": "Avelino Costa",
                            "@ideCadastro": "73634",
                            "@Partido": "PL        ",
                            "@UF": "MG",
                            "@Voto": "Sim            "
                        },
                        {
                            "@Nome": "Fernando Diniz",
                            "@ideCadastro": "74658",
                            "@Partido": "PMDB      ",
                            "@UF": "MG",
                            "@Voto": "Sim            "
                        },
                        {
                            "@Nome": "Genésio Bernardino",
                            "@ideCadastro": "74659",
                            "@Partido": "PMDB      ",
                            "@UF": "MG",
                            "@Voto": "Sim            "
                        },
                        {
                            "@Nome": "Humberto Souto",
                            "@ideCadastro": "74662",
                            "@Partido": "PFL       ",
                            "@UF": "MG",
                            "@Voto": "Não            "
                        },
                        {
                            "@Nome": "Ibrahim Abi-Ackel",
                            "@ideCadastro": "74663",
                            "@Partido": "PDS       ",
                            "@UF": "MG",
                            "@Voto": "Sim            "
                        },
                        {
                            "@Nome": "Israel Pinheiro",
                            "@ideCadastro": "74664",
                            "@Partido": "PRS       ",
                            "@UF": "MG",
                            "@Voto": "Sim            "
                        },
                        {
                            "@Nome": "João Rosa",
                            "@ideCadastro": "133921",
                            "@Partido": "PSC       ",
                            "@UF": "MG",
                            "@Voto": "Sim            "
                        },
                        {
                            "@Nome": "João Paulo",
                            "@ideCadastro": "133969",
                            "@Partido": "PT        ",
                            "@UF": "MG",
                            "@Voto": "Sim            "
                        },
                        {
                            "@Nome": "Elias Murad",
                            "@ideCadastro": "74656",
                            "@Partido": "PSDB      ",
                            "@UF": "MG",
                            "@Voto": "Sim            "
                        },
                        {
                            "@Nome": "José Geraldo",
                            "@ideCadastro": "133981",
                            "@Partido": "PMDB      ",
                            "@UF": "MG",
                            "@Voto": "Sim            "
                        },
                        {
                            "@Nome": "José Santana de Vasconcellos",
                            "@ideCadastro": "74741",
                            "@Partido": "PFL       ",
                            "@UF": "MG",
                            "@Voto": "Sim            "
                        },
                        {
                            "@Nome": "Luiz Tadeu Leite",
                            "@ideCadastro": "133922",
                            "@Partido": "PMDB      ",
                            "@UF": "MG",
                            "@Voto": "Sim            "
                        },
                        {
                            "@Nome": "Marcos Lima",
                            "@ideCadastro": "74745",
                            "@Partido": "PMDB      ",
                            "@UF": "MG",
                            "@Voto": "Sim            "
                        },
                        {
                            "@Nome": "Maurício Campos",
                            "@ideCadastro": "74748",
                            "@Partido": "PL        ",
                            "@UF": "MG",
                            "@Voto": "Sim            "
                        },
                        {
                            "@Nome": "Odelmo Leão",
                            "@ideCadastro": "74752",
                            "@Partido": "PP        ",
                            "@UF": "MG",
                            "@Voto": "Sim            "
                        },
                        {
                            "@Nome": "Osmânio Pereira",
                            "@ideCadastro": "74753",
                            "@Partido": "PSDB      ",
                            "@UF": "MG",
                            "@Voto": "Sim            "
                        },
                        {
                            "@Nome": "Paulino Cícero de Vasconcelos",
                            "@ideCadastro": "133923",
                            "@Partido": "PSDB      ",
                            "@UF": "MG",
                            "@Voto": "Sim            "
                        },
                        {
                            "@Nome": "Paulo Delgado",
                            "@ideCadastro": "74754",
                            "@Partido": "PT        ",
                            "@UF": "MG",
                            "@Voto": "Sim            "
                        },
                        {
                            "@Nome": "Raul Belém",
                            "@ideCadastro": "74757",
                            "@Partido": "PP        ",
                            "@UF": "MG",
                            "@Voto": "Sim            "
                        },
                        {
                            "@Nome": "Samir Tannus",
                            "@ideCadastro": "133924",
                            "@Partido": "PDC       ",
                            "@UF": "MG",
                            "@Voto": "Sim            "
                        },
                        {
                            "@Nome": "Sergio Naya",
                            "@ideCadastro": "74764",
                            "@Partido": "PMDB      ",
                            "@UF": "MG",
                            "@Voto": "Sim            "
                        },
                        {
                            "@Nome": "Vittorio Medioli",
                            "@ideCadastro": "74768",
                            "@Partido": "PSDB      ",
                            "@UF": "MG",
                            "@Voto": "Sim            "
                        },
                        {
                            "@Nome": "Wagner do Nascimento",
                            "@ideCadastro": "74132",
                            "@Partido": "PP        ",
                            "@UF": "MG",
                            "@Voto": "Sim            "
                        },
                        {
                            "@Nome": "Zaire Rezende",
                            "@ideCadastro": "74769",
                            "@Partido": "PMDB      ",
                            "@UF": "MG",
                            "@Voto": "Sim            "
                        },
                        {
                            "@Nome": "Aloizio Santos",
                            "@ideCadastro": "73581",
                            "@Partido": "PDT       ",
                            "@UF": "ES",
                            "@Voto": "Sim            "
                        },
                        {
                            "@Nome": "Etevalda Grassi de Menezes",
                            "@ideCadastro": "74138",
                            "@Partido": "PMDB      ",
                            "@UF": "ES",
                            "@Voto": "Sim            "
                        },
                        {
                            "@Nome": "Jones Santos Neves",
                            "@ideCadastro": "133974",
                            "@Partido": "PL        ",
                            "@UF": "ES",
                            "@Voto": "Sim            "
                        },
                        {
                            "@Nome": "Paulo Hartung",
                            "@ideCadastro": "133934",
                            "@Partido": "PSDB      ",
                            "@UF": "ES",
                            "@Voto": "Sim            "
                        },
                        {
                            "@Nome": "Rita Camata",
                            "@ideCadastro": "74777",
                            "@Partido": "PMDB      ",
                            "@UF": "ES",
                            "@Voto": "Sim            "
                        },
                        {
                            "@Nome": "Roberto Valadão",
                            "@ideCadastro": "74826",
                            "@Partido": "PMDB      ",
                            "@UF": "ES",
                            "@Voto": "Sim            "
                        },
                        {
                            "@Nome": "Rose de Freitas",
                            "@ideCadastro": "73507",
                            "@Partido": "PSDB      ",
                            "@UF": "ES",
                            "@Voto": "Sim            "
                        },
                        {
                            "@Nome": "Sérgio Arouca",
                            "@ideCadastro": "73423",
                            "@Partido": "PCB       ",
                            "@UF": "RJ",
                            "@Voto": "Sim            "
                        },
                        {
                            "@Nome": "Carlos Alberto Campista",
                            "@ideCadastro": "74224",
                            "@Partido": "PDT       ",
                            "@UF": "RJ",
                            "@Voto": "Sim            "
                        },
                        {
                            "@Nome": "Cesar Maia",
                            "@ideCadastro": "133987",
                            "@Partido": "PMDB      ",
                            "@UF": "RJ",
                            "@Voto": "Sim            "
                        },
                        {
                            "@Nome": "Flávio Palmier da Veiga",
                            "@ideCadastro": "74223",
                            "@Partido": "PSDB      ",
                            "@UF": "RJ",
                            "@Voto": "Sim            "
                        },
                        {
                            "@Nome": "Francisco Dornelles",
                            "@ideCadastro": "74844",
                            "@Partido": "PPR       ",
                            "@UF": "RJ",
                            "@Voto": "Não            "
                        },
                        {
                            "@Nome": "Jair Bolsonaro",
                            "@ideCadastro": "74847",
                            "@Partido": "PDC       ",
                            "@UF": "RJ",
                            "@Voto": "Sim            "
                        },
                        {
                            "@Nome": "Jamil Haddad",
                            "@ideCadastro": "74338",
                            "@Partido": "PSB       ",
                            "@UF": "RJ",
                            "@Voto": "Sim            "
                        },
                        {
                            "@Nome": "Jandira Feghali",
                            "@ideCadastro": "74848",
                            "@Partido": "PCdoB     ",
                            "@UF": "RJ",
                            "@Voto": "Sim            "
                        },
                        {
                            "@Nome": "Marcia Cibilis Vianna",
                            "@ideCadastro": "74859",
                            "@Partido": "PDT       ",
                            "@UF": "RJ",
                            "@Voto": "Sim            "
                        },
                        {
                            "@Nome": "Paulo Portugal",
                            "@ideCadastro": "133947",
                            "@Partido": "PDT       ",
                            "@UF": "RJ",
                            "@Voto": "Sim            "
                        },
                        {
                            "@Nome": "Roberto Jefferson",
                            "@ideCadastro": "73420",
                            "@Partido": "PTB       ",
                            "@UF": "RJ",
                            "@Voto": "Sim            "
                        },
                        {
                            "@Nome": "Rubem Medina",
                            "@ideCadastro": "73422",
                            "@Partido": "PFL       ",
                            "@UF": "RJ",
                            "@Voto": "Sim            "
                        },
                        {
                            "@Nome": "Sidney de Miguel",
                            "@ideCadastro": "73856",
                            "@Partido": "PV        ",
                            "@UF": "RJ",
                            "@Voto": "Sim            "
                        },
                        {
                            "@Nome": "Simão Sessim",
                            "@ideCadastro": "73424",
                            "@Partido": "PPR       ",
                            "@UF": "RJ",
                            "@Voto": "Sim            "
                        },
                        {
                            "@Nome": "Vivaldo Barbosa",
                            "@ideCadastro": "74694",
                            "@Partido": "PDT       ",
                            "@UF": "RJ",
                            "@Voto": "Sim            "
                        },
                        {
                            "@Nome": "Vladimir Palmeira",
                            "@ideCadastro": "133985",
                            "@Partido": "PT        ",
                            "@UF": "RJ",
                            "@Voto": "Sim            "
                        },
                        {
                            "@Nome": "Miro Teixeira",
                            "@ideCadastro": "74862",
                            "@Partido": "PDT       ",
                            "@UF": "RJ",
                            "@Voto": "Sim            "
                        },
                        {
                            "@Nome": "Alberto Goldman",
                            "@ideCadastro": "73427",
                            "@Partido": "PMDB      ",
                            "@UF": "SP",
                            "@Voto": "Sim            "
                        },
                        {
                            "@Nome": "Aloizio Mercadante",
                            "@ideCadastro": "74697",
                            "@Partido": "PT        ",
                            "@UF": "SP",
                            "@Voto": "Sim            "
                        },
                        {
                            "@Nome": "Cunha Bueno",
                            "@ideCadastro": "73443",
                            "@Partido": "PDS       ",
                            "@UF": "SP",
                            "@Voto": "Sim            "
                        },
                        {
                            "@Nome": "Arnaldo Faria de Sá",
                            "@ideCadastro": "73434",
                            "@Partido": "PPR       ",
                            "@UF": "SP",
                            "@Voto": "Sim            "
                        },
                        {
                            "@Nome": "Diogo Nomura",
                            "@ideCadastro": "133885",
                            "@Partido": "PL        ",
                            "@UF": "SP",
                            "@Voto": "Sim            "
                        },
                        {
                            "@Nome": "Eduardo Jorge",
                            "@ideCadastro": "73448",
                            "@Partido": "PT        ",
                            "@UF": "SP",
                            "@Voto": "Sim            "
                        },
                        {
                            "@Nome": "Ernesto Gradella",
                            "@ideCadastro": "73729",
                            "@Partido": "S.Part.   ",
                            "@UF": "SP",
                            "@Voto": "Sim            "
                        },
                        {
                            "@Nome": "Fábio Feldmann",
                            "@ideCadastro": "73449",
                            "@Partido": "PSDB      ",
                            "@UF": "SP",
                            "@Voto": "Sim            "
                        },
                        {
                            "@Nome": "Florestan Fernandes",
                            "@ideCadastro": "133873",
                            "@Partido": "PT        ",
                            "@UF": "SP",
                            "@Voto": "Sim            "
                        },
                        {
                            "@Nome": "Gastone Righi",
                            "@ideCadastro": "133964",
                            "@Partido": "PTB       ",
                            "@UF": "SP",
                            "@Voto": "Sim            "
                        },
                        {
                            "@Nome": "Geraldo Alckmin Filho",
                            "@ideCadastro": "65480",
                            "@Partido": "PSDB      ",
                            "@UF": "SP",
                            "@Voto": "Sim            "
                        },
                        {
                            "@Nome": "Heitor Franco",
                            "@ideCadastro": "73739",
                            "@Partido": "PPR       ",
                            "@UF": "SP",
                            "@Voto": "Sim            "
                        },
                        {
                            "@Nome": "Hélio Rosas",
                            "@ideCadastro": "73530",
                            "@Partido": "PMDB      ",
                            "@UF": "SP",
                            "@Voto": "Sim            "
                        },
                        {
                            "@Nome": "Hélio Bicudo",
                            "@ideCadastro": "73453",
                            "@Partido": "PT        ",
                            "@UF": "SP",
                            "@Voto": "Sim            "
                        },
                        {
                            "@Nome": "Maluly Netto",
                            "@ideCadastro": "73547",
                            "@Partido": "PFL       ",
                            "@UF": "SP",
                            "@Voto": "Sim            "
                        },
                        {
                            "@Nome": "Jorge Tadeu Mudalen",
                            "@ideCadastro": "73535",
                            "@Partido": "PMDB      ",
                            "@UF": "SP",
                            "@Voto": "Sim            "
                        },
                        {
                            "@Nome": "Aldo Rebelo",
                            "@ideCadastro": "73428",
                            "@Partido": "PCdoB     ",
                            "@UF": "SP",
                            "@Voto": "Sim            "
                        },
                        {
                            "@Nome": "José Cicote",
                            "@ideCadastro": "73751",
                            "@Partido": "PT        ",
                            "@UF": "SP",
                            "@Voto": "Sim            "
                        },
                        {
                            "@Nome": "José Genoíno",
                            "@ideCadastro": "73540",
                            "@Partido": "PT        ",
                            "@UF": "SP",
                            "@Voto": "Sim            "
                        },
                        {
                            "@Nome": "Tuga Angerami",
                            "@ideCadastro": "73562",
                            "@Partido": "PSDB      ",
                            "@UF": "SP",
                            "@Voto": "Sim            "
                        },
                        {
                            "@Nome": "Liberato Caboclo",
                            "@ideCadastro": "73754",
                            "@Partido": "PDT       ",
                            "@UF": "SP",
                            "@Voto": "Sim            "
                        },
                        {
                            "@Nome": "Mendes Botelho",
                            "@ideCadastro": "133965",
                            "@Partido": "PTB       ",
                            "@UF": "SP",
                            "@Voto": "Sim            "
                        },
                        {
                            "@Nome": "José Serra",
                            "@ideCadastro": "65495",
                            "@Partido": "PSDB      ",
                            "@UF": "SP",
                            "@Voto": "Sim            "
                        },
                        {
                            "@Nome": "Jurandyr Paixão",
                            "@ideCadastro": "132146",
                            "@Partido": "PMDB      ",
                            "@UF": "SP",
                            "@Voto": "Sim            "
                        },
                        {
                            "@Nome": "Nelson Marquezelli",
                            "@ideCadastro": "73553",
                            "@Partido": "PTB       ",
                            "@UF": "SP",
                            "@Voto": "Sim            "
                        },
                        {
                            "@Nome": "Oswaldo Stecca",
                            "@ideCadastro": "73843",
                            "@Partido": "PMDB      ",
                            "@UF": "SP",
                            "@Voto": "Sim            "
                        },
                        {
                            "@Nome": "Ricardo Izar",
                            "@ideCadastro": "73557",
                            "@Partido": "PL        ",
                            "@UF": "SP",
                            "@Voto": "Sim            "
                        },
                        {
                            "@Nome": "Robson Tuma",
                            "@ideCadastro": "73558",
                            "@Partido": "PL        ",
                            "@UF": "SP",
                            "@Voto": "Sim            "
                        },
                        {
                            "@Nome": "Solon Borges dos Reis",
                            "@ideCadastro": "133966",
                            "@Partido": "PTB       ",
                            "@UF": "SP",
                            "@Voto": "Sim            "
                        },
                        {
                            "@Nome": "Tadashi Kuriki",
                            "@ideCadastro": "133886",
                            "@Partido": "PPR       ",
                            "@UF": "SP",
                            "@Voto": "Sim            "
                        },
                        {
                            "@Nome": "Valdemar Costa Neto",
                            "@ideCadastro": "73565",
                            "@Partido": "PL        ",
                            "@UF": "SP",
                            "@Voto": "Sim            "
                        },
                        {
                            "@Nome": "Walter Nory",
                            "@ideCadastro": "73812",
                            "@Partido": "PMDB      ",
                            "@UF": "SP",
                            "@Voto": "Sim            "
                        },
                        {
                            "@Nome": "Augustinho Freitas",
                            "@ideCadastro": "73647",
                            "@Partido": "PTB       ",
                            "@UF": "MT",
                            "@Voto": "Sim            "
                        },
                        {
                            "@Nome": "João Teixeira",
                            "@ideCadastro": "73744",
                            "@Partido": "PL        ",
                            "@UF": "MT",
                            "@Voto": "Sim            "
                        },
                        {
                            "@Nome": "Jonas Pinheiro",
                            "@ideCadastro": "73710",
                            "@Partido": "PFL       ",
                            "@UF": "MT",
                            "@Voto": "Sim            "
                        },
                        {
                            "@Nome": "Rodrigues Palma",
                            "@ideCadastro": "73650",
                            "@Partido": "PTB       ",
                            "@UF": "MT",
                            "@Voto": "Sim            "
                        },
                        {
                            "@Nome": "Welinton Fagundes",
                            "@ideCadastro": "73653",
                            "@Partido": "PL        ",
                            "@UF": "MT",
                            "@Voto": "Sim            "
                        },
                        {
                            "@Nome": "Augusto Carvalho",
                            "@ideCadastro": "73655",
                            "@Partido": "PCB       ",
                            "@UF": "DF",
                            "@Voto": "Sim            "
                        },
                        {
                            "@Nome": "Sigmaringa Seixas",
                            "@ideCadastro": "73718",
                            "@Partido": "PSDB      ",
                            "@UF": "DF",
                            "@Voto": "Sim            "
                        },
                        {
                            "@Nome": "Maria Laura",
                            "@ideCadastro": "73659",
                            "@Partido": "PT        ",
                            "@UF": "DF",
                            "@Voto": "Sim            "
                        },
                        {
                            "@Nome": "Osório Adriano",
                            "@ideCadastro": "73660",
                            "@Partido": "PFL       ",
                            "@UF": "DF",
                            "@Voto": "Sim            "
                        },
                        {
                            "@Nome": "Paulo Octávio",
                            "@ideCadastro": "74804",
                            "@Partido": "PRN       ",
                            "@UF": "DF",
                            "@Voto": "Sim            "
                        },
                        {
                            "@Nome": "João Natal",
                            "@ideCadastro": "73664",
                            "@Partido": "PMDB      ",
                            "@UF": "GO",
                            "@Voto": "Sim            "
                        },
                        {
                            "@Nome": "Lázaro Barbosa",
                            "@ideCadastro": "",
                            "@Partido": "PMDB      ",
                            "@UF": "GO",
                            "@Voto": "Sim            "
                        },
                        {
                            "@Nome": "Lucia Vânia",
                            "@ideCadastro": "65498",
                            "@Partido": "PMDB      ",
                            "@UF": "GO",
                            "@Voto": "Sim            "
                        },
                        {
                            "@Nome": "Maria Valadão",
                            "@ideCadastro": "73669",
                            "@Partido": "PDS       ",
                            "@UF": "GO",
                            "@Voto": "Sim            "
                        },
                        {
                            "@Nome": "Mauro Borges",
                            "@ideCadastro": "1535",
                            "@Partido": "PDC       ",
                            "@UF": "GO",
                            "@Voto": "Sim            "
                        },
                        {
                            "@Nome": "Mauro Miranda",
                            "@ideCadastro": "73797",
                            "@Partido": "PMDB      ",
                            "@UF": "GO",
                            "@Voto": "Sim            "
                        },
                        {
                            "@Nome": "Paulo Mandarino",
                            "@ideCadastro": "73849",
                            "@Partido": "PDC       ",
                            "@UF": "GO",
                            "@Voto": "Sim            "
                        },
                        {
                            "@Nome": "Roberto Balestra",
                            "@ideCadastro": "73674",
                            "@Partido": "PDC       ",
                            "@UF": "GO",
                            "@Voto": "Sim            "
                        },
                        {
                            "@Nome": "Ronaldo Caiado",
                            "@ideCadastro": "74813",
                            "@Partido": "PFL       ",
                            "@UF": "GO",
                            "@Voto": "Sim            "
                        },
                        {
                            "@Nome": "Virmondes Cruvinel",
                            "@ideCadastro": "74019",
                            "@Partido": "PMDB      ",
                            "@UF": "GO",
                            "@Voto": "Sim            "
                        },
                        {
                            "@Nome": "Flávio Derzi",
                            "@ideCadastro": "73758",
                            "@Partido": "PP        ",
                            "@UF": "MS",
                            "@Voto": "Sim            "
                        },
                        {
                            "@Nome": "George Takimoto",
                            "@ideCadastro": "133929",
                            "@Partido": "PFL       ",
                            "@UF": "MS",
                            "@Voto": "Sim            "
                        },
                        {
                            "@Nome": "Waldir Guerra",
                            "@ideCadastro": "133930",
                            "@Partido": "PFL       ",
                            "@UF": "MS",
                            "@Voto": "Sim            "
                        },
                        {
                            "@Nome": "Romero Filho",
                            "@ideCadastro": "133945",
                            "@Partido": "PST       ",
                            "@UF": "PR",
                            "@Voto": "Sim            "
                        },
                        {
                            "@Nome": "Edésio Passos",
                            "@ideCadastro": "73724",
                            "@Partido": "PT        ",
                            "@UF": "PR",
                            "@Voto": "Sim            "
                        },
                        {
                            "@Nome": "Elio Dalla-Vecchia",
                            "@ideCadastro": "73706",
                            "@Partido": "PDT       ",
                            "@UF": "PR",
                            "@Voto": "Sim            "
                        },
                        {
                            "@Nome": "Flávio Arns",
                            "@ideCadastro": "73771",
                            "@Partido": "PSDB      ",
                            "@UF": "PR",
                            "@Voto": "Sim            "
                        },
                        {
                            "@Nome": "Antônio Ueno",
                            "@ideCadastro": "73766",
                            "@Partido": "PFL       ",
                            "@UF": "PR",
                            "@Voto": "Sim            "
                        },
                        {
                            "@Nome": "Ivanio Guerra",
                            "@ideCadastro": "73570",
                            "@Partido": "PFL       ",
                            "@UF": "PR",
                            "@Voto": "Sim            "
                        },
                        {
                            "@Nome": "Joni Varisco",
                            "@ideCadastro": "73747",
                            "@Partido": "PMDB      ",
                            "@UF": "PR",
                            "@Voto": "Sim            "
                        },
                        {
                            "@Nome": "Matheus Iensen",
                            "@ideCadastro": "",
                            "@Partido": "PTB       ",
                            "@UF": "PR",
                            "@Voto": "Sim            "
                        },
                        {
                            "@Nome": "Max Rosenmann",
                            "@ideCadastro": "73780",
                            "@Partido": "PDT       ",
                            "@UF": "PR",
                            "@Voto": "Sim            "
                        },
                        {
                            "@Nome": "Otto Cunha",
                            "@ideCadastro": "133943",
                            "@Partido": "PPR       ",
                            "@UF": "PR",
                            "@Voto": "Sim            "
                        },
                        {
                            "@Nome": "Pedro Tonelli",
                            "@ideCadastro": "73799",
                            "@Partido": "PT        ",
                            "@UF": "PR",
                            "@Voto": "Sim            "
                        },
                        {
                            "@Nome": "Renato Johnsson",
                            "@ideCadastro": "73787",
                            "@Partido": "S.Part.   ",
                            "@UF": "PR",
                            "@Voto": "Sim            "
                        },
                        {
                            "@Nome": "Rubens Bueno",
                            "@ideCadastro": "73466",
                            "@Partido": "PSDB      ",
                            "@UF": "PR",
                            "@Voto": "Sim            "
                        },
                        {
                            "@Nome": "Werner Wanderer",
                            "@ideCadastro": "73792",
                            "@Partido": "PFL       ",
                            "@UF": "PR",
                            "@Voto": "Sim            "
                        },
                        {
                            "@Nome": "Cesar Souza",
                            "@ideCadastro": "73720",
                            "@Partido": "PFL       ",
                            "@UF": "SC",
                            "@Voto": "Sim            "
                        },
                        {
                            "@Nome": "Neuto de Conto",
                            "@ideCadastro": "73881",
                            "@Partido": "PMDB      ",
                            "@UF": "SC",
                            "@Voto": "Sim            "
                        },
                        {
                            "@Nome": "Paulo Duarte",
                            "@ideCadastro": "73846",
                            "@Partido": "PPR       ",
                            "@UF": "SC",
                            "@Voto": "Sim            "
                        },
                        {
                            "@Nome": "Ruberval Pilotto",
                            "@ideCadastro": "133912",
                            "@Partido": "PDS       ",
                            "@UF": "SC",
                            "@Voto": "Sim            "
                        },
                        {
                            "@Nome": "Vasco Furlan",
                            "@ideCadastro": "133960",
                            "@Partido": "PDS       ",
                            "@UF": "SC",
                            "@Voto": "Sim            "
                        },
                        {
                            "@Nome": "Fetter Júnior",
                            "@ideCadastro": "73896",
                            "@Partido": "PDS       ",
                            "@UF": "RS",
                            "@Voto": "Sim            "
                        },
                        {
                            "@Nome": "Adroaldo Streck",
                            "@ideCadastro": "73996",
                            "@Partido": "PSDB      ",
                            "@UF": "RS",
                            "@Voto": "Sim            "
                        },
                        {
                            "@Nome": "Adylson Motta",
                            "@ideCadastro": "73887",
                            "@Partido": "PDS       ",
                            "@UF": "RS",
                            "@Voto": "Sim            "
                        },
                        {
                            "@Nome": "Aldo Pinto",
                            "@ideCadastro": "133876",
                            "@Partido": "PDT       ",
                            "@UF": "RS",
                            "@Voto": "Sim            "
                        },
                        {
                            "@Nome": "Carlos Cardinal",
                            "@ideCadastro": "73890",
                            "@Partido": "PDT       ",
                            "@UF": "RS",
                            "@Voto": "Sim            "
                        },
                        {
                            "@Nome": "Carlos Azambuja",
                            "@ideCadastro": "73641",
                            "@Partido": "PDS       ",
                            "@UF": "RS",
                            "@Voto": "Sim            "
                        },
                        {
                            "@Nome": "Celso Bernardi",
                            "@ideCadastro": "133997",
                            "@Partido": "PDS       ",
                            "@UF": "RS",
                            "@Voto": "Sim            "
                        },
                        {
                            "@Nome": "Eden Pedroso",
                            "@ideCadastro": "133952",
                            "@Partido": "PDT       ",
                            "@UF": "RS",
                            "@Voto": "Sim            "
                        },
                        {
                            "@Nome": "Fernando Carrion",
                            "@ideCadastro": "133950",
                            "@Partido": "PDS       ",
                            "@UF": "RS",
                            "@Voto": "Sim            "
                        },
                        {
                            "@Nome": "Germano Rigotto",
                            "@ideCadastro": "73897",
                            "@Partido": "PMDB      ",
                            "@UF": "RS",
                            "@Voto": "Sim            "
                        },
                        {
                            "@Nome": "Ibsen Pinheiro",
                            "@ideCadastro": "133853",
                            "@Partido": "PMDB      ",
                            "@UF": "RS",
                            "@Voto": "Abstenção      "
                        },
                        {
                            "@Nome": "José Fortunati",
                            "@ideCadastro": "73901",
                            "@Partido": "PT        ",
                            "@UF": "RS",
                            "@Voto": "Sim            "
                        },
                        {
                            "@Nome": "Luis Roberto Ponte",
                            "@ideCadastro": "74002",
                            "@Partido": "PMDB      ",
                            "@UF": "RS",
                            "@Voto": "Sim            "
                        },
                        {
                            "@Nome": "Nelson Proença",
                            "@ideCadastro": "73907",
                            "@Partido": "PMDB      ",
                            "@UF": "RS",
                            "@Voto": "Sim            "
                        },
                        {
                            "@Nome": "Telmo Kirst",
                            "@ideCadastro": "73989",
                            "@Partido": "PDS       ",
                            "@UF": "RS",
                            "@Voto": "Sim            "
                        },
                        {
                            "@Nome": "Victor Faccioni",
                            "@ideCadastro": "133855",
                            "@Partido": "PDS       ",
                            "@UF": "RS",
                            "@Voto": "Sim            "
                        },
                        {
                            "@Nome": "Wilson Muller",
                            "@ideCadastro": "73863",
                            "@Partido": "PDT       ",
                            "@UF": "RS",
                            "@Voto": "Sim            "
                        },
                        {
                            "@Nome": "Eurides Brito",
                            "@ideCadastro": "133892",
                            "@Partido": "PTR       ",
                            "@UF": "DF",
                            "@Voto": "Sim            "
                        },
                        {
                            "@Nome": "José Moura",
                            "@ideCadastro": "133977",
                            "@Partido": "PSC       ",
                            "@UF": "PE",
                            "@Voto": "Sim            "
                        },
                        {
                            "@Nome": "Felipe Mendes",
                            "@ideCadastro": "74314",
                            "@Partido": "PDS       ",
                            "@UF": "PI",
                            "@Voto": "Sim            "
                        },
                        {
                            "@Nome": "Hagahus Araújo",
                            "@ideCadastro": "73819",
                            "@Partido": "PMDB      ",
                            "@UF": "TO",
                            "@Voto": "Sim            "
                        },
                        {
                            "@Nome": "Luiz Soyer",
                            "@ideCadastro": "133870",
                            "@Partido": "PMDB      ",
                            "@UF": "GO",
                            "@Voto": "Sim            "
                        },
                        {
                            "@Nome": "Marino Clinger",
                            "@ideCadastro": "133893",
                            "@Partido": "PDT       ",
                            "@UF": "RJ",
                            "@Voto": "Sim            "
                        },
                        {
                            "@Nome": "Roberto Rollemberg",
                            "@ideCadastro": "133992",
                            "@Partido": "PMDB      ",
                            "@UF": "SP",
                            "@Voto": "Sim            "
                        },
                        {
                            "@Nome": "Jairo Carneiro",
                            "@ideCadastro": "74547",
                            "@Partido": "PFL       ",
                            "@UF": "BA",
                            "@Voto": "Sim            "
                        },
                        {
                            "@Nome": "Pedro Tassis",
                            "@ideCadastro": "133849",
                            "@Partido": "PMDB      ",
                            "@UF": "MG",
                            "@Voto": "Sim            "
                        },
                        {
                            "@Nome": "Caldas Rodrigues",
                            "@ideCadastro": "133895",
                            "@Partido": "PTB       ",
                            "@UF": "PI",
                            "@Voto": "Sim            "
                        },
                        {
                            "@Nome": "Paulo Ramos",
                            "@ideCadastro": "133968",
                            "@Partido": "PDT       ",
                            "@UF": "RJ",
                            "@Voto": "Sim            "
                        },
                        {
                            "@Nome": "Joaquim Sucena",
                            "@ideCadastro": "133857",
                            "@Partido": "PTB       ",
                            "@UF": "MT",
                            "@Voto": "Sim            "
                        },
                        {
                            "@Nome": "Ramalho Leite",
                            "@ideCadastro": "133896",
                            "@Partido": "PDS       ",
                            "@UF": "PB",
                            "@Voto": "Sim            "
                        },
                        {
                            "@Nome": "Antônio Morimoto",
                            "@ideCadastro": "133897",
                            "@Partido": "PTB       ",
                            "@UF": "RO",
                            "@Voto": "Sim            "
                        },
                        {
                            "@Nome": "Lysaneas Maciel",
                            "@ideCadastro": "133982",
                            "@Partido": "PDT       ",
                            "@UF": "RJ",
                            "@Voto": "Sim            "
                        },
                        {
                            "@Nome": "Robson Paulino",
                            "@ideCadastro": "73871",
                            "@Partido": "PMDB      ",
                            "@UF": "PB",
                            "@Voto": "Sim            "
                        },
                        {
                            "@Nome": "Raul Pont",
                            "@ideCadastro": "133953",
                            "@Partido": "PT        ",
                            "@UF": "RS",
                            "@Voto": "Sim            "
                        }
                    ]
                }
            }
        }
    }
}